0.99186,0.54053
1.0025,0.51124
1.0119,0.48561
1.0204,0.46233
1.0204,0.46233
1.0206,0.46234
1.0209,0.46234
1.0211,0.46235
1.0211,0.46235
1.0211,0.46235
1.0211,0.46235
1.0211,0.46235
1.0211,0.46235
1.0211,0.46235
1.0211,0.46235
1.0211,0.46235
1.0211,0.46235
1.0211,0.46235
1.0211,0.46235
1.0211,0.46235
1.0211,0.46235
1.0211,0.46235
1.0211,0.46235
1.0211,0.46235
1.0211,0.46235
1.0211,0.46235
1.0211,0.46235
1.0211,0.46235
1.0211,0.46235
1.0211,0.46235
1.0211,0.46235
1.0211,0.46235
1.0213,0.46235
1.0217,0.46236
1.0219,0.46236
1.0219,0.46236
1.0219,0.46236
1.0219,0.46236
1.0219,0.46236
1.0219,0.46236
1.0217,0.46236
1.0215,0.46236
1.0217,0.46236
1.0219,0.46236
1.0219,0.46236
1.0219,0.46236
1.0219,0.46236
1.0219,0.46236
1.0219,0.46236
1.0219,0.46236
1.0219,0.46236
1.0219,0.46236
1.0219,0.46236
1.0219,0.46236
1.0219,0.46236
1.0219,0.46236
1.0219,0.46236
1.0219,0.46236
1.0219,0.46236
1.0219,0.46236
1.0219,0.46236
1.0212,0.46235
1.0202,0.46233
1.0196,0.46232
1.0196,0.46232
1.0196,0.46232
1.0194,0.46232
1.0191,0.46231
1.0188,0.46231
1.0188,0.46231
1.0188,0.46231
1.0188,0.46231
1.0188,0.46231
1.0188,0.46231
1.0188,0.46231
1.0188,0.46231
1.0188,0.46231
1.0188,0.46231
1.0188,0.46231
1.0188,0.46231
1.0188,0.46231
1.0188,0.46231
1.0188,0.46231
1.0188,0.46231
1.0188,0.46231
1.0188,0.46231
1.0188,0.46231
1.0188,0.46231
1.0188,0.46231
1.0188,0.46231
1.0188,0.46231
1.0184,0.4623
1.0178,0.46229
1.0173,0.46228
1.0173,0.46228
1.0173,0.46228
1.0173,0.46228
1.0173,0.46228
1.0173,0.46228
1.0173,0.46228
1.0173,0.46228
1.0173,0.46228
1.0173,0.46228
1.0173,0.46228
1.0173,0.46228
1.0173,0.46228
1.0173,0.46228
1.0173,0.46228
1.0173,0.46228
1.0173,0.46228
1.0173,0.46228
1.0173,0.46228
1.0173,0.46228
1.0173,0.46228
1.0173,0.46228
1.0173,0.46228
1.0173,0.46228
1.0173,0.46228
1.0173,0.46228
1.0173,0.46228
1.0173,0.46228
1.0173,0.46228
1.0173,0.46228
1.0173,0.46228
1.0173,0.46228
1.0173,0.46228
1.0173,0.46228
1.0173,0.46228
1.0171,0.46228
1.0168,0.46227
1.0166,0.46227
1.0166,0.46227
1.0166,0.46227
1.0166,0.46227
1.0166,0.46227
1.0166,0.46227
1.0166,0.46227
1.0166,0.46227
1.0166,0.46227
1.0161,0.46226
1.0155,0.46225
1.015,0.46224
1.015,0.46224
1.015,0.46224
1.015,0.46224
1.0148,0.46224
1.0145,0.46223
1.0143,0.46223
1.0143,0.46223
1.0141,0.46222
1.0137,0.46222
1.0135,0.46221
1.0135,0.46221
1.0135,0.46221
1.0135,0.46221
1.0135,0.46221
1.0135,0.46221
1.0131,0.46221
1.0124,0.46219
1.012,0.46219
1.012,0.46219
1.0118,0.46218
1.0115,0.46218
1.0112,0.46217
1.0112,0.46217
1.0112,0.46217
1.011,0.46217
1.0107,0.46216
1.0105,0.46216
1.01,0.46215
1.0094,0.46214
1.009,0.46213
1.009,0.46213
1.009,0.46213
1.009,0.46213
1.0087,0.46213
1.0084,0.46212
1.0082,0.46212
1.0082,0.46212
1.0078,0.46211
1.0071,0.4621
1.0067,0.46209
1.0067,0.46209
1.0067,0.46209
1.0067,0.46209
1.0072,0.46066
1.0077,0.45852
1.0079,0.45708
1.0076,0.45708
1.0076,0.45708
1.0074,0.45707
1.0071,0.45707
1.0069,0.45706
1.0069,0.45706
1.0069,0.45706
1.0069,0.45706
1.0097,0.44692
1.0139,0.43151
1.0169,0.421
1.0184,0.41646
1.0207,0.40963
1.02,0.41115
1.0186,0.41416
1.021,0.40654
1.0228,0.40117
1.0231,0.40034
1.0018,0.42533
0.97718,0.44333
0.96376,0.44688
0.9688,0.43066
0.96847,0.43065
0.96824,0.43065
0.96802,0.43065
0.96769,0.43064
0.96747,0.43064
0.96724,0.43063
0.96691,0.43063
0.96647,0.43062
0.96614,0.43061
0.96591,0.43061
0.96569,0.4306
0.96536,0.4306
0.96491,0.43059
0.96458,0.43058
0.96414,0.43057
0.9638,0.43057
0.96358,0.43056
0.96358,0.43056
0.96336,0.43056
0.96303,0.43055
0.96236,0.43054
0.96237,0.42904
0.96294,0.42681
0.96362,0.42531
0.9634,0.42531
0.96307,0.4253
0.9624,0.42529
0.96173,0.42527
0.96128,0.42527
0.96128,0.42527
0.96128,0.42527
0.96128,0.42527
0.96084,0.42526
0.96017,0.42525
0.95972,0.42524
0.95972,0.42524
0.9595,0.42523
0.95917,0.42523
0.95894,0.42522
0.9585,0.42522
0.95783,0.4252
0.95738,0.42519
0.95738,0.42519
0.95738,0.42519
0.95738,0.42519
0.95693,0.42519
0.95672,0.42367
0.95695,0.42141
0.9574,0.4199
0.9574,0.4199
0.9574,0.4199
0.95718,0.4199
0.95684,0.41989
0.95662,0.41989
0.95662,0.41989
0.95617,0.41988
0.9555,0.41987
0.95505,0.41986
0.95505,0.41986
0.95505,0.41986
0.95528,0.41834
0.95562,0.41607
0.95563,0.41454
0.95529,0.41453
0.95507,0.41453
0.95507,0.41453
0.95484,0.41452
0.95451,0.41452
0.95428,0.41451
0.95406,0.41451
0.95372,0.4145
0.95349,0.4145
0.95349,0.4145
0.95327,0.41449
0.95293,0.41449
0.95271,0.41448
0.95248,0.41448
0.95215,0.41447
0.9517,0.41446
0.95136,0.41446
0.95114,0.41445
0.95114,0.41445
0.95136,0.41292
0.9517,0.41063
0.9517,0.40909
0.95136,0.40909
0.95114,0.40908
0.95114,0.40908
0.95114,0.40908
0.95091,0.40908
0.95057,0.40907
0.95035,0.40907
0.95035,0.40907
0.95035,0.40907
0.95012,0.40906
0.94978,0.40906
0.94956,0.40905
0.94933,0.40905
0.94899,0.40904
0.94877,0.40904
0.94877,0.40904
0.94854,0.40903
0.9482,0.40903
0.94798,0.40902
0.94798,0.40902
0.94798,0.40902
0.94798,0.40902
0.94753,0.40901
0.94685,0.409
0.9464,0.40899
0.9464,0.40899
0.94685,0.40746
0.94752,0.40516
0.94797,0.40361
0.94797,0.40361
0.94774,0.40361
0.9474,0.4036
0.94718,0.4036
0.94718,0.4036
0.94718,0.4036
0.94718,0.4036
0.94718,0.4036
0.94718,0.4036
0.94718,0.4036
0.94718,0.4036
0.94718,0.4036
0.94718,0.4036
0.94718,0.4036
0.94718,0.4036
0.94718,0.4036
0.94718,0.4036
0.94718,0.4036
0.94718,0.4036
0.94718,0.4036
0.94718,0.4036
0.94718,0.4036
0.94718,0.4036
0.94718,0.4036
0.94718,0.4036
0.94718,0.4036
0.94718,0.4036
0.94718,0.4036
0.94718,0.4036
0.94718,0.4036
0.94718,0.4036
0.94718,0.4036
0.94718,0.4036
0.94718,0.4036
0.94718,0.4036
0.94718,0.4036
0.94718,0.4036
0.94718,0.4036
0.94718,0.4036
0.94718,0.4036
0.94718,0.4036
0.94718,0.4036
0.94718,0.4036
0.94718,0.4036
0.94718,0.4036
0.94718,0.4036
0.94718,0.4036
0.94718,0.4036
0.94718,0.4036
0.94718,0.4036
0.94718,0.4036
0.94718,0.4036
0.94718,0.4036
0.94718,0.4036
0.94718,0.4036
0.94718,0.4036
0.94718,0.4036
0.94718,0.4036
0.94718,0.4036
0.94718,0.4036
0.94718,0.4036
0.94718,0.4036
0.94718,0.4036
0.94718,0.4036
0.94718,0.4036
0.94718,0.4036
0.94718,0.4036
0.94718,0.4036
0.94718,0.4036
0.94718,0.4036
0.94718,0.4036
0.94718,0.4036
0.94718,0.4036
0.94718,0.4036
0.94718,0.4036
0.94718,0.4036
0.94718,0.4036
0.94718,0.4036
0.94718,0.4036
0.94718,0.4036
0.94718,0.4036
0.94718,0.4036
0.94718,0.4036
0.94718,0.4036
0.94718,0.4036
0.94718,0.4036
0.94718,0.4036
0.94718,0.4036
0.94718,0.4036
0.94718,0.4036
0.94718,0.4036
0.94718,0.4036
0.94718,0.4036
0.94718,0.4036
0.94718,0.4036
0.94718,0.4036
0.94718,0.4036
0.94718,0.4036
0.94718,0.4036
0.94718,0.4036
0.94718,0.4036
0.94718,0.4036
0.94718,0.4036
0.94718,0.4036
0.94718,0.4036
0.94718,0.4036
0.94718,0.4036
0.94718,0.4036
0.94718,0.4036
0.94718,0.4036
0.93971,0.43541
0.93454,0.46359
0.93564,0.46802
0.94116,0.45082
0.94116,0.45082
0.94116,0.45082
0.94116,0.45082
0.94116,0.45082
0.94095,0.45228
0.94064,0.45444
0.94043,0.45589
0.94043,0.45589
0.94043,0.45589
0.94043,0.45589
0.94043,0.45589
0.94043,0.45589
0.94043,0.45589
0.94043,0.45589
0.94043,0.45589
0.94043,0.45589
0.94043,0.45589
0.94043,0.45589
0.94043,0.45589
0.94043,0.45589
0.94043,0.45589
0.94043,0.45589
0.94043,0.45589
0.94022,0.45733
0.93991,0.45948
0.93971,0.46091
0.93971,0.46091
0.93971,0.46091
0.93971,0.46091
0.93993,0.46092
0.93983,0.46235
0.93941,0.46449
0.93899,0.46591
0.93899,0.46591
0.93899,0.46591
0.93899,0.46591
0.93899,0.46591
0.93899,0.46591
0.93899,0.46591
0.93899,0.46591
0.93899,0.46591
0.93899,0.46591
0.93942,0.46592
0.94007,0.46593
0.94051,0.46594
0.94051,0.46594
0.94051,0.46594
0.94051,0.46594
0.94008,0.46736
0.93945,0.46947
0.93903,0.47088
0.93903,0.47088
0.93903,0.47088
0.93903,0.47088
0.93903,0.47088
0.93861,0.47229
0.93798,0.47439
0.93778,0.4758
0.9381,0.47581
0.93832,0.47581
0.93832,0.47581
0.93832,0.47581
0.93832,0.47581
0.93832,0.47581
0.93832,0.47581
0.93832,0.47581
0.93832,0.47581
0.93832,0.47581
0.93832,0.47581
0.93832,0.47581
0.93832,0.47581
0.93832,0.47581
0.93832,0.47581
0.93811,0.47721
0.93781,0.47931
0.93761,0.4807
0.93761,0.4807
0.93761,0.4807
0.93782,0.48071
0.93815,0.48071
0.93794,0.48211
0.93732,0.48418
0.93691,0.48556
0.93691,0.48556
0.93712,0.48557
0.93744,0.48557
0.93724,0.48696
0.93662,0.48901
0.93621,0.49039
0.93621,0.49039
0.93642,0.49039
0.93674,0.4904
0.93695,0.4904
0.93695,0.4904
0.93695,0.4904
0.93695,0.4904
0.93695,0.4904
0.93695,0.4904
0.93695,0.4904
0.93695,0.4904
0.93717,0.49041
0.93749,0.49041
0.9377,0.49042
0.9377,0.49042
0.9377,0.49042
0.9377,0.49042
0.9377,0.49042
0.9377,0.49042
0.9377,0.49042
0.93729,0.49179
0.93667,0.49383
0.93626,0.4952
0.93626,0.4952
0.93626,0.4952
0.93626,0.4952
0.93585,0.49656
0.93523,0.49859
0.93523,0.49859
0.93585,0.49656
0.93626,0.4952
0.93626,0.4952
0.93626,0.4952
0.93626,0.4952
0.93626,0.4952
0.93626,0.4952
0.93626,0.4952
0.93626,0.4952
0.93626,0.4952
0.93626,0.4952
0.93047,0.51405
0.9221,0.54127
0.91667,0.55893
0.91667,0.55893
0.91667,0.55893
0.91667,0.55893
0.91667,0.55893
0.91667,0.55893
0.91667,0.55893
0.91667,0.55893
0.92167,0.5451
0.92931,0.52394
0.93457,0.5094
0.93457,0.5094
0.93457,0.5094
0.93499,0.5094
0.93562,0.50941
0.93604,0.50942
0.93583,0.50942
0.93551,0.50941
0.9353,0.50941
0.93551,0.50941
0.93583,0.50942
0.93625,0.50942
0.93657,0.50943
0.93678,0.50943
0.93678,0.50943
0.93699,0.50944
0.9373,0.50944
0.93751,0.50944
0.93751,0.50944
0.93751,0.50944
0.93751,0.50944
0.93772,0.50945
0.93804,0.50945
0.93825,0.50946
0.93825,0.50946
0.93825,0.50946
0.93825,0.50946
0.93867,0.50946
0.9393,0.50947
0.93972,0.50948
0.93972,0.50948
0.93972,0.50948
0.93972,0.50948
0.93972,0.50948
0.93972,0.50948
0.93972,0.50948
0.93972,0.50948
0.93972,0.50948
0.93973,0.51082
0.93975,0.51282
0.93976,0.51416
0.93976,0.51416
0.93976,0.51416
0.93976,0.51416
0.93976,0.51416
0.93976,0.51416
0.93976,0.51416
0.93976,0.51416
0.93976,0.51416
0.93976,0.51416
0.93176,0.52067
0.92464,0.51453
0.92393,0.4957
0.92907,0.47706
0.92905,0.47565
0.92872,0.47564
0.92851,0.47564
0.92851,0.47564
0.92726,0.47843
0.9254,0.48258
0.92416,0.48535
0.92416,0.48535
0.92416,0.48535
0.92454,0.48257
0.92511,0.4784
0.92549,0.47559
0.92527,0.47558
0.92495,0.47558
0.92473,0.47558
0.92473,0.47558
0.92473,0.47558
0.9243,0.47557
0.92366,0.47556
0.92322,0.47555
0.92279,0.47554
0.92215,0.47553
0.92171,0.47552
0.92171,0.47552
0.92171,0.47552
0.92169,0.47411
0.92164,0.472
0.92161,0.47058
0.92161,0.47058
0.92161,0.47058
0.9214,0.47058
0.92107,0.47057
0.92086,0.47057
0.92042,0.47056
0.91977,0.47055
0.91934,0.47054
0.91934,0.47054
0.91934,0.47054
0.91891,0.47053
0.91826,0.47052
0.91782,0.47051
0.91782,0.47051
0.91782,0.47051
0.91761,0.47051
0.91728,0.47051
0.91707,0.4705
0.91707,0.4705
0.91685,0.4705
0.91653,0.47049
0.91649,0.46907
0.91677,0.46695
0.91695,0.46552
0.91673,0.46552
0.91641,0.46551
0.91619,0.46551
0.91597,0.46551
0.91565,0.4655
0.91543,0.4655
0.91521,0.46549
0.91489,0.46549
0.91467,0.46548
0.91445,0.46548
0.91413,0.46547
0.91369,0.46547
0.91275,0.46688
0.91162,0.46899
0.9114,0.46898
0.91199,0.46687
0.91239,0.46544
0.91156,0.46686
0.91071,0.46755
0.91008,0.46826
0.90988,0.46896
0.90988,0.46896
0.91047,0.46684
0.91065,0.46541
0.91032,0.46541
0.91028,0.46398
0.91055,0.46184
0.91073,0.4604
0.91073,0.4604
0.91051,0.4604
0.91018,0.4604
0.90996,0.46039
0.90974,0.46039
0.90942,0.46038
0.9092,0.46038
0.9092,0.46038
0.90898,0.46037
0.90866,0.46037
0.90822,0.46036
0.90789,0.46035
0.90746,0.46035
0.90713,0.46034
0.90691,0.46034
0.90691,0.46034
0.90691,0.46034
0.90647,0.46033
0.90582,0.46032
0.90538,0.46031
0.90538,0.46031
0.90538,0.46031
0.90538,0.46031
0.90556,0.45887
0.90582,0.45672
0.90599,0.45528
0.90599,0.45528
0.90577,0.45527
0.90544,0.45527
0.90522,0.45526
0.90501,0.45526
0.90468,0.45525
0.90446,0.45525
0.90446,0.45525
0.90446,0.45525
0.90446,0.45525
0.90424,0.45524
0.90391,0.45524
0.90369,0.45523
0.90347,0.45523
0.90315,0.45523
0.90293,0.45522
0.90293,0.45522
0.90271,0.45522
0.90238,0.45521
0.90216,0.45521
0.90194,0.4552
0.90161,0.4552
0.90139,0.45519
0.90139,0.45519
0.90139,0.45519
0.90156,0.45375
0.90182,0.45158
0.90199,0.45012
0.90199,0.45012
0.90177,0.45012
0.90144,0.45011
0.90122,0.45011
0.90122,0.45011
0.90122,0.45011
0.90122,0.45011
0.90122,0.45011
0.90122,0.45011
0.90122,0.45011
0.901,0.45011
0.90067,0.4501
0.90045,0.4501
0.90045,0.4501
0.90045,0.4501
0.90045,0.4501
0.90023,0.45009
0.8999,0.45009
0.89968,0.45008
0.89968,0.45008
0.89968,0.45008
0.89968,0.45008
0.89968,0.45008
0.89968,0.45008
0.89946,0.45008
0.89913,0.45007
0.89891,0.45007
0.89891,0.45007
0.89891,0.45007
0.89891,0.45007
0.89891,0.45007
0.89891,0.45007
0.89891,0.45007
0.89891,0.45007
0.89891,0.45007
0.89869,0.45006
0.89837,0.45006
0.89815,0.45005
0.89815,0.45005
0.89815,0.45005
0.89792,0.45005
0.8976,0.45005
0.89738,0.45004
0.89738,0.45004
0.89738,0.45004
0.89738,0.45004
0.89738,0.45004
0.89738,0.45004
0.89738,0.45004
0.89738,0.45004
0.89738,0.45004
0.89754,0.44858
0.89779,0.4464
0.89796,0.44493
0.89796,0.44493
0.89796,0.44493
0.89796,0.44493
0.89796,0.44493
0.89796,0.44493
0.89796,0.44493
0.89796,0.44493
0.89796,0.44493
0.89796,0.44493
0.89796,0.44493
0.89796,0.44493
0.89796,0.44493
0.89796,0.44493
0.89796,0.44493
0.89796,0.44493
0.89796,0.44493
0.89796,0.44493
0.89796,0.44493
0.89796,0.44493
0.8984,0.44494
0.89906,0.44495
0.8995,0.44496
0.8995,0.44496
0.8995,0.44496
0.8995,0.44496
0.8995,0.44496
0.89933,0.44643
0.89908,0.44861
0.89891,0.45007
0.89891,0.45007
0.89891,0.45007
0.89891,0.45007
0.89891,0.45007
0.89891,0.45007
0.89891,0.45007
0.89891,0.45007
0.89891,0.45007
0.89891,0.45007
0.89935,0.45008
0.90001,0.45009
0.90045,0.4501
0.90045,0.4501
0.90045,0.4501
0.90045,0.4501
0.90045,0.4501
0.90045,0.4501
0.90045,0.4501
0.90045,0.4501
0.90045,0.4501
0.90045,0.4501
0.90045,0.4501
0.90067,0.4501
0.901,0.45011
0.90122,0.45011
0.90122,0.45011
0.90122,0.45011
0.90122,0.45011
0.90122,0.45011
0.90122,0.45011
0.90144,0.45011
0.90177,0.45012
0.90199,0.45012
0.90199,0.45012
0.90199,0.45012
0.90199,0.45012
0.90199,0.45012
0.90221,0.45013
0.90254,0.45013
0.90276,0.45014
0.90276,0.45014
0.90276,0.45014
0.90276,0.45014
0.90337,0.44869
0.90429,0.44652
0.9049,0.44506
0.9049,0.44506
0.9049,0.44506
0.90451,0.44652
0.90392,0.4487
0.90375,0.45015
0.90408,0.45016
0.9043,0.45016
0.9043,0.45016
0.9043,0.45016
0.9043,0.45016
0.90491,0.44871
0.90583,0.44654
0.90645,0.44509
0.90645,0.44509
0.90645,0.44509
0.90645,0.44509
0.90645,0.44509
0.90645,0.44509
0.90667,0.44509
0.907,0.4451
0.90722,0.4451
0.90722,0.4451
0.90722,0.4451
0.90722,0.4451
0.90744,0.4451
0.90777,0.44511
0.90799,0.44511
0.90799,0.44511
0.90799,0.44511
0.90799,0.44511
0.90781,0.44658
0.90755,0.44876
0.90737,0.45022
0.90737,0.45022
0.90737,0.45022
0.90759,0.45022
0.90792,0.45023
0.90814,0.45023
0.90814,0.45023
0.90814,0.45023
0.90814,0.45023
0.90836,0.45024
0.90869,0.45024
0.90891,0.45025
0.90891,0.45025
0.90891,0.45025
0.90891,0.45025
0.90913,0.45025
0.90946,0.45026
0.90968,0.45026
0.90968,0.45026
0.90968,0.45026
0.90968,0.45026
0.90968,0.45026
0.90968,0.45026
0.90968,0.45026
0.90968,0.45026
0.90968,0.45026
0.91012,0.45027
0.91077,0.45028
0.91121,0.45029
0.91121,0.45029
0.91121,0.45029
0.91161,0.44883
0.91221,0.44666
0.91261,0.4452
0.91261,0.4452
0.91261,0.4452
0.91261,0.4452
0.91261,0.4452
0.91261,0.4452
0.91261,0.4452
0.91261,0.4452
0.91261,0.4452
0.91261,0.4452
0.91261,0.4452
0.91261,0.4452
0.91261,0.4452
0.91261,0.4452
0.91261,0.4452
0.91261,0.4452
0.91261,0.4452
0.91261,0.4452
0.91261,0.4452
0.91261,0.4452
0.91261,0.4452
0.91261,0.4452
0.91261,0.4452
0.91284,0.4452
0.91317,0.44521
0.91339,0.44521
0.91339,0.44521
0.91317,0.44521
0.91284,0.4452
0.91261,0.4452
0.91261,0.4452
0.91261,0.4452
0.91261,0.4452
0.91261,0.4452
0.91302,0.44373
0.91362,0.44154
0.91403,0.44007
0.91403,0.44007
0.9134,0.44154
0.91309,0.44226
0.9134,0.44154
0.91381,0.44007
0.91347,0.44006
0.91325,0.44006
0.91325,0.44006
0.91344,0.43858
0.91371,0.43637
0.9139,0.43488
0.9139,0.43488
0.9139,0.43488
0.91367,0.43488
0.91334,0.43487
0.91312,0.43487
0.91312,0.43487
0.91312,0.43487
0.9129,0.43486
0.91257,0.43486
0.91194,0.43633
0.91174,0.43706
0.91194,0.43633
0.91212,0.43485
0.91179,0.43484
0.91157,0.43484
0.91157,0.43484
0.91134,0.43483
0.91101,0.43483
0.91097,0.43334
0.91124,0.43111
0.91143,0.42961
0.91143,0.42961
0.91143,0.42961
0.91143,0.42961
0.91143,0.42961
0.91143,0.42961
0.91143,0.42961
0.9112,0.42961
0.91087,0.4296
0.91065,0.4296
0.91065,0.4296
0.91065,0.4296
0.91042,0.42959
0.91009,0.42959
0.90987,0.42958
0.90987,0.42958
0.90987,0.42958
0.90987,0.42958
0.90964,0.42958
0.90931,0.42957
0.90909,0.42957
0.90909,0.42957
0.90909,0.42957
0.90909,0.42957
0.90909,0.42957
0.90949,0.42807
0.9101,0.42584
0.9105,0.42433
0.91046,0.42282
0.9104,0.42055
0.91036,0.41903
0.91036,0.41903
0.91036,0.41903
0.91036,0.41903
0.91036,0.41903
0.91036,0.41903
0.91013,0.41903
0.9098,0.41902
0.90957,0.41902
0.90957,0.41902
0.90957,0.41902
0.90957,0.41902
0.90935,0.41901
0.90901,0.41901
0.90879,0.419
0.90879,0.419
0.90856,0.419
0.90823,0.41899
0.90778,0.41898
0.90744,0.41898
0.90722,0.41897
0.9074,0.41745
0.90767,0.41518
0.90785,0.41365
0.90785,0.41365
0.90785,0.41365
0.90785,0.41365
0.90785,0.41365
0.90803,0.41211
0.9083,0.40982
0.90848,0.40828
0.90848,0.40828
0.90848,0.40828
0.90848,0.40828
0.90848,0.40828
0.90848,0.40828
0.90848,0.40828
0.90848,0.40828
0.90848,0.40828
0.90848,0.40828
0.90848,0.40828
0.90848,0.40828
0.90848,0.40828
0.90848,0.40828
0.90826,0.40828
0.90792,0.40827
0.9081,0.40673
0.90871,0.40443
0.90912,0.40288
0.90912,0.40288
0.90912,0.40288
0.90912,0.40288
0.9089,0.40288
0.90856,0.40287
0.90833,0.40287
0.90833,0.40287
0.90874,0.40132
0.90936,0.399
0.90977,0.39744
0.90977,0.39744
0.90977,0.39744
0.90954,0.39743
0.9092,0.39743
0.90897,0.39742
0.90897,0.39742
0.90874,0.39742
0.9084,0.39741
0.90818,0.39741
0.90818,0.39741
0.90818,0.39741
0.90818,0.39741
0.90795,0.3974
0.90761,0.3974
0.90738,0.39739
0.90738,0.39739
0.90738,0.39739
0.90756,0.39583
0.90784,0.39349
0.90779,0.39191
0.90745,0.3919
0.90722,0.3919
0.90722,0.3919
0.90722,0.3919
0.90722,0.3919
0.90722,0.3919
0.90722,0.3919
0.90722,0.3919
0.90763,0.39033
0.90825,0.38797
0.90866,0.38639
0.90866,0.38639
0.90866,0.38639
0.90866,0.38639
0.90866,0.38639
0.90866,0.38639
0.90866,0.38639
0.90866,0.38639
0.90866,0.38639
0.90866,0.38639
0.90866,0.38639
0.90866,0.38639
0.90866,0.38639
0.90866,0.38639
0.90866,0.38639
0.90866,0.38639
0.90866,0.38639
0.90866,0.38639
0.90866,0.38639
0.90866,0.38639
0.90866,0.38639
0.90866,0.38639
0.90866,0.38639
0.90908,0.38481
0.9097,0.38244
0.91012,0.38085
0.91012,0.38085
0.91012,0.38085
0.91012,0.38085
0.91012,0.38085
0.91035,0.38085
0.91069,0.38086
0.91092,0.38086
0.91092,0.38086
0.91092,0.38086
0.91115,0.38087
0.9115,0.38087
0.91173,0.38088
0.91173,0.38088
0.91173,0.38088
0.91173,0.38088
0.91196,0.38088
0.9123,0.38089
0.91253,0.38089
0.91253,0.38089
0.91253,0.38089
0.91276,0.3809
0.91311,0.3809
0.91334,0.38091
0.91334,0.38091
0.91334,0.38091
0.91334,0.38091
0.91357,0.38091
0.91391,0.38092
0.91414,0.38092
0.91414,0.38092
0.91437,0.38093
0.91472,0.38094
0.91495,0.38094
0.91495,0.38094
0.91518,0.38094
0.91552,0.38095
0.91575,0.38096
0.91575,0.38096
0.91575,0.38096
0.91598,0.38096
0.91633,0.38097
0.91656,0.38097
0.91679,0.38098
0.91713,0.38098
0.91736,0.38099
0.91736,0.38099
0.91736,0.38099
0.91782,0.381
0.91851,0.38101
0.91897,0.38102
0.91897,0.38102
0.91855,0.38261
0.91834,0.38339
0.91878,0.38261
0.91955,0.38103
0.91935,0.38263
0.91871,0.38499
0.91894,0.385
0.91992,0.38264
0.92058,0.38105
0.92015,0.38264
0.91952,0.38501
0.91974,0.38501
0.92073,0.38265
0.92139,0.38107
0.92185,0.38107
0.92253,0.38109
0.92299,0.3811
0.92299,0.3811
0.92299,0.3811
0.92299,0.3811
0.92322,0.3811
0.92357,0.38111
0.9238,0.38111
0.92403,0.38112
0.92437,0.38112
0.92417,0.38272
0.92353,0.38509
0.92356,0.38668
0.92424,0.38669
0.9247,0.3867
0.9247,0.3867
0.9247,0.3867
0.92516,0.38671
0.92584,0.38672
0.9263,0.38673
0.9263,0.38673
0.9263,0.38673
0.92653,0.38674
0.92688,0.38674
0.9271,0.38675
0.92733,0.38675
0.92768,0.38676
0.92791,0.38676
0.92814,0.38677
0.92848,0.38677
0.92871,0.38678
0.92871,0.38678
0.92894,0.38678
0.92928,0.38679
0.92974,0.3868
0.93031,0.38681
0.93088,0.38682
0.93111,0.38682
0.93134,0.38683
0.93125,0.38841
0.93082,0.39077
0.93084,0.39235
0.93153,0.39236
0.93198,0.39237
0.93198,0.39237
0.93198,0.39237
0.93198,0.39237
0.93244,0.39238
0.93312,0.39239
0.93358,0.3924
0.93404,0.39241
0.93472,0.39242
0.93518,0.39243
0.9354,0.39244
0.93575,0.39244
0.9362,0.39245
0.93654,0.39246
0.93677,0.39246
0.93723,0.39247
0.93791,0.39248
0.93837,0.39249
0.9386,0.3925
0.93849,0.39407
0.93829,0.39641
0.93819,0.39798
0.93864,0.39799
0.93898,0.39799
0.93944,0.398
0.93978,0.39801
0.94001,0.39801
0.94046,0.39802
0.94114,0.39803
0.9416,0.39804
0.9416,0.39804
0.9416,0.39804
0.94756,0.41824
0.96204,0.42821
0.97665,0.41878
0.9829,0.39883
0.9829,0.39883
0.9829,0.39883
0.9829,0.39883
0.9829,0.39883
0.9829,0.39883
0.9829,0.39883
0.9829,0.39883
0.9829,0.39883
0.98313,0.39883
0.98347,0.39884
0.9837,0.39884
0.9837,0.39884
0.9837,0.39884
0.9837,0.39884
0.9837,0.39884
0.9837,0.39884
0.9837,0.39884
0.9837,0.39884
0.9837,0.39884
0.9837,0.39884
0.9837,0.39884
0.98321,0.4004
0.98249,0.40271
0.982,0.40426
0.982,0.40426
0.982,0.40426
0.98297,0.40116
0.98443,0.39652
0.98541,0.39339
0.98541,0.39339
0.98541,0.39339
0.98541,0.39339
0.98541,0.39339
0.98541,0.39339
0.98541,0.39339
0.98541,0.39339
0.98541,0.39339
0.98541,0.39339
0.98541,0.39339
0.98541,0.39339
0.98488,0.39653
0.9841,0.40118
0.98358,0.40429
0.98358,0.40429
0.98358,0.40429
0.98358,0.40429
0.98336,0.40428
0.98302,0.40427
0.98279,0.40427
0.98279,0.40427
0.98279,0.40427
0.98279,0.40427
0.98279,0.40427
0.98279,0.40427
0.98279,0.40427
0.98279,0.40427
0.98279,0.40427
0.98279,0.40427
0.98279,0.40427
0.98279,0.40427
0.98279,0.40427
0.98279,0.40427
0.98279,0.40427
0.98279,0.40427
0.98279,0.40427
0.98279,0.40427
0.98279,0.40427
0.98279,0.40427
0.98279,0.40427
0.98279,0.40427
0.98279,0.40427
0.98279,0.40427
0.98279,0.40427
0.98279,0.40427
0.98279,0.40427
0.98279,0.40427
0.98279,0.40427
0.98279,0.40427
0.98279,0.40427
0.98182,0.40735
0.98038,0.41193
0.97942,0.41498
0.97942,0.41498
0.97942,0.41498
0.97942,0.41498
0.97942,0.41498
0.97942,0.41498
0.97942,0.41498
0.97942,0.41498
0.97942,0.41498
0.97942,0.41498
0.97942,0.41498
0.97942,0.41498
0.97942,0.41498
0.97942,0.41498
0.97942,0.41498
0.97942,0.41498
0.97942,0.41498
0.97942,0.41498
0.97942,0.41498
0.97942,0.41498
0.97942,0.41498
0.97942,0.41498
0.97942,0.41498
0.97942,0.41498
0.97942,0.41498
0.97942,0.41498
0.97847,0.41802
0.97705,0.42253
0.97611,0.42554
0.97611,0.42554
0.97611,0.42554
0.97611,0.42554
0.97611,0.42554
0.97611,0.42554
0.97611,0.42554
0.97588,0.42554
0.97555,0.42553
0.97533,0.42552
0.97533,0.42552
0.97533,0.42552
0.97533,0.42552
0.97533,0.42552
0.97533,0.42552
0.97533,0.42552
0.97533,0.42552
0.97533,0.42552
0.97533,0.42552
0.97533,0.42552
0.97533,0.42552
0.97533,0.42552
0.97533,0.42552
0.97533,0.42552
0.97533,0.42552
0.97533,0.42552
0.97533,0.42552
0.97533,0.42552
0.97533,0.42552
0.97533,0.42552
0.97533,0.42552
0.97416,0.42852
0.97243,0.43296
0.97128,0.43592
0.97128,0.43592
0.97128,0.43592
0.97128,0.43592
0.97128,0.43592
0.97128,0.43592
0.97128,0.43592
0.97128,0.43592
0.97128,0.43592
0.97128,0.43592
0.97128,0.43592
0.97128,0.43592
0.97128,0.43592
0.97128,0.43592
0.97128,0.43592
0.97128,0.43592
0.97128,0.43592
0.97128,0.43592
0.97128,0.43592
0.97128,0.43592
0.97128,0.43592
0.97128,0.43592
0.97128,0.43592
0.97128,0.43592
0.97128,0.43592
0.97128,0.43592
0.97128,0.43592
0.9708,0.43889
0.97008,0.44329
0.9696,0.44622
0.9696,0.44622
0.9696,0.44622
0.9696,0.44622
0.96938,0.44622
0.96906,0.44621
0.96884,0.44621
0.96884,0.44621
0.96884,0.44621
0.96884,0.44621
0.96884,0.44621
0.96884,0.44621
0.96884,0.44621
0.96884,0.44621
0.96884,0.44621
0.96884,0.44621
0.96884,0.44621
0.96884,0.44621
0.96884,0.44621
0.96884,0.44621
0.96884,0.44621
0.96884,0.44621
0.96884,0.44621
0.96884,0.44621
0.96814,0.44912
0.96711,0.45346
0.96642,0.45635
0.96642,0.45635
0.96642,0.45635
0.96642,0.45635
0.96642,0.45635
0.96642,0.45635
0.96642,0.45635
0.96642,0.45635
0.96642,0.45635
0.96642,0.45635
0.96642,0.45635
0.96642,0.45635
0.96642,0.45635
0.96642,0.45635
0.96642,0.45635
0.96642,0.45635
0.96642,0.45635
0.96642,0.45635
0.96642,0.45635
0.96642,0.45635
0.96642,0.45635
0.96574,0.45922
0.96472,0.4635
0.96404,0.46635
0.96404,0.46635
0.96404,0.46635
0.96404,0.46635
0.96404,0.46635
0.96404,0.46635
0.96404,0.46635
0.96404,0.46635
0.96404,0.46635
0.96404,0.46635
0.96404,0.46635
0.96404,0.46635
0.96404,0.46635
0.96404,0.46635
0.96404,0.46635
0.96404,0.46635
0.96404,0.46635
0.96404,0.46635
0.96404,0.46635
0.96404,0.46635
0.96404,0.46635
0.96404,0.46635
0.96404,0.46635
0.96404,0.46635
0.96404,0.46635
0.96404,0.46635
0.96404,0.46635
0.96404,0.46635
0.96404,0.46635
0.96404,0.46635
0.96404,0.46635
0.96315,0.46918
0.96182,0.47339
0.96094,0.4762
0.96094,0.4762
0.96094,0.4762
0.96094,0.4762
0.96094,0.4762
0.96094,0.4762
0.96094,0.4762
0.96094,0.4762
0.96094,0.4762
0.96094,0.4762
0.96094,0.4762
0.96094,0.4762
0.96094,0.4762
0.96094,0.4762
0.96094,0.4762
0.96094,0.4762
0.96094,0.4762
0.96094,0.4762
0.96094,0.4762
0.96094,0.4762
0.96094,0.4762
0.96094,0.4762
0.96094,0.4762
0.96094,0.4762
0.96094,0.4762
0.96094,0.4762
0.96094,0.4762
0.96094,0.4762
0.96094,0.4762
0.96094,0.4762
0.96094,0.4762
0.9594,0.48179
0.95711,0.49004
0.9556,0.49552
0.9556,0.49552
0.9556,0.49552
0.9556,0.49552
0.9556,0.49552
0.9556,0.49552
0.9556,0.49552
0.9556,0.49552
0.9556,0.49552
0.9556,0.49552
0.9556,0.49552
0.9556,0.49552
0.9556,0.49552
0.9556,0.49552
0.9556,0.49552
0.9556,0.49552
0.9556,0.49552
0.9556,0.49552
0.9556,0.49552
0.9556,0.49552
0.9556,0.49552
0.9556,0.49552
0.9556,0.49552
0.9556,0.49552
0.9556,0.49552
0.9556,0.49552
0.9556,0.49552
0.9556,0.49552
0.9556,0.49552
0.9556,0.49552
0.95496,0.49825
0.954,0.5023
0.95336,0.505
0.95336,0.505
0.95336,0.505
0.95336,0.505
0.95336,0.505
0.95336,0.505
0.95336,0.505
0.95336,0.505
0.95336,0.505
0.95336,0.505
0.95336,0.505
0.95336,0.505
0.95336,0.505
0.95336,0.505
0.95336,0.505
0.95336,0.505
0.95293,0.50499
0.9523,0.50498
0.95188,0.50497
0.95188,0.50497
0.95188,0.50497
0.95188,0.50497
0.95188,0.50497
0.95082,0.50766
0.94925,0.51164
0.9482,0.5143
0.9482,0.5143
0.9482,0.5143
0.9482,0.5143
0.94799,0.51429
0.94768,0.51429
0.94747,0.51429
0.94747,0.51429
0.94747,0.51429
0.94747,0.51429
0.94747,0.51429
0.94747,0.51429
0.94747,0.51429
0.94747,0.51429
0.94747,0.51429
0.94747,0.51429
0.94747,0.51429
0.94747,0.51429
0.94705,0.51428
0.94642,0.51427
0.946,0.51426
0.94579,0.51426
0.94548,0.51425
0.94527,0.51425
0.94527,0.51425
0.94527,0.51425
0.94527,0.51425
0.94527,0.51425
0.94527,0.51425
0.94527,0.51425
0.94527,0.51425
0.94402,0.51689
0.94217,0.52082
0.94093,0.52344
0.94093,0.52344
0.94072,0.52344
0.94041,0.52343
0.9402,0.52343
0.93999,0.52343
0.93968,0.52342
0.93926,0.52342
0.93895,0.52341
0.93874,0.52341
0.93874,0.52341
0.93853,0.5234
0.93822,0.5234
0.93801,0.5234
0.93801,0.5234
0.93781,0.52339
0.93749,0.52339
0.93687,0.52338
0.93624,0.52337
0.93583,0.52336
0.93583,0.52336
0.93583,0.52336
0.93562,0.52336
0.9351,0.52335
0.93458,0.52334
0.93437,0.52334
0.93437,0.52334
0.93416,0.52333
0.93385,0.52333
0.93343,0.52332
0.93312,0.52332
0.93291,0.52331
0.93291,0.52331
0.9327,0.52331
0.93239,0.5233
0.93258,0.52199
0.93297,0.52002
0.93306,0.5187
0.93285,0.51869
0.93285,0.51869
0.93243,0.51869
0.9318,0.51868
0.93098,0.51999
0.93039,0.52195
0.92999,0.52326
0.92978,0.52326
0.92947,0.52326
0.92926,0.52325
0.92905,0.52325
0.92874,0.52324
0.92832,0.52324
0.92801,0.52323
0.92759,0.52323
0.92728,0.52322
0.92707,0.52322
0.92686,0.52321
0.92655,0.52321
0.92613,0.5232
0.92582,0.5232
0.9254,0.52319
0.92509,0.52319
0.92467,0.52318
0.92436,0.52317
0.92415,0.52317
0.92415,0.52317
0.92433,0.52185
0.92461,0.51988
0.92458,0.51856
0.92427,0.51855
0.92406,0.51855
0.92385,0.51855
0.92333,0.51854
0.92281,0.51853
0.92239,0.51852
0.92207,0.51852
0.92186,0.51851
0.92066,0.52114
0.91888,0.52505
0.91808,0.52635
0.91943,0.52177
0.91999,0.51916
0.92028,0.51782
0.91957,0.51915
0.91997,0.51781
0.92014,0.5165
0.92072,0.51385
0.91988,0.51383
0.91925,0.51382
0.91883,0.51382
0.91883,0.51382
0.91883,0.51382
0.91883,0.51382
0.91883,0.51382
0.91841,0.51381
0.91778,0.5138
0.91715,0.51379
0.91683,0.51378
0.91662,0.51378
0.91641,0.51378
0.9161,0.51377
0.91568,0.51376
0.91536,0.51376
0.91494,0.51375
0.91463,0.51375
0.91442,0.51374
0.91421,0.51374
0.91389,0.51373
0.91347,0.51373
0.91316,0.51372
0.91274,0.51372
0.91242,0.51371
0.912,0.5137
0.91169,0.5137
0.91148,0.51369
0.91148,0.51369
0.91106,0.51369
0.91043,0.51368
0.91077,0.51101
0.91171,0.50701
0.91216,0.50431
0.91195,0.50431
0.91195,0.50431
0.91153,0.5043
0.91089,0.50429
0.91047,0.50428
0.91047,0.50428
0.91026,0.50428
0.90973,0.50427
0.9092,0.50426
0.90899,0.50426
0.90878,0.50426
0.90846,0.50425
0.90804,0.50424
0.90772,0.50424
0.90751,0.50423
0.90751,0.50423
0.9073,0.50423
0.90698,0.50423
0.90656,0.50422
0.90624,0.50421
0.90603,0.50421
0.9062,0.50286
0.90645,0.50083
0.90662,0.49947
0.90641,0.49947
0.90609,0.49947
0.90588,0.49946
0.90566,0.49946
0.90535,0.49945
0.9053,0.49809
0.90555,0.49605
0.90572,0.49468
0.90572,0.49468
0.90551,0.49468
0.90519,0.49467
0.90498,0.49467
0.90476,0.49467
0.90423,0.49466
0.9037,0.49465
0.90349,0.49465
0.90327,0.49464
0.90296,0.49464
0.90274,0.49463
0.90253,0.49463
0.90221,0.49462
0.90178,0.49462
0.90146,0.49461
0.90142,0.49324
0.90145,0.49118
0.9013,0.4898
0.90108,0.48979
0.90108,0.48979
0.90087,0.48979
0.90055,0.48979
0.90071,0.48841
0.90107,0.48634
0.90113,0.48495
0.90091,0.48495
0.90091,0.48495
0.9007,0.48495
0.90038,0.48494
0.90016,0.48494
0.89995,0.48493
0.89962,0.48493
0.89941,0.48492
0.89919,0.48492
0.89887,0.48491
0.89866,0.48491
0.89866,0.48491
0.89844,0.48491
0.89812,0.4849
0.89769,0.48489
0.89737,0.48489
0.89732,0.48349
0.89756,0.48142
0.89773,0.48002
0.89773,0.48002
0.89751,0.48001
0.89719,0.48001
0.89697,0.48001
0.89697,0.48001
0.89692,0.4786
0.89684,0.4765
0.89679,0.47509
0.89679,0.47509
0.89679,0.47509
0.89657,0.47509
0.89625,0.47508
0.89603,0.47508
0.89582,0.47508
0.89549,0.47507
0.89528,0.47507
0.89506,0.47506
0.89474,0.47506
0.89452,0.47505
0.8943,0.47505
0.89398,0.47504
0.89355,0.47504
0.89322,0.47503
0.89317,0.47362
0.89341,0.47151
0.89357,0.47009
0.89357,0.47009
0.89335,0.47009
0.89303,0.47008
0.89297,0.46866
0.89321,0.46654
0.89337,0.46511
0.89337,0.46511
0.89315,0.46511
0.89282,0.4651
0.89261,0.4651
0.89239,0.46509
0.89206,0.46509
0.89185,0.46509
0.89185,0.46509
0.89141,0.46508
0.89076,0.46507
0.89032,0.46506
0.89032,0.46506
0.89032,0.46506
0.89032,0.46506
0.8901,0.46505
0.88978,0.46505
0.88956,0.46505
0.88956,0.46505
0.88972,0.46362
0.88995,0.46148
0.88989,0.46004
0.88957,0.46003
0.88935,0.46003
0.88913,0.46002
0.88918,0.45858
0.8893,0.45643
0.88935,0.45498
0.88913,0.45498
0.88913,0.45498
0.88913,0.45498
0.88913,0.45498
0.88891,0.45497
0.88859,0.45497
0.88837,0.45496
0.88837,0.45496
0.88815,0.45496
0.88782,0.45495
0.8876,0.45495
0.88738,0.45495
0.88705,0.45494
0.88661,0.45493
0.88629,0.45493
0.88607,0.45492
0.88563,0.45491
0.88497,0.4549
0.88491,0.45345
0.88524,0.45128
0.88529,0.44983
0.88507,0.44982
0.88507,0.44982
0.88507,0.44982
0.88507,0.44982
0.88485,0.44982
0.88452,0.44981
0.88445,0.44835
0.88468,0.44617
0.88484,0.4447
0.88484,0.4447
0.88462,0.44469
0.88429,0.44469
0.88407,0.44468
0.88407,0.44468
0.88385,0.44468
0.88352,0.44468
0.88307,0.44467
0.88274,0.44466
0.88252,0.44466
0.88252,0.44466
0.8823,0.44465
0.88197,0.44465
0.88175,0.44464
0.88175,0.44464
0.88153,0.44464
0.8812,0.44463
0.88076,0.44463
0.88043,0.44462
0.88021,0.44462
0.88021,0.44462
0.88036,0.44315
0.88058,0.44095
0.88073,0.43947
0.88051,0.43947
0.88018,0.43946
0.87996,0.43946
0.87996,0.43946
0.88011,0.43798
0.88033,0.43576
0.88048,0.43427
0.88004,0.43427
0.87937,0.43425
0.87893,0.43425
0.87893,0.43425
0.87893,0.43425
0.8787,0.43424
0.87837,0.43424
0.87793,0.43423
0.87759,0.43422
0.87737,0.43422
0.87715,0.43421
0.87682,0.43421
0.87659,0.4342
0.87637,0.4342
0.87604,0.43419
0.87582,0.43419
0.87559,0.43418
0.87526,0.43418
0.87504,0.43417
0.87518,0.43268
0.8754,0.43045
0.87555,0.42896
0.87555,0.42896
0.87533,0.42895
0.87499,0.42895
0.87477,0.42894
0.87477,0.42894
0.87455,0.42894
0.87421,0.42893
0.87376,0.42892
0.87343,0.42892
0.87321,0.42891
0.87321,0.42891
0.87298,0.42891
0.87265,0.4289
0.87243,0.4289
0.87243,0.4289
0.87243,0.4289
0.8722,0.42889
0.87187,0.42889
0.87165,0.42888
0.87179,0.42738
0.872,0.42514
0.87215,0.42363
0.87215,0.42363
0.87215,0.42363
0.87192,0.42362
0.87159,0.42362
0.87136,0.42361
0.87114,0.42361
0.8708,0.4236
0.87058,0.4236
0.87058,0.4236
0.87072,0.42209
0.87094,0.41982
0.87108,0.4183
0.87108,0.4183
0.87108,0.4183
0.87108,0.4183
0.87085,0.4183
0.87052,0.41829
0.87029,0.41829
0.87029,0.41829
0.87029,0.41829
0.87029,0.41829
0.87007,0.41828
0.86973,0.41828
0.86951,0.41827
0.86951,0.41827
0.86928,0.41827
0.86895,0.41826
0.86872,0.41826
0.86872,0.41826
0.86872,0.41826
0.86872,0.41826
0.8685,0.41826
0.86816,0.41825
0.86793,0.41824
0.86793,0.41824
0.86793,0.41824
0.86793,0.41824
0.86793,0.41824
0.86771,0.41824
0.86737,0.41823
0.86715,0.41823
0.86715,0.41823
0.86715,0.41823
0.86715,0.41823
0.86715,0.41823
0.86715,0.41823
0.86715,0.41823
0.86715,0.41823
0.86715,0.41823
0.86715,0.41823
0.86715,0.41823
0.86715,0.41823
0.86715,0.41823
0.86715,0.41823
0.86715,0.41823
0.86715,0.41823
0.86715,0.41823
0.86715,0.41823
0.86715,0.41823
0.86715,0.41823
0.86715,0.41823
0.86715,0.41823
0.86715,0.41823
0.86715,0.41823
0.86715,0.41823
0.86715,0.41823
0.86715,0.41823
0.86715,0.41823
0.86715,0.41823
0.86751,0.41671
0.86806,0.41444
0.86843,0.41291
0.86843,0.41291
0.86843,0.41291
0.86843,0.41291
0.86843,0.41291
0.86843,0.41291
0.86843,0.41291
0.86843,0.41291
0.86843,0.41291
0.86843,0.41291
0.86843,0.41291
0.86843,0.41291
0.86843,0.41291
0.86843,0.41291
0.86843,0.41291
0.86843,0.41291
0.86843,0.41291
0.86843,0.41291
0.86843,0.41291
0.86843,0.41291
0.86843,0.41291
0.86843,0.41291
0.86843,0.41291
0.86843,0.41291
0.86843,0.41291
0.86843,0.41291
0.86865,0.41292
0.86899,0.41292
0.86921,0.41293
0.86921,0.41293
0.86921,0.41293
0.86921,0.41293
0.86921,0.41293
0.86907,0.41446
0.86886,0.41674
0.86872,0.41826
0.86872,0.41826
0.86872,0.41826
0.86872,0.41826
0.86895,0.41826
0.86928,0.41827
0.86914,0.41979
0.86859,0.42205
0.86823,0.42355
0.86845,0.42356
0.86879,0.42356
0.86901,0.42357
0.86901,0.42357
0.86901,0.42357
0.86924,0.42357
0.86957,0.42358
0.8698,0.42358
0.8698,0.42358
0.8698,0.42358
0.8698,0.42358
0.8698,0.42358
0.87002,0.42359
0.87036,0.42359
0.87058,0.4236
0.87058,0.4236
0.87058,0.4236
0.87058,0.4236
0.87058,0.4236
0.87058,0.4236
0.87058,0.4236
0.87058,0.4236
0.87058,0.4236
0.8708,0.4236
0.87114,0.42361
0.87136,0.42361
0.87136,0.42361
0.87136,0.42361
0.87136,0.42361
0.87136,0.42361
0.87136,0.42361
0.87136,0.42361
0.87136,0.42361
0.87136,0.42361
0.87136,0.42361
0.87136,0.42361
0.87136,0.42361
0.87136,0.42361
0.87136,0.42361
0.87136,0.42361
0.87136,0.42361
0.87136,0.42361
0.87136,0.42361
0.87136,0.42361
0.87136,0.42361
0.87136,0.42361
0.87136,0.42361
0.87136,0.42361
0.87136,0.42361
0.87136,0.42361
0.87136,0.42361
0.87136,0.42361
0.87136,0.42361
0.87136,0.42361
0.87136,0.42361
0.87136,0.42361
0.87136,0.42361
0.87136,0.42361
0.87136,0.42361
0.87136,0.42361
0.87136,0.42361
0.87136,0.42361
0.87136,0.42361
0.87136,0.42361
0.87136,0.42361
0.87136,0.42361
0.87136,0.42361
0.87136,0.42361
0.87136,0.42361
0.87136,0.42361
0.87136,0.42361
0.87136,0.42361
0.87136,0.42361
0.87136,0.42361
0.87136,0.42361
0.87136,0.42361
0.87136,0.42361
0.87136,0.42361
0.87136,0.42361
0.87136,0.42361
0.87136,0.42361
0.87136,0.42361
0.87136,0.42361
0.87136,0.42361
0.87136,0.42361
0.87136,0.42361
0.87136,0.42361
0.87136,0.42361
0.87136,0.42361
0.87136,0.42361
0.87136,0.42361
0.87136,0.42361
0.87136,0.42361
0.87136,0.42361
0.87136,0.42361
0.87136,0.42361
0.87136,0.42361
0.87136,0.42361
0.87136,0.42361
0.8694,0.4326
0.8665,0.44582
0.86459,0.45454
0.86459,0.45454
0.86459,0.45454
0.86459,0.45454
0.86459,0.45454
0.86459,0.45454
0.86459,0.45454
0.86459,0.45454
0.86459,0.45454
0.86459,0.45454
0.86459,0.45454
0.86459,0.45454
0.86459,0.45454
0.86367,0.45742
0.86229,0.4617
0.86138,0.46455
0.86138,0.46455
0.86138,0.46455
0.86138,0.46455
0.86138,0.46455
0.86138,0.46455
0.86138,0.46455
0.86138,0.46455
0.86181,0.46456
0.86247,0.46457
0.8629,0.46458
0.8629,0.46458
0.8629,0.46458
0.8629,0.46458
0.8629,0.46458
0.8629,0.46458
0.8629,0.46458
0.8629,0.46458
0.8629,0.46458
0.8629,0.46458
0.86268,0.46457
0.86236,0.46457
0.86214,0.46457
0.86214,0.46457
0.86123,0.46741
0.85987,0.47163
0.85897,0.47444
0.85897,0.47444
0.85897,0.47444
0.85897,0.47444
0.85897,0.47444
0.85897,0.47444
0.85897,0.47444
0.85897,0.47444
0.85897,0.47444
0.85897,0.47444
0.85897,0.47444
0.85897,0.47444
0.85897,0.47444
0.85897,0.47444
0.85897,0.47444
0.85897,0.47444
0.85897,0.47444
0.85897,0.47444
0.85897,0.47444
0.85897,0.47444
0.85897,0.47444
0.85897,0.47444
0.85897,0.47444
0.85897,0.47444
0.85828,0.47725
0.85727,0.48141
0.85659,0.48419
0.85659,0.48419
0.85659,0.48419
0.85659,0.48419
0.85659,0.48419
0.85659,0.48419
0.85646,0.48558
0.85628,0.48765
0.85616,0.48903
0.85616,0.48903
0.85616,0.48903
0.85616,0.48903
0.85616,0.48903
0.85616,0.48903
0.85616,0.48903
0.85616,0.48903
0.85616,0.48903
0.85616,0.48903
0.85616,0.48903
0.85616,0.48903
0.85616,0.48903
0.85616,0.48903
0.85616,0.48903
0.85616,0.48903
0.85582,0.49041
0.85532,0.49246
0.85499,0.49383
0.85499,0.49383
0.85499,0.49383
0.85499,0.49383
0.85499,0.49383
0.85499,0.49383
0.85499,0.49383
0.85499,0.49383
0.85499,0.49383
0.85432,0.49656
0.85333,0.50062
0.85267,0.50332
0.85267,0.50332
0.85267,0.50332
0.85267,0.50332
0.85267,0.50332
0.85267,0.50332
0.85267,0.50332
0.85267,0.50332
0.85267,0.50332
0.85267,0.50332
0.85267,0.50332
0.85267,0.50332
0.85267,0.50332
0.85267,0.50332
0.85267,0.50332
0.85267,0.50332
0.85267,0.50332
0.85267,0.50332
0.85267,0.50332
0.85267,0.50332
0.85267,0.50332
0.85267,0.50332
0.85267,0.50332
0.85201,0.50602
0.85103,0.51002
0.85038,0.51269
0.85038,0.51269
0.85038,0.51269
0.85038,0.51269
0.85038,0.51269
0.85038,0.51269
0.85038,0.51269
0.85038,0.51269
0.85038,0.51269
0.85038,0.51269
0.85038,0.51269
0.85038,0.51269
0.85038,0.51269
0.85038,0.51269
0.85038,0.51269
0.85038,0.51269
0.85038,0.51269
0.85038,0.51269
0.85038,0.51269
0.85038,0.51269
0.85038,0.51269
0.85038,0.51269
0.85038,0.51269
0.85038,0.51269
0.85038,0.51269
0.85038,0.51269
0.85038,0.51269
0.85038,0.51269
0.84973,0.51535
0.84876,0.5193
0.84812,0.52194
0.84812,0.52194
0.84812,0.52194
0.84812,0.52194
0.84812,0.52194
0.84812,0.52194
0.84812,0.52194
0.84812,0.52194
0.84812,0.52194
0.84812,0.52194
0.84812,0.52194
0.84812,0.52194
0.84812,0.52194
0.84812,0.52194
0.84812,0.52194
0.84812,0.52194
0.84812,0.52194
0.84812,0.52194
0.84812,0.52194
0.84812,0.52194
0.84812,0.52194
0.84812,0.52194
0.84812,0.52194
0.84812,0.52194
0.84812,0.52194
0.84748,0.52456
0.84652,0.52846
0.84589,0.53106
0.84589,0.53106
0.84589,0.53106
0.84589,0.53106
0.84589,0.53106
0.84589,0.53106
0.84589,0.53106
0.84589,0.53106
0.84589,0.53106
0.84589,0.53106
0.84589,0.53106
0.84589,0.53106
0.84589,0.53106
0.84589,0.53106
0.84589,0.53106
0.84589,0.53106
0.84589,0.53106
0.84525,0.53365
0.84431,0.5375
0.84348,0.54007
0.84317,0.54006
0.84296,0.54006
0.84296,0.54006
0.84296,0.54006
0.84296,0.54006
0.84296,0.54006
0.84296,0.54006
0.84276,0.54005
0.84245,0.54005
0.84193,0.54133
0.84146,0.54323
0.84095,0.5445
0.84033,0.54577
0.83966,0.54766
0.83936,0.54892
0.83936,0.54892
0.83936,0.54892
0.83936,0.54892
0.83936,0.54892
0.83936,0.54892
0.83936,0.54892
0.83936,0.54892
0.83936,0.54892
0.83936,0.54892
0.83936,0.54892
0.83936,0.54892
0.83936,0.54892
0.83936,0.54892
0.83936,0.54892
0.83936,0.54892
0.83936,0.54892
0.83936,0.54892
0.83936,0.54892
0.83936,0.54892
0.83874,0.55145
0.83783,0.5552
0.83723,0.5577
0.83723,0.5577
0.83723,0.5577
0.83723,0.5577
0.83723,0.5577
0.83723,0.5577
0.83723,0.5577
0.83723,0.5577
0.83723,0.5577
0.83723,0.5577
0.83723,0.5577
0.83723,0.5577
0.83723,0.5577
0.83723,0.5577
0.83723,0.5577
0.83723,0.5577
0.83702,0.5577
0.83672,0.55769
0.83651,0.55769
0.83651,0.55769
0.83651,0.55769
0.83651,0.55769
0.83651,0.55769
0.83651,0.55769
0.83651,0.55769
0.83651,0.55769
0.83651,0.55769
0.83631,0.55769
0.836,0.55768
0.8352,0.56017
0.8343,0.56388
0.8337,0.56635
0.8337,0.56635
0.8337,0.56635
0.8337,0.56635
0.8337,0.56635
0.8335,0.56634
0.8332,0.56634
0.83299,0.56633
0.83299,0.56633
0.83299,0.56633
0.83299,0.56633
0.83299,0.56633
0.83299,0.56633
0.83299,0.56633
0.83299,0.56633
0.83299,0.56633
0.83299,0.56633
0.83299,0.56633
0.83299,0.56633
0.83299,0.56633
0.83299,0.56633
0.83299,0.56633
0.83299,0.56633
0.83299,0.56633
0.83299,0.56633
0.83299,0.56633
0.83299,0.56633
0.83299,0.56633
0.83299,0.56633
0.83299,0.56633
0.83299,0.56633
0.83299,0.56633
0.83299,0.56633
0.83299,0.56633
0.83299,0.56633
0.83299,0.56633
0.83299,0.56633
0.83299,0.56633
0.83299,0.56633
0.83299,0.56633
0.83299,0.56633
0.83299,0.56633
0.83299,0.56633
0.83299,0.56633
0.83299,0.56633
0.83299,0.56633
0.83299,0.56633
0.83299,0.56633
