0.64065,0.49502
0.64065,0.49502
0.64065,0.49502
0.64065,0.49502
0.64065,0.49502
0.64065,0.49502
0.64065,0.49502
0.64065,0.49502
0.64065,0.49502
0.64065,0.49502
0.64065,0.49502
0.64065,0.49502
0.64065,0.49502
0.64065,0.49502
0.64065,0.49502
0.64065,0.49502
0.64065,0.49502
0.64065,0.49502
0.64065,0.49502
0.64065,0.49502
0.64065,0.49502
0.64065,0.49502
0.64065,0.49502
0.64065,0.49502
0.64065,0.49502
0.64065,0.49502
0.64065,0.49502
0.64065,0.49502
0.64065,0.49502
0.64078,0.49365
0.64097,0.4916
0.6411,0.49023
0.64097,0.4916
0.64078,0.49365
0.64065,0.49502
0.64065,0.49502
0.64065,0.49502
0.64065,0.49502
0.64065,0.49502
0.64065,0.49502
0.64065,0.49502
0.64065,0.49502
0.64065,0.49502
0.64065,0.49502
0.64065,0.49502
0.64065,0.49502
0.64065,0.49502
0.64065,0.49502
0.64065,0.49502
0.64065,0.49502
0.64065,0.49502
0.64065,0.49502
0.64065,0.49502
0.64065,0.49502
0.64065,0.49502
0.64065,0.49502
0.64065,0.49502
0.64065,0.49502
0.64065,0.49502
0.64065,0.49502
0.64065,0.49502
0.64065,0.49502
0.64065,0.49502
0.64031,0.49639
0.6398,0.49842
0.63967,0.49978
0.63999,0.49979
0.64012,0.49842
0.63999,0.49638
0.6399,0.49501
0.6399,0.49501
0.6399,0.49501
0.6399,0.49501
0.64003,0.49364
0.64022,0.49159
0.64035,0.49021
0.64035,0.49021
0.64035,0.49021
0.64035,0.49021
0.64035,0.49021
0.64035,0.49021
0.64035,0.49021
0.64035,0.49021
0.64048,0.48883
0.64067,0.48677
0.6408,0.48538
0.6408,0.48538
0.6408,0.48538
0.6408,0.48538
0.6408,0.48538
0.6408,0.48538
0.64093,0.48399
0.64113,0.48192
0.64126,0.48052
0.64126,0.48052
0.64126,0.48052
0.64113,0.48192
0.64093,0.48399
0.6408,0.48538
0.6408,0.48538
0.6408,0.48538
0.6408,0.48538
0.6408,0.48538
0.6408,0.48538
0.6408,0.48538
0.6408,0.48538
0.6408,0.48538
0.6408,0.48538
0.6408,0.48538
0.6408,0.48538
0.6408,0.48538
0.6408,0.48538
0.64067,0.48677
0.64048,0.48883
0.64026,0.48883
0.64013,0.48676
0.64005,0.48537
0.64005,0.48537
0.64005,0.48537
0.64005,0.48537
0.64005,0.48537
0.64005,0.48537
0.64005,0.48537
0.6397,0.48675
0.63919,0.48881
0.63884,0.49019
0.63884,0.49019
0.63884,0.49019
0.63897,0.48881
0.63916,0.48674
0.63929,0.48536
0.63907,0.48535
0.63875,0.48535
0.63853,0.48534
0.63853,0.48534
0.63853,0.48534
0.6384,0.48673
0.63821,0.4888
0.63809,0.49018
0.63809,0.49018
0.63809,0.49018
0.63809,0.49018
0.63809,0.49018
0.63809,0.49018
0.63809,0.49018
0.63796,0.49155
0.63777,0.4936
0.63765,0.49497
0.63765,0.49497
0.63765,0.49497
0.63756,0.4936
0.63742,0.49154
0.63733,0.49016
0.63733,0.49016
0.63746,0.48878
0.63765,0.48672
0.63765,0.48672
0.63759,0.4874
0.63765,0.48672
0.63778,0.48533
0.63778,0.48533
0.63778,0.48533
0.6379,0.48394
0.63784,0.48465
0.63759,0.4874
0.63746,0.48878
0.63765,0.48672
0.63778,0.48533
0.63778,0.48533
0.63778,0.48533
0.63778,0.48533
0.63778,0.48533
0.63778,0.48533
0.63752,0.4881
0.63715,0.49222
0.63689,0.49496
0.63689,0.49496
0.6368,0.49359
0.63667,0.49153
0.63658,0.49015
0.63658,0.49015
0.63658,0.49015
0.63658,0.49015
0.63633,0.4929
0.63596,0.49699
0.63571,0.49971
0.63571,0.49971
0.63559,0.50107
0.6354,0.5031
0.63528,0.50445
0.63565,0.50038
0.6362,0.49427
0.63645,0.49153
0.63639,0.4922
0.63645,0.49153
0.63645,0.49153
0.63605,0.49357
0.63561,0.49494
0.63514,0.49767
0.63502,0.49901
0.63514,0.49767
0.63539,0.49494
0.63539,0.49494
0.6353,0.49356
0.63516,0.49151
0.63495,0.4915
0.63476,0.49355
0.63464,0.49492
0.63464,0.49492
0.63464,0.49492
0.63464,0.49492
0.63464,0.49492
0.63442,0.49492
0.6341,0.49491
0.63401,0.49354
0.63419,0.49149
0.63422,0.48873
0.63408,0.48666
0.63387,0.48665
0.63368,0.48872
0.63356,0.4901
0.63356,0.4901
0.63359,0.48733
0.63364,0.48318
0.63366,0.48039
0.63379,0.47899
0.63385,0.4783
0.63379,0.47899
0.63366,0.48039
0.63366,0.48039
0.63357,0.47899
0.63355,0.47548
0.6334,0.47479
0.63315,0.47758
0.63281,0.47898
0.63267,0.47688
0.63235,0.47546
0.63203,0.47546
0.63181,0.47545
0.63169,0.47686
0.63151,0.47895
0.63139,0.48035
0.63139,0.48035
0.63117,0.48035
0.63084,0.48034
0.63063,0.48034
0.63063,0.48034
0.63053,0.47894
0.63038,0.47684
0.63017,0.47683
0.63011,0.47753
0.62995,0.47683
0.62998,0.4726
0.62988,0.4712
0.62964,0.47401
0.62923,0.47891
0.62901,0.47891
0.62886,0.47681
0.62888,0.47399
0.62906,0.47189
0.62872,0.47329
0.62804,0.47749
0.62771,0.47889
0.62768,0.47397
0.6275,0.46832
0.6273,0.46547
0.6273,0.46547
0.6273,0.46547
0.62696,0.46689
0.62646,0.469
0.62612,0.47042
0.62602,0.469
0.62575,0.46829
0.62547,0.46899
0.62537,0.46756
0.62527,0.46473
0.62488,0.46685
0.62465,0.46967
0.62476,0.46827
0.62501,0.46256
0.62481,0.45826
0.62449,0.45537
0.62427,0.45536
0.62438,0.45391
0.62434,0.45174
0.62401,0.45174
0.6235,0.45245
0.62311,0.45318
0.62272,0.45534
0.62233,0.45749
0.62206,0.45677
0.62184,0.45387
0.62179,0.45024
0.62174,0.44806
0.62124,0.45169
0.62068,0.45456
0.62057,0.45313
0.62069,0.44876
0.62041,0.44804
0.62025,0.44729
0.62008,0.44657
0.61997,0.44363
0.61992,0.44142
0.61981,0.43994
0.61947,0.43994
0.61903,0.43993
0.61869,0.43992
0.61847,0.43992
0.61813,0.44139
0.61764,0.44358
0.61719,0.44358
0.61702,0.44137
0.61702,0.43841
0.61718,0.4362
0.61718,0.43322
0.61701,0.43099
0.6169,0.42949
0.61656,0.43098
0.61617,0.43171
0.61588,0.42947
0.61571,0.42722
0.61543,0.42796
0.6151,0.42945
0.61476,0.42945
0.61454,0.42944
0.61431,0.42944
0.61408,0.42793
0.61402,0.42568
0.6139,0.42417
0.61356,0.42417
0.61311,0.42416
0.61277,0.42415
0.61265,0.42264
0.61237,0.4234
0.61193,0.42488
0.61186,0.42262
0.61206,0.41657
0.61194,0.41351
0.61171,0.4135
0.61148,0.4135
0.61125,0.41196
0.61107,0.4112
0.61079,0.41195
0.61035,0.41348
0.61012,0.41347
0.60989,0.41347
0.60966,0.41193
0.60958,0.40963
0.60958,0.40963
0.60974,0.40731
0.61,0.40347
0.61004,0.39957
0.60975,0.3988
0.60973,0.39566
0.60966,0.39332
0.60953,0.39016
0.60945,0.38779
0.60967,0.38462
0.60972,0.38384
0.60944,0.38462
0.60865,0.38778
0.60791,0.39013
0.60758,0.3917
0.60768,0.39012
0.60794,0.38618
0.60787,0.3838
0.60757,0.38299
0.60705,0.38379
0.60676,0.38297
0.60668,0.38058
0.60694,0.37659
0.60694,0.37659
0.60655,0.37898
0.606,0.38217
0.60572,0.38295
0.60554,0.38216
0.60529,0.38056
0.60496,0.38215
0.60491,0.38293
0.60472,0.38214
0.60448,0.38054
0.60435,0.37894
0.6046,0.37493
0.60475,0.37253
0.60481,0.37171
0.60486,0.37091
0.60472,0.36928
0.60471,0.36766
0.60475,0.36522
0.60473,0.36359
0.6045,0.36359
0.6046,0.36195
0.60476,0.3595
0.60452,0.3595
0.60401,0.36194
0.60368,0.36357
0.60368,0.36357
0.60368,0.36357
0.60368,0.36357
0.60378,0.36193
0.60393,0.35949
0.60403,0.35784
0.60414,0.35619
0.60429,0.35373
0.6045,0.35041
0.60465,0.34793
0.60476,0.34626
0.60476,0.34626
0.60476,0.34626
0.60476,0.34626
0.60476,0.34626
0.60476,0.34626
0.60476,0.34626
0.60476,0.34626
0.60476,0.34626
0.60465,0.34793
0.6045,0.35041
0.6045,0.35041
0.60465,0.34793
0.6051,0.34459
0.60561,0.34209
0.6062,0.34042
0.60655,0.34043
0.6069,0.33875
0.60706,0.33623
0.60706,0.33623
0.6069,0.33875
0.60703,0.34044
0.60739,0.34044
0.60752,0.34213
0.60746,0.34296
0.60776,0.34214
0.60833,0.33878
0.60873,0.33626
0.60884,0.33457
0.60884,0.33457
0.60884,0.33457
0.60941,0.32947
0.61027,0.3218
0.61086,0.32008
0.61089,0.32523
0.6109,0.32866
0.61079,0.33036
0.61062,0.3329
0.61109,0.3295
0.61184,0.32355
0.61225,0.32096
0.61214,0.32268
0.61214,0.32268
0.61227,0.32441
0.61246,0.32698
0.61258,0.32869
0.61258,0.32869
0.6127,0.32698
0.61287,0.32442
0.61322,0.32271
0.61358,0.32271
0.61383,0.32272
0.61371,0.32444
0.61389,0.32529
0.61431,0.32445
0.61467,0.32274
0.61444,0.32617
0.61409,0.33127
0.61398,0.33297
0.61415,0.33043
0.61462,0.32702
0.61515,0.32447
0.61563,0.32103
0.61581,0.31845
0.61605,0.31846
0.61647,0.31759
0.61707,0.3124
0.61737,0.30805
0.61755,0.30892
0.61804,0.30717
0.61852,0.30368
0.61846,0.30455
0.61816,0.30893
0.61804,0.31068
0.61816,0.30893
0.61822,0.30807
0.61792,0.30892
0.61731,0.31241
0.61689,0.315
0.61677,0.31674
0.61701,0.31674
0.61737,0.31675
0.6175,0.31849
0.61744,0.31934
0.61738,0.32022
0.61732,0.32107
0.6172,0.32279
0.61732,0.32107
0.61726,0.32194
0.61702,0.32535
0.61678,0.32878
0.61667,0.33048
0.61613,0.33471
0.61572,0.33554
0.61571,0.33217
0.61606,0.32705
0.61624,0.32449
0.61624,0.32449
0.61606,0.32705
0.61583,0.33047
0.61565,0.333
0.61541,0.333
0.61523,0.33045
0.61523,0.33045
0.61529,0.33129
0.61511,0.33216
0.61493,0.33129
0.61487,0.33215
0.61481,0.33299
0.61481,0.33299
0.61499,0.33045
0.61499,0.33045
0.61481,0.33299
0.6147,0.33469
0.6147,0.33469
0.61469,0.33128
0.61468,0.32618
0.61467,0.32274
0.61455,0.32446
0.61438,0.32701
0.61414,0.32701
0.61395,0.32444
0.61371,0.32444
0.61354,0.327
0.61342,0.32871
0.61318,0.3287
0.61282,0.3287
0.61258,0.32869
0.61258,0.32869
0.61247,0.3304
0.6123,0.33294
0.61206,0.33293
0.61187,0.33038
0.61163,0.33038
0.61146,0.33292
0.61122,0.33292
0.61092,0.33207
0.61062,0.3329
0.61051,0.3346
0.61051,0.3346
0.61016,0.33629
0.60964,0.3388
0.60929,0.34048
0.60929,0.34048
0.60905,0.34048
0.6087,0.34047
0.60846,0.34047
0.60822,0.34046
0.60786,0.34045
0.60739,0.34044
0.60703,0.34044
0.60668,0.34211
0.60629,0.34461
0.60572,0.34795
0.60533,0.35043
0.60498,0.35208
0.60463,0.35207
0.60439,0.35207
0.60426,0.35041
0.60416,0.34624
0.60398,0.34542
0.60377,0.34873
0.60346,0.35371
0.60318,0.35452
0.60297,0.35204
0.60265,0.34955
0.60215,0.35203
0.60176,0.35449
0.60167,0.35202
0.60147,0.34953
0.60118,0.35034
0.60084,0.352
0.60029,0.3553
0.59976,0.36021
0.59957,0.36349
0.59947,0.36512
0.59942,0.36592
0.59923,0.36512
0.59931,0.36185
0.59924,0.36104
0.59917,0.3602
0.59856,0.36266
0.59811,0.36427
0.5974,0.36834
0.59677,0.37317
0.59621,0.37878
0.59579,0.38197
0.5953,0.38434
0.59498,0.38593
0.59475,0.38593
0.59449,0.38433
0.5944,0.38195
0.5944,0.38195
0.59412,0.38273
0.59382,0.38194
0.59377,0.37873
0.5939,0.37634
0.5939,0.37634
0.59377,0.37873
0.59335,0.38193
0.59287,0.3843
0.59246,0.38747
0.59233,0.38983
0.59192,0.39298
0.59144,0.39532
0.59113,0.39688
0.59113,0.39688
0.59113,0.39688
0.59113,0.39688
0.59113,0.39688
0.59113,0.39688
0.59113,0.39688
0.59113,0.39688
0.59113,0.39688
0.5909,0.39687
0.59038,0.39999
0.58975,0.40307
0.58937,0.40385
0.58914,0.40385
0.58893,0.4077
0.58863,0.41307
0.58843,0.41688
0.58843,0.41688
0.58832,0.4146
0.58807,0.41306
0.58784,0.41306
0.58776,0.41459
0.58771,0.41534
0.58767,0.41612
0.58771,0.41534
0.58736,0.41764
0.58686,0.42065
0.58647,0.42367
0.58647,0.42367
0.58631,0.42669
0.58607,0.43116
0.58569,0.43414
0.58535,0.43414
0.58505,0.43562
0.58486,0.43932
0.58466,0.443
0.58458,0.44447
0.58481,0.44447
0.58514,0.44448
0.58522,0.44301
0.585,0.4408
0.58478,0.4408
0.58474,0.44152
0.58462,0.44374
0.58439,0.44812
0.58412,0.4532
0.58397,0.4561
0.58363,0.45825
0.58323,0.45969
0.58293,0.46112
0.58282,0.46326
0.58274,0.46469
0.58274,0.46469
0.58274,0.46469
0.58274,0.46469
0.58274,0.46469
0.58252,0.46469
0.58219,0.46468
0.58197,0.46468
0.58197,0.46468
0.58183,0.46753
0.58124,0.49544
0.58065,0.53068
0.58042,0.55059
0.58055,0.54806
0.58059,0.54743
0.58083,0.54679
0.58111,0.54744
0.58135,0.5468
0.58124,0.54871
0.58104,0.55249
0.5808,0.55688
0.5808,0.56063
0.58104,0.56187
0.58111,0.56437
0.58101,0.5662
0.58084,0.56929
0.5808,0.5699
0.58108,0.57236
0.58152,0.57542
0.58189,0.57602
0.58209,0.57237
0.58226,0.56931
0.58243,0.56992
0.58253,0.57361
0.58246,0.57846
0.58222,0.58269
0.58202,0.5863
0.58181,0.58987
0.58161,0.59344
0.58185,0.59284
0.58215,0.59287
0.58228,0.59404
0.58208,0.59759
0.58191,0.60052
0.58194,0.59992
0.58231,0.59701
0.58264,0.59641
0.58287,0.59936
0.58304,0.60171
0.58307,0.60463
0.5829,0.60753
0.58283,0.60869
0.58296,0.60985
0.58302,0.61389
0.58302,0.61732
0.58305,0.62018
0.58321,0.62245
0.58327,0.62472
0.5834,0.62585
0.58365,0.62641
0.58408,0.62586
0.58437,0.62586
0.58447,0.62755
0.58459,0.62868
0.58494,0.63093
0.58523,0.63427
0.58534,0.63872
0.58543,0.64202
0.58561,0.64532
0.58579,0.64696
0.58592,0.64806
0.58592,0.64806
0.58578,0.65024
0.58572,0.65131
0.58584,0.65241
0.58619,0.65131
0.58639,0.65133
0.58668,0.6497
0.58693,0.65025
0.58728,0.65079
0.58762,0.65297
0.588,0.65459
0.58805,0.65675
0.58807,0.65942
0.58811,0.66316
0.58825,0.66688
0.58829,0.67057
0.5883,0.67319
0.58842,0.67424
0.58871,0.67424
0.58915,0.6732
0.58947,0.67269
0.58981,0.67321
0.59002,0.67426
0.59033,0.67531
0.59069,0.67687
0.59109,0.67792
0.59125,0.68104
0.59114,0.68669
0.5912,0.69128
0.59127,0.69433
0.59117,0.69836
0.59093,0.70186
0.59112,0.70186
0.59142,0.70137
0.59183,0.70087
0.59207,0.70138
0.59247,0.70088
0.59271,0.70139
0.59286,0.70189
0.59283,0.70488
0.59315,0.70686
0.59343,0.70935
0.59358,0.7123
0.59361,0.71572
0.59383,0.71768
0.59429,0.72011
0.59483,0.72254
0.59512,0.72351
0.59537,0.72254
0.59561,0.72304
0.59597,0.72303
0.59617,0.72401
0.59649,0.72689
0.59678,0.73261
0.59715,0.73593
0.59729,0.73876
0.59759,0.74063
0.59793,0.74205
0.598,0.74345
0.59782,0.74577
0.5976,0.74855
0.59763,0.75039
0.59786,0.75086
0.59811,0.74994
0.59822,0.75086
0.59837,0.75224
0.59851,0.75499
0.59863,0.75681
0.59869,0.75819
0.59876,0.75955
0.59899,0.76
0.59926,0.76092
0.59927,0.76406
0.59912,0.7681
0.59912,0.7681
0.59916,0.76766
0.5993,0.7681
0.59941,0.76989
0.59965,0.77122
0.59984,0.77211
0.59997,0.77478
0.59983,0.7796
0.59986,0.78353
0.60014,0.78527
0.60039,0.78744
0.60031,0.79045
0.60006,0.79345
0.59989,0.79558
0.59967,0.79813
0.59953,0.79981
0.59936,0.80193
0.59922,0.8036
0.59925,0.80528
0.59957,0.80444
0.59991,0.80235
0.59985,0.80109
0.59956,0.8015
0.59942,0.80318
0.5995,0.80528
0.59942,0.8082
0.59942,0.81027
0.59953,0.81193
0.59945,0.81482
0.59918,0.81809
0.59897,0.82054
0.5988,0.82257
0.59863,0.82459
0.59863,0.82459
0.5986,0.825
0.5984,0.8274
0.59803,0.83181
0.59763,0.83656
0.5973,0.84049
0.59733,0.84206
0.59721,0.84441
0.59677,0.84866
0.59661,0.85059
0.59698,0.84906
0.59727,0.84751
0.59714,0.84906
0.59695,0.85136
0.59704,0.85213
0.59738,0.85099
0.59754,0.85099
0.59731,0.85367
0.59709,0.85824
0.597,0.86202
0.5971,0.86277
0.59713,0.8624
0.59713,0.86428
0.59689,0.86801
0.59652,0.87135
0.5963,0.87393
0.59654,0.87577
0.59702,0.87651
0.59751,0.87725
0.59781,0.87834
0.5979,0.87908
0.59777,0.88053
0.59771,0.88125
0.59786,0.88126
0.59845,0.8809
0.59907,0.8809
0.59922,0.88273
0.59897,0.8856
0.5988,0.8874
0.59874,0.88812
0.59861,0.88955
0.59852,0.89062
0.59823,0.89382
0.59795,0.89875
0.59802,0.90225
0.5983,0.9033
0.59846,0.9033
0.59855,0.90226
0.59849,0.90295
0.59824,0.90572
0.59808,0.90745
0.59818,0.90642
0.59812,0.90538
0.59773,0.90711
0.59743,0.90709
0.59744,0.90434
0.59748,0.90225
0.59732,0.90398
0.59717,0.90572
0.59714,0.90433
0.59725,0.9005
0.59756,0.89522
0.59766,0.89418
0.59735,0.89769
0.59703,0.90119
0.59688,0.9012
0.59693,0.89803
0.59668,0.89735
0.59633,0.89873
0.59577,0.90153
0.59561,0.90083
0.59554,0.89979
0.59539,0.89978
0.59507,0.90083
0.59485,0.90153
0.59491,0.90083
0.59506,0.89908
0.59516,0.89803
0.59503,0.89767
0.59483,0.89732
0.5948,0.89591
0.59477,0.89627
0.59465,0.89767
0.59453,0.89908
0.59385,0.89977
0.59278,0.90151
0.59208,0.90255
0.59211,0.90221
0.59211,0.90221
0.59198,0.90185
0.59193,0.89976
0.59198,0.8973
0.5918,0.89941
0.59163,0.90149
0.5915,0.90116
0.59151,0.89835
0.59123,0.898
0.59097,0.89834
0.59075,0.89905
0.59081,0.89834
0.5909,0.89729
0.59096,0.89659
0.59096,0.89659
0.59086,0.89588
0.59077,0.89411
0.59076,0.89234
0.59067,0.89163
0.5904,0.89019
0.58981,0.88877
0.58879,0.88983
0.58779,0.89267
0.58742,0.89337
0.58745,0.89302
0.58748,0.89266
0.58735,0.89231
0.58697,0.89231
0.58655,0.89266
0.58627,0.8923
0.58615,0.89088
0.58623,0.88981
0.58631,0.88981
0.58604,0.8923
0.58562,0.89371
0.58544,0.89301
0.58545,0.89087
0.58542,0.89123
0.58516,0.89265
0.58482,0.89406
0.58471,0.89335
0.5848,0.89229
0.58463,0.89442
0.58432,0.89652
0.58412,0.89406
0.58403,0.89015
0.58376,0.89157
0.5836,0.89582
0.58344,0.89687
0.58314,0.89476
0.58268,0.89156
0.58247,0.88906
0.58235,0.88655
0.58224,0.88475
0.58198,0.88619
0.58159,0.88941
0.58105,0.89155
0.58092,0.89012
0.58099,0.88798
0.58097,0.8851
0.58011,0.8851
0.57876,0.8876
0.57761,0.89081
0.57709,0.89152
0.57686,0.89151
0.57715,0.88722
0.57783,0.88074
0.57829,0.87635
0.57813,0.87635
0.5779,0.87635
0.57779,0.87561
0.57765,0.87525
0.57744,0.87487
0.5771,0.87525
0.57668,0.8756
0.57629,0.8756
0.57605,0.8745
0.57591,0.87302
0.57578,0.87266
0.57575,0.87302
0.57554,0.87376
0.57526,0.87449
0.57515,0.87853
0.57505,0.87997
0.57478,0.87816
0.57454,0.87706
0.57458,0.87997
0.57394,0.87777
0.57288,0.87227
0.5719,0.87003
0.57167,0.87002
0.57142,0.86892
0.57125,0.86779
0.571,0.86928
0.57082,0.86965
0.57049,0.86853
0.57009,0.86592
0.56965,0.86404
0.56902,0.86253
0.56849,0.86064
0.56816,0.85799
0.56808,0.85532
0.56798,0.85418
0.5678,0.85455
0.56719,0.85531
0.56659,0.85454
0.56654,0.85263
0.56689,0.85071
0.56714,0.84917
0.56638,0.8511
0.56521,0.85491
0.5644,0.85795
0.5644,0.85795
0.5644,0.85795
0.56419,0.85871
0.56393,0.85908
0.56379,0.85871
0.56367,0.85795
0.56343,0.85795
0.56311,0.85794
0.56299,0.85565
0.56285,0.85222
0.56265,0.84836
0.56217,0.84681
0.56174,0.84408
0.56147,0.84135
0.56115,0.84135
0.56073,0.84485
0.56032,0.8464
0.55994,0.84601
0.55955,0.84562
0.5592,0.84289
0.55917,0.84016
0.55916,0.83699
0.55927,0.83463
0.55929,0.83264
0.55937,0.83423
0.55935,0.83462
0.55922,0.8374
0.55907,0.84053
0.55892,0.84014
0.55871,0.83263
0.5584,0.82542
0.55752,0.82299
0.5563,0.82418
0.55519,0.82498
0.55481,0.82417
0.55466,0.82377
0.55465,0.82417
0.55445,0.82498
0.5542,0.82497
0.55403,0.82497
0.55407,0.82416
0.55412,0.82295
0.55416,0.82214
0.55402,0.82133
0.55373,0.81847
0.55346,0.8152
0.55323,0.81272
0.55296,0.81313
0.55259,0.81394
0.55232,0.81436
0.55205,0.81271
0.55185,0.81147
0.55159,0.8098
0.55135,0.80939
0.55117,0.8098
0.5512,0.80897
0.55096,0.80647
0.55049,0.80563
0.55028,0.80688
0.55043,0.80938
0.55043,0.80937
0.55023,0.80814
0.5499,0.80352
0.54949,0.80101
0.54881,0.80099
0.54823,0.80309
0.54771,0.80351
0.54747,0.80308
0.54741,0.80013
0.54749,0.79803
0.54744,0.79929
0.54721,0.80098
0.547,0.79971
0.54695,0.79631
0.54712,0.79163
0.54723,0.78862
0.54708,0.78818
0.54683,0.78775
0.54669,0.78688
0.54646,0.78861
0.54623,0.7929
0.54616,0.79716
0.54625,0.7946
0.54602,0.78905
0.5457,0.78601
0.54529,0.78774
0.54505,0.78729
0.54477,0.78557
0.54463,0.78208
0.54448,0.78122
0.54434,0.78033
0.54414,0.77859
0.54393,0.77462
0.54348,0.77506
0.54303,0.77548
0.5429,0.77417
0.54276,0.77328
0.54227,0.77504
0.54185,0.7746
0.54162,0.7706
0.54127,0.76793
0.54088,0.76658
0.54057,0.76523
0.54055,0.76298
0.54066,0.76208
0.54063,0.76298
0.54018,0.76342
0.53991,0.76388
0.54001,0.76342
0.54019,0.76298
0.54022,0.76208
0.54002,0.76298
0.53975,0.76342
0.53956,0.76388
0.53937,0.76432
0.53906,0.76611
0.5389,0.76566
0.53892,0.76477
0.53878,0.76341
0.53851,0.76386
0.53817,0.7634
0.53782,0.76024
0.53754,0.75432
0.53762,0.75111
0.53757,0.74972
0.53729,0.74695
0.53684,0.74369
0.53678,0.74276
0.53653,0.74182
0.53621,0.74042
0.5359,0.73853
0.53594,0.73712
0.53599,0.73523
0.53579,0.73571
0.53553,0.73569
0.53539,0.73381
0.53545,0.73144
0.53549,0.73
0.53553,0.7281
0.53558,0.72618
0.53542,0.72522
0.53516,0.72474
0.53499,0.72425
0.535,0.72377
0.535,0.72377
0.53479,0.72521
0.53452,0.7252
0.53419,0.72376
0.53412,0.72279
0.53405,0.72182
0.534,0.72038
0.53384,0.7194
0.53388,0.71745
0.53377,0.71453
0.53354,0.71256
0.53338,0.71158
0.53339,0.71109
0.53317,0.71256
0.53262,0.71696
0.5321,0.71986
0.53193,0.71938
0.53198,0.71695
0.53205,0.71401
0.53211,0.71108
0.53215,0.7091
0.53217,0.70811
0.5322,0.70663
0.53181,0.70762
0.53124,0.70859
0.53086,0.70959
0.53088,0.70858
0.53071,0.7076
0.53068,0.70462
0.53021,0.70512
0.5295,0.70907
0.52893,0.71004
0.5292,0.70511
0.52958,0.69962
0.52979,0.69861
0.5298,0.6976
0.52963,0.69711
0.52934,0.6976
0.52914,0.6986
0.52895,0.6986
0.52888,0.69759
0.52898,0.6971
0.52895,0.6986
0.52863,0.7011
0.52843,0.7021
0.52826,0.7011
0.52798,0.7016
0.52778,0.70259
0.52765,0.69908
0.52767,0.69304
0.52767,0.68742
0.52758,0.68693
0.52739,0.68742
0.52736,0.68896
0.52701,0.68794
0.52643,0.68895
0.52569,0.68842
0.52534,0.68741
0.52527,0.68586
0.52562,0.68741
0.52586,0.68945
0.52586,0.68945
0.52562,0.68741
0.52544,0.68689
0.52544,0.68689
0.52546,0.68536
0.52512,0.68329
0.52439,0.68174
0.52375,0.68069
0.52358,0.67966
0.52359,0.67914
0.52357,0.68069
0.52353,0.68327
0.52352,0.6843
0.52352,0.6843
0.52354,0.68224
0.52359,0.67914
0.52348,0.67287
0.5233,0.66551
0.52317,0.66072
0.52299,0.66017
0.52272,0.65857
0.52258,0.6548
0.52262,0.65211
0.52263,0.65102
0.52263,0.65102
0.52244,0.65102
0.52216,0.64993
0.52199,0.6483
0.52202,0.64611
0.52183,0.64557
0.52133,0.64719
0.52083,0.64882
0.52062,0.65046
0.52061,0.65153
0.52061,0.65099
0.52043,0.65045
0.52012,0.65261
0.51991,0.65369
0.51993,0.65207
0.51994,0.65098
0.51976,0.64989
0.51949,0.64826
0.51893,0.64607
0.51836,0.64552
0.51797,0.64605
0.51796,0.64715
0.51795,0.64824
0.51794,0.64987
0.51794,0.64987
0.51796,0.64715
0.51798,0.64551
0.51796,0.64715
0.51794,0.64987
0.51774,0.64987
0.51766,0.64824
0.51757,0.64714
0.51751,0.64385
0.51757,0.63669
0.5177,0.63225
0.51761,0.63223
0.51741,0.6328
0.51723,0.63055
0.51695,0.62887
0.51677,0.62774
0.51657,0.62774
0.51609,0.62661
0.51561,0.62491
0.51543,0.62264
0.51544,0.62094
0.51545,0.6198
0.51545,0.6198
0.51525,0.6198
0.51495,0.62094
0.51475,0.62263
0.51474,0.62377
0.51475,0.62263
0.51475,0.62207
0.51475,0.62149
0.51476,0.62093
0.51476,0.61979
0.51476,0.61979
0.51457,0.61865
0.51429,0.61693
0.5141,0.61578
0.5141,0.61578
0.5139,0.61578
0.5136,0.61578
0.51341,0.61463
0.51342,0.61406
0.51341,0.61463
0.51341,0.61578
0.51341,0.61578
0.51341,0.61463
0.51324,0.61059
0.51296,0.60596
0.51277,0.60362
0.51277,0.60362
0.51277,0.60362
0.51277,0.60362
0.51278,0.60128
0.5128,0.59777
0.51281,0.59658
0.5128,0.59835
0.51279,0.59952
0.5128,0.59835
0.51281,0.59658
0.51281,0.5954
0.51281,0.5954
0.51281,0.5954
0.51282,0.59422
0.51283,0.59244
0.51283,0.59125
0.51283,0.59244
0.51282,0.59422
0.51281,0.5954
0.51282,0.59422
0.51283,0.59244
0.51283,0.59125
0.51284,0.59006
0.51285,0.58827
0.51285,0.58708
0.51285,0.58708
0.51285,0.58708
0.51265,0.58707
0.51235,0.58707
0.51215,0.58707
0.51216,0.58466
0.51217,0.58106
0.51239,0.57742
0.5127,0.57561
0.51291,0.57561
0.5129,0.57743
0.51289,0.57865
0.5129,0.57621
0.51292,0.57256
0.51293,0.57011
0.51294,0.56888
0.51295,0.56703
0.51316,0.5658
0.51346,0.5658
0.51347,0.56457
0.51317,0.56271
0.51297,0.56146
0.51297,0.5627
0.51296,0.56456
0.51296,0.56456
0.51297,0.5627
0.51297,0.56146
0.51319,0.55897
0.51352,0.55523
0.51374,0.55145
0.51397,0.54829
0.5143,0.54512
0.51431,0.54257
0.51401,0.54065
0.5138,0.54065
0.51379,0.54256
0.51378,0.54384
0.51378,0.54384
0.51379,0.54256
0.51359,0.54193
0.51327,0.54255
0.51306,0.54383
0.51306,0.54255
0.51308,0.53935
0.51309,0.53613
0.5131,0.53484
0.5131,0.53484
0.5131,0.53484
0.5131,0.53484
0.5131,0.53484
0.5131,0.53484
0.5131,0.53484
0.5131,0.53484
0.5131,0.53354
0.51311,0.5316
0.51312,0.5303
0.51312,0.5303
0.51312,0.5303
0.51334,0.529
0.51366,0.52705
0.51389,0.52443
0.5139,0.52247
0.51391,0.51982
0.51392,0.51785
0.51393,0.51652
0.51393,0.51652
0.51393,0.51652
0.51371,0.51784
0.51338,0.51982
0.51316,0.52113
0.51316,0.52113
0.51339,0.51849
0.51372,0.51453
0.51394,0.51319
0.51393,0.51519
0.51393,0.51652
0.51393,0.51519
0.51394,0.51319
0.51396,0.51052
0.51419,0.50717
0.5143,0.50651
0.51418,0.50918
0.51418,0.50918
0.51456,0.49837
0.51485,0.48535
0.51486,0.48396
0.51481,0.49222
0.51478,0.4977
0.51478,0.4977
0.51479,0.49634
0.5148,0.49429
0.51481,0.49292
0.51459,0.49291
0.51427,0.49291
0.51427,0.49291
0.5146,0.49154
0.51483,0.48948
0.51507,0.48533
0.5154,0.48396
0.51561,0.48534
0.5156,0.48673
0.51561,0.48465
0.51562,0.48326
0.51586,0.48047
0.51621,0.47629
0.51622,0.47488
0.51589,0.47557
0.51568,0.47487
0.51569,0.47346
0.51569,0.47346
0.51591,0.47205
0.51626,0.46994
0.51648,0.46852
0.51649,0.4671
0.5165,0.4664
0.5165,0.46567
0.51651,0.46497
0.51652,0.46354
0.51652,0.46354
0.51652,0.46354
0.51652,0.46354
0.51653,0.46211
0.51676,0.45997
0.51711,0.45853
0.51733,0.45853
0.51733,0.45853
0.51733,0.45853
0.51733,0.45853
0.51733,0.45853
0.51756,0.4571
0.51791,0.45494
0.51788,0.45783
0.51776,0.45996
0.51788,0.45783
0.51814,0.4535
0.51836,0.4535
0.51869,0.4535
0.51918,0.44914
0.51932,0.44552
0.51946,0.44256
0.51958,0.44111
0.51983,0.43815
0.52006,0.43816
0.5204,0.43668
0.52064,0.43595
0.52063,0.43668
0.52062,0.43817
0.52062,0.43817
0.52063,0.43668
0.52065,0.43446
0.5209,0.43148
0.52149,0.42925
0.52208,0.42626
0.52233,0.42401
0.52235,0.4225
0.52258,0.4225
0.52292,0.42251
0.52314,0.42251
0.52314,0.42251
0.52335,0.42403
0.52368,0.42478
0.52392,0.42404
0.52416,0.42253
0.52448,0.42405
0.52466,0.42781
0.52466,0.42855
0.52467,0.42707
0.52495,0.42329
0.52532,0.42029
0.52584,0.41573
0.52619,0.41498
0.52665,0.41421
0.52675,0.41499
0.52684,0.41727
0.52717,0.41803
0.52778,0.41501
0.52805,0.41195
0.52828,0.41196
0.52864,0.41043
0.52913,0.40813
0.5295,0.4066
0.52975,0.40505
0.52979,0.40274
0.52981,0.40118
0.53007,0.39963
0.53045,0.3973
0.53096,0.39417
0.53157,0.39184
0.53218,0.39027
0.53238,0.39185
0.53263,0.39105
0.53303,0.38792
0.53355,0.38476
0.53387,0.38635
0.53406,0.38872
0.53426,0.39031
0.53461,0.39031
0.53484,0.39032
0.53507,0.39032
0.53544,0.38875
0.53572,0.38639
0.53572,0.38639
0.53565,0.39033
0.53616,0.38796
0.53697,0.38166
0.53752,0.37765
0.53775,0.37765
0.53839,0.37526
0.539,0.37366
0.53947,0.37367
0.53982,0.37368
0.54029,0.37369
0.54064,0.37369
0.54111,0.3737
0.54149,0.37209
0.54202,0.36969
0.54241,0.36807
0.54268,0.36645
0.54297,0.36402
0.54364,0.36075
0.54425,0.35995
0.5445,0.35913
0.54476,0.35832
0.54515,0.35668
0.54586,0.35669
0.54657,0.35671
0.54724,0.35837
0.54733,0.35918
0.54724,0.35837
0.54747,0.35837
0.54807,0.36248
0.54862,0.36819
0.54895,0.369
0.54923,0.3674
0.54944,0.36821
0.54977,0.36901
0.55014,0.36416
0.5504,0.35513
0.55091,0.34518
0.55146,0.33849
0.55172,0.33764
0.55192,0.33933
0.55227,0.33934
0.5527,0.34103
0.55304,0.34187
0.55349,0.34273
0.55382,0.34356
0.55406,0.34357
0.55413,0.34106
0.55453,0.336
0.55504,0.33094
0.55538,0.32753
0.55563,0.32753
0.55623,0.32754
0.55683,0.32755
0.55707,0.32756
0.55707,0.32756
0.55731,0.32756
0.55791,0.32758
0.55857,0.32588
0.55884,0.32504
0.55905,0.32589
0.5593,0.32932
0.5594,0.33357
0.55961,0.33441
0.56038,0.32934
0.56088,0.32508
0.56074,0.32592
0.56032,0.33104
0.56045,0.33442
0.56078,0.33529
0.56215,0.33021
0.56384,0.32342
0.56527,0.31741
0.56587,0.31742
0.56669,0.3183
0.56695,0.32091
0.56731,0.32089
0.5681,0.3192
0.56908,0.31575
0.56933,0.31576
0.5694,0.31402
0.5695,0.31142
0.5695,0.31142
0.5694,0.31402
0.56957,0.31576
0.57056,0.3123
0.57174,0.3071
0.57286,0.3036
0.57383,0.30362
0.5755,0.30189
0.57712,0.30105
0.57875,0.30019
0.57969,0.3011
0.58038,0.30199
0.58067,0.30376
0.58083,0.30553
0.58071,0.30815
0.58112,0.30991
0.58193,0.30817
0.58278,0.30557
0.58356,0.30206
0.58454,0.29943
0.5859,0.29412
0.58706,0.2906
0.58809,0.28971
0.58923,0.29152
0.5911,0.29335
0.59289,0.29427
0.59439,0.29163
0.59559,0.28538
0.5966,0.2827
0.59727,0.2818
0.59792,0.2791
0.59784,0.2782
0.59695,0.28541
0.5972,0.28539
0.59911,0.27551
0.60136,0.26452
0.60241,0.26363
0.60346,0.26272
0.60466,0.26368
0.60585,0.26462
0.60649,0.26648
0.60747,0.26466
0.60853,0.26377
0.60934,0.26284
0.61002,0.26194
0.61089,0.26196
0.61183,0.26104
0.61245,0.26108
0.61259,0.26291
0.61223,0.26845
0.61182,0.27486
0.61172,0.28029
0.61228,0.28123
0.61326,0.27943
0.61425,0.27763
0.61654,0.27129
0.61914,0.264
0.6209,0.26032
0.6214,0.26219
0.62221,0.26312
0.62328,0.26038
0.62448,0.25575
0.6255,0.2539
0.62637,0.25392
0.62714,0.25206
0.62837,0.2455
0.6298,0.23985
0.63075,0.23891
0.63073,0.24272
0.63052,0.24554
0.63102,0.24555
0.6321,0.24464
0.63356,0.24371
0.63475,0.2447
0.63582,0.24566
0.63616,0.24945
0.63644,0.25226
0.63667,0.25415
0.63732,0.25228
0.63817,0.24949
0.6392,0.24763
0.64008,0.24765
0.64056,0.24955
0.64099,0.25048
0.64154,0.25145
0.6425,0.25052
0.64321,0.2496
0.64386,0.24773
0.64465,0.24586
0.64561,0.24494
0.64616,0.24589
0.64651,0.24779
0.64689,0.2478
0.64739,0.24781
0.64777,0.24782
0.64802,0.24782
0.64802,0.24782
0.64777,0.24782
0.64765,0.24781
0.64761,0.2497
0.64763,0.25251
0.64747,0.25438
0.64747,0.25438
0.64747,0.25438
0.64747,0.25438
0.64747,0.25438
0.64747,0.25438
0.64747,0.25438
0.64747,0.25438
0.64747,0.25438
0.64747,0.25438
0.64747,0.25438
0.64731,0.25625
0.64707,0.25903
0.64707,0.25903
0.64747,0.25438
0.64869,0.24595
0.65009,0.2384
0.65025,0.23649
0.64925,0.23932
0.64858,0.24121
0.64849,0.2393
0.6481,0.23644
0.64721,0.23642
0.6465,0.23735
0.64632,0.2364
0.64648,0.23449
0.64648,0.23449
0.6468,0.23065
0.64686,0.22681
0.6464,0.22775
0.64575,0.23255
0.64518,0.23637
0.64456,0.23921
0.6439,0.24111
0.64368,0.23919
0.6442,0.21698
0.64456,0.19329
0.64645,0.22103
0.64954,0.27376
0.65249,0.29643
0.65321,0.28841
0.65362,0.28662
0.65382,0.28842
0.65383,0.2911
0.65366,0.29289
0.65366,0.29289
0.65391,0.29289
0.65411,0.29469
0.65412,0.29735
0.65396,0.29912
0.6542,0.29912
0.65473,0.29736
0.65522,0.29471
0.65522,0.29471
0.65481,0.29914
0.65465,0.30355
0.65486,0.30531
0.6551,0.30532
0.6551,0.30532
0.65494,0.30707
0.6551,0.30794
0.65554,0.30709
0.65579,0.30709
0.65595,0.30796
0.6564,0.30711
0.65664,0.30711
0.65664,0.30973
0.65684,0.31148
0.65692,0.31323
0.65708,0.31409
0.65769,0.3115
0.65834,0.30715
0.65875,0.30539
0.65928,0.30364
0.6596,0.30278
0.65977,0.30365
0.6598,0.30718
0.65979,0.30979
0.65987,0.31155
0.6604,0.30981
0.66072,0.30895
0.66047,0.31156
0.6603,0.3159
0.66049,0.31764
0.66074,0.31765
0.66074,0.31765
0.66098,0.31765
0.66117,0.31939
0.66157,0.32025
0.66218,0.31768
0.66285,0.31335
0.66326,0.31162
0.66345,0.31337
0.66327,0.3177
0.66309,0.32201
0.66352,0.32374
0.66436,0.32376
0.66428,0.33061
0.66352,0.34072
0.66269,0.34908
0.66244,0.35156
0.6631,0.3449
0.66452,0.33062
0.66252,0.32287
0.65765,0.3279
0.65398,0.33378
0.65342,0.33716
0.65311,0.33799
0.65228,0.34052
0.65114,0.34383
0.64985,0.34883
0.64955,0.34295
0.64979,0.33372
0.64946,0.32944
0.64851,0.33197
0.64757,0.33451
0.64691,0.33787
0.64584,0.34458
0.64466,0.35121
0.64371,0.35532
0.64345,0.35285
0.64366,0.34368
0.64353,0.33273
0.64309,0.32676
0.64224,0.331
0.64143,0.33775
0.64054,0.34111
0.63971,0.3411
0.63912,0.34108
0.63864,0.34107
0.63805,0.34106
0.63721,0.34104
0.63662,0.34103
0.636,0.3427
0.63521,0.34519
0.63458,0.34852
0.63439,0.34934
0.6341,0.34851
0.63341,0.34683
0.63295,0.34515
0.63281,0.34096
0.63282,0.33335
0.63265,0.32483
0.63215,0.32052
0.63148,0.32136
0.631,0.32135
0.63046,0.32049
0.62942,0.32304
0.62836,0.32901
0.62756,0.33325
0.62709,0.33153
0.627,0.32471
0.62684,0.32041
0.62592,0.32469
0.62507,0.32808
0.62446,0.3298
0.62385,0.33317
0.62293,0.33907
0.62222,0.34074
0.62174,0.33905
0.62193,0.33313
0.62219,0.32633
0.6222,0.32117
0.6219,0.31858
0.62142,0.3203
0.62057,0.32543
0.61972,0.32884
0.61912,0.32882
0.61864,0.32881
0.61816,0.33051
0.61751,0.33304
0.61667,0.33642
0.61555,0.34061
0.61431,0.34645
0.61331,0.34892
0.61266,0.34975
0.61226,0.35223
0.61209,0.3547
0.61203,0.35553
0.61163,0.35799
0.61112,0.36044
0.61104,0.35798
0.61121,0.35552
0.61103,0.35468
0.61073,0.35385
0.61048,0.35053
0.61018,0.3497
0.60976,0.34885
0.60933,0.34635
0.60877,0.34216
0.60793,0.34214
0.60742,0.34464
0.60719,0.3463
0.60694,0.34463
0.60651,0.34211
0.60627,0.34211
0.60587,0.3446
0.6047,0.34626
0.60421,0.34457
0.60448,0.34207
0.60471,0.34039
0.60411,0.34038
0.60363,0.34037
0.60304,0.34036
0.60234,0.34203
0.60181,0.34284
0.60161,0.34033
0.60162,0.33612
0.60158,0.33272
0.60094,0.33357
0.60024,0.33523
0.59995,0.33608
0.59981,0.33438
0.59921,0.33437
0.59861,0.33436
0.59813,0.33435
0.59773,0.33094
0.59766,0.32583
0.59784,0.32067
0.59767,0.32154
0.59689,0.32666
0.5961,0.33431
0.59562,0.33852
0.59548,0.33683
0.59497,0.33515
0.59442,0.33
0.59391,0.32834
0.59357,0.32572
0.59312,0.32745
0.59274,0.33
0.59213,0.33676
0.59159,0.34013
0.59148,0.33335
0.59166,0.32314
0.59146,0.31795
0.59087,0.32225
0.59016,0.32652
0.58971,0.32822
0.58941,0.32479
0.58931,0.31964
0.58883,0.31963
0.58829,0.32304
0.58776,0.32391
0.58725,0.32217
0.58665,0.32216
0.58623,0.32559
0.58582,0.32899
0.5855,0.32814
0.58523,0.32386
0.58487,0.32385
0.58427,0.3264
0.58382,0.3281
0.58342,0.32638
0.58319,0.32381
0.58279,0.32208
0.58242,0.32208
0.58194,0.32207
0.5815,0.32378
0.58106,0.32805
0.58062,0.33229
0.58042,0.32888
0.58021,0.3229
0.58005,0.31857
0.57953,0.31944
0.57905,0.32201
0.57837,0.32628
0.57801,0.32627
0.57764,0.3237
0.57736,0.32197
0.57687,0.32196
0.57651,0.32195
0.57627,0.32195
0.57588,0.32538
0.57537,0.32878
0.57485,0.32963
0.57457,0.32792
0.57433,0.32791
0.57409,0.32791
0.57373,0.3279
0.57324,0.32789
0.57288,0.32788
0.57257,0.32959
0.5723,0.33042
0.57204,0.32786
0.57167,0.3253
0.57134,0.32442
0.57089,0.32356
0.57067,0.32011
0.57046,0.31925
0.57018,0.3201
0.56976,0.32182
0.56927,0.32181
0.56891,0.3218
0.56843,0.32179
0.56807,0.32178
0.56776,0.3235
0.56766,0.32606
0.56722,0.33118
0.56656,0.33285
0.56602,0.33116
0.56561,0.32944
0.56539,0.33199
0.56527,0.33198
0.56494,0.33114
0.56431,0.33196
0.56395,0.33536
0.56368,0.33618
0.56335,0.33534
0.56311,0.33534
0.56284,0.33617
0.56245,0.33702
0.56224,0.33616
0.56209,0.33362
0.56188,0.32937
0.56182,0.32422
0.56194,0.3208
0.56161,0.32337
0.56113,0.32677
0.5607,0.32507
0.5604,0.32335
0.56013,0.32419
0.55975,0.32848
0.55919,0.3344
0.55889,0.33609
0.55901,0.33272
0.55903,0.33186
0.55879,0.33185
0.55841,0.33271
0.55782,0.33607
0.55735,0.33944
0.55706,0.34112
0.55679,0.34194
0.55641,0.34279
0.55596,0.34192
0.55563,0.34109
0.55544,0.3394
0.55515,0.34108
0.55477,0.3419
0.5545,0.34275
0.55458,0.34021
0.55468,0.33686
0.55459,0.33177
0.55431,0.32921
0.55407,0.32921
0.55399,0.33175
0.5536,0.33684
0.55315,0.34018
0.55288,0.34103
0.55298,0.33766
0.55305,0.33514
0.55281,0.33513
0.552,0.3427
0.55119,0.35017
0.55097,0.34934
0.55112,0.34436
0.55114,0.34351
0.55085,0.34518
0.5505,0.34517
0.55026,0.34517
0.55021,0.34684
0.54995,0.34766
0.54962,0.34683
0.54947,0.34347
0.54954,0.34097
0.54959,0.33928
0.54935,0.33928
0.54894,0.34095
0.54864,0.34346
0.54859,0.34513
0.54864,0.34346
0.54871,0.34095
0.54851,0.33926
0.5482,0.33757
0.54802,0.33503
0.54794,0.33842
0.54774,0.34594
0.54787,0.34091
0.54798,0.3274
0.54802,0.32137
0.54774,0.32737
0.54751,0.33162
0.54708,0.32991
0.54685,0.32479
0.54689,0.32307
0.5469,0.32735
0.54667,0.33161
0.54615,0.3333
0.54579,0.33329
0.54559,0.33158
0.54553,0.33415
0.5453,0.34339
0.54514,0.35005
0.54518,0.34841
0.54498,0.34673
0.54484,0.34756
0.54462,0.35173
0.54437,0.35748
0.54409,0.35912
0.54425,0.35254
0.54415,0.34672
0.54379,0.34671
0.54318,0.35252
0.54256,0.36401
0.54212,0.3729
0.54203,0.37694
0.54201,0.37774
0.54212,0.3729
0.54231,0.36483
0.54244,0.35909
0.54226,0.35662
0.54203,0.35083
0.54185,0.34834
0.54183,0.34916
0.5422,0.32205
0.54279,0.27889
0.54292,0.2502
0.54254,0.25019
0.54202,0.25113
0.5416,0.25298
0.54129,0.25579
0.54131,0.25485
0.54108,0.25392
0.54066,0.25578
0.54012,0.25761
0.53978,0.25576
0.53935,0.252
0.53886,0.25761
0.53849,0.26407
0.53822,0.265
0.5379,0.26223
0.53741,0.26127
0.53683,0.25848
0.53626,0.25568
0.53574,0.25659
0.53533,0.25845
0.53482,0.25844
0.53445,0.25843
0.53394,0.25842
0.53335,0.25654
0.5327,0.25747
0.53239,0.26117
0.53214,0.26116
0.53182,0.25746
0.53133,0.2565
0.53093,0.25835
0.53045,0.25648
0.52986,0.25367
0.52923,0.25366
0.52894,0.25644
0.52867,0.25831
0.52829,0.2583
0.52779,0.25829
0.52741,0.25828
0.52691,0.25827
0.52628,0.25825
0.52565,0.25824
0.52538,0.2601
0.5251,0.26286
0.5247,0.26471
0.5242,0.2647
0.52383,0.26469
0.52334,0.26282
0.523,0.26004
0.52274,0.26004
0.52247,0.26281
0.52207,0.26465
0.52182,0.26464
0.52157,0.26464
0.52118,0.26648
0.52042,0.26737
0.51993,0.26645
0.51957,0.26459
0.51943,0.26644
0.51892,0.26734
0.51854,0.26826
0.51803,0.26916
0.51765,0.27099
0.51716,0.26914
0.5168,0.26638
0.51656,0.26453
0.51656,0.26453
0.5163,0.26637
0.51566,0.26911
0.51503,0.27093
0.51479,0.26909
0.51454,0.26818
0.51417,0.26724
0.51366,0.27
0.51328,0.2718
0.51277,0.27272
0.51216,0.27087
0.51153,0.27086
0.51128,0.27085
0.51103,0.27085
0.51066,0.27267
0.5104,0.2754
0.51015,0.27722
0.50978,0.27539
0.50953,0.27265
0.50954,0.27082
0.50929,0.27081
0.50891,0.2708
0.50841,0.27079
0.50804,0.27262
0.50754,0.27534
0.50716,0.27715
0.50692,0.27715
0.50667,0.27714
0.50629,0.27896
0.50605,0.28166
0.5058,0.28347
0.50518,0.28345
0.50456,0.28344
0.50431,0.28162
0.50431,0.27891
0.50431,0.27891
0.50406,0.28162
0.5037,0.28342
0.5032,0.28522
0.50284,0.2879
0.50259,0.28789
0.50234,0.2852
0.50196,0.28338
0.50146,0.28337
0.50109,0.28337
0.5006,0.28335
0.50023,0.28335
0.49998,0.28334
0.49999,0.28515
0.49974,0.28603
0.49913,0.28693
0.49852,0.28781
0.49827,0.2878
0.49801,0.28511
0.49764,0.2851
0.49738,0.28418
0.49736,0.28058
0.49709,0.27694
0.49671,0.27511
0.49647,0.27603
0.49649,0.27964
0.49627,0.28507
0.49591,0.28595
0.49567,0.28686
0.49568,0.28954
0.49546,0.29221
0.49482,0.28952
0.49443,0.28683
0.4943,0.28592
0.49417,0.28502
0.49391,0.28321
0.49367,0.28501
0.49333,0.2877
0.49309,0.28949
0.49309,0.28949
0.49309,0.28949
0.49285,0.28948
0.49248,0.28948
0.49223,0.28947
0.49223,0.28947
0.49201,0.29305
0.49169,0.29836
0.49146,0.30013
0.49144,0.29748
0.49116,0.29391
0.49077,0.29123
0.49025,0.28943
0.48988,0.28942
0.48964,0.28941
0.48966,0.29121
0.48968,0.29388
0.48921,0.29565
0.48847,0.29564
0.48798,0.29563
0.48798,0.29563
0.48798,0.29563
0.48777,0.29918
0.48743,0.30092
0.48692,0.29916
0.4865,0.29559
0.4863,0.29915
0.48637,0.30443
0.48641,0.30794
0.48641,0.30794
0.48641,0.30794
0.48641,0.30794
0.48617,0.30794
0.4858,0.30793
0.48556,0.30793
0.48531,0.30792
0.4849,0.30439
0.48458,0.29911
0.48458,0.29911
0.48439,0.30262
0.48403,0.30351
0.48381,0.30527
0.48362,0.30875
0.48297,0.30611
0.48225,0.29906
0.48223,0.29728
0.48241,0.30171
0.48231,0.30258
0.48201,0.29906
0.48173,0.29727
0.48141,0.29992
0.48122,0.30345
0.48126,0.30608
0.48126,0.30608
0.48124,0.30521
0.48101,0.30607
0.48068,0.30782
0.4804,0.30606
0.48036,0.30343
0.48036,0.30343
0.4804,0.30606
0.48019,0.30781
0.47958,0.3078
0.47897,0.30779
0.47875,0.30954
0.4788,0.31215
0.47855,0.31214
0.47817,0.31127
0.4777,0.31212
0.47737,0.31386
0.47712,0.31386
0.47712,0.31386
0.47712,0.31386
0.47712,0.31386
0.47688,0.31385
0.47652,0.31384
0.476,0.31209
0.47558,0.30947
0.47534,0.30947
0.47542,0.31382
0.47551,0.31815
0.4753,0.31988
0.4749,0.31814
0.4746,0.31554
0.47433,0.3138
0.474,0.31553
0.47381,0.31812
0.47384,0.31985
0.4736,0.31984
0.47324,0.31984
0.47275,0.31983
0.47239,0.31982
0.47211,0.31808
0.47185,0.31722
0.4715,0.31807
0.47126,0.31807
0.47096,0.31547
0.47059,0.31546
0.47017,0.31804
0.4698,0.31804
0.4695,0.31544
0.4695,0.31544
0.46928,0.31629
0.46889,0.31543
0.46832,0.31193
0.46794,0.31106
0.46743,0.31016
0.46704,0.30929
0.46651,0.30753
0.46614,0.30752
0.46623,0.31103
0.46619,0.31449
0.46573,0.31536
0.46516,0.31187
0.4648,0.30749
0.46436,0.30486
0.4639,0.30572
0.46353,0.30571
0.46302,0.30483
0.46233,0.30216
0.46167,0.3004
0.4614,0.2995
0.4612,0.30126
0.46079,0.29948
0.46062,0.30215
0.46055,0.30827
0.46038,0.31525
0.46016,0.3161
0.45989,0.31524
0.45913,0.30999
0.45837,0.30474
0.45802,0.3012
0.45777,0.30119
0.45762,0.30823
0.45739,0.3169
0.45741,0.32124
0.45699,0.3195
0.4568,0.32123
0.45641,0.32034
0.45588,0.31516
0.45508,0.30905
0.45489,0.31079
0.45481,0.31599
0.45456,0.31945
0.45408,0.31944
0.4533,0.31422
0.45243,0.30637
0.452,0.30107
0.45176,0.30107
0.45133,0.29929
0.45099,0.29663
0.45093,0.29485
0.45068,0.30194
0.45074,0.31068
0.45114,0.31506
0.45156,0.31333
0.45096,0.30982
0.45004,0.30456
0.44943,0.30102
0.44943,0.30102
0.44943,0.30102
0.44967,0.30102
0.45004,0.30103
0.45004,0.30103
0.44967,0.30102
0.44967,0.30102
0.45004,0.30103
0.45053,0.30104
0.45065,0.30104
0.45053,0.30104
0.45047,0.29927
0.45068,0.29484
0.45103,0.29039
0.45134,0.2886
0.45177,0.28681
0.45205,0.28413
0.45224,0.28232
0.45224,0.28232
0.45255,0.28414
0.4532,0.28504
0.45379,0.28417
0.45398,0.28236
0.45417,0.28055
0.45445,0.27785
0.4547,0.27785
0.45492,0.27693
0.45543,0.27332
0.45594,0.26966
0.45631,0.27334
0.45681,0.27332
0.45747,0.27062
0.45809,0.26602
0.45849,0.26696
0.45902,0.26788
0.45944,0.26973
0.45995,0.26974
0.46037,0.27159
0.4607,0.27433
0.461,0.27616
0.46157,0.27435
0.46212,0.27163
0.46247,0.26611
0.4627,0.26059
0.46316,0.25874
0.46376,0.2578
0.4643,0.2541
0.46476,0.25224
0.46541,0.25318
0.46606,0.25414
0.46655,0.2532
0.4669,0.25229
0.46741,0.2523
0.46781,0.25323
0.46829,0.25232
0.46863,0.25044
0.46914,0.25046
0.46977,0.25047
0.4704,0.25048
0.47061,0.2486
0.47081,0.24579
0.47136,0.24201
0.4719,0.23727
0.47235,0.23442
0.47301,0.23538
0.47372,0.23922
0.47399,0.24016
0.47423,0.23923
0.47479,0.23542
0.47567,0.23449
0.47654,0.23354
0.47713,0.23068
0.47763,0.22974
0.47811,0.23549
0.4787,0.24027
0.47932,0.23934
0.47996,0.23936
0.48023,0.2403
0.48047,0.23937
0.48104,0.23556
0.48164,0.23271
0.48215,0.23272
0.48278,0.23176
0.48336,0.22794
0.48382,0.22408
0.48421,0.22409
0.48472,0.2241
0.48511,0.22411
0.48562,0.22412
0.48626,0.22413
0.48716,0.22415
0.48778,0.22222
0.48801,0.21932
0.48824,0.21737
0.48889,0.21738
0.48953,0.2174
0.49003,0.21545
0.49039,0.21252
0.49091,0.21254
0.49156,0.21352
0.4922,0.21257
0.4927,0.21061
0.49335,0.21062
0.49425,0.21064
0.49491,0.21263
0.49544,0.21361
0.49608,0.21265
0.49698,0.21267
0.4979,0.21563
0.49881,0.21761
0.49944,0.2137
0.49993,0.20782
0.50031,0.20386
0.50083,0.20388
0.50148,0.20389
0.50212,0.20191
0.5029,0.20095
0.50394,0.20196
0.50485,0.20397
0.50511,0.20397
0.50537,0.20398
0.50602,0.202
0.50667,0.20104
0.50719,0.20203
0.50784,0.20404
0.50849,0.20405
0.50901,0.20207
0.5094,0.2011
0.50993,0.2001
0.51032,0.19712
0.51086,0.19212
0.51151,0.19214
0.51217,0.19113
0.5127,0.18915
0.51336,0.18814
0.51426,0.19018
0.51493,0.18818
0.51547,0.18516
0.51612,0.18518
0.51676,0.18822
0.51729,0.18823
0.51796,0.18522
0.51888,0.18524
0.51953,0.18626
0.52006,0.18527
0.52073,0.18325
0.52141,0.18123
0.52194,0.18023
0.52236,0.17716
0.52293,0.17309
0.52365,0.1669
0.52434,0.16381
0.52461,0.16382
0.52495,0.15649
0.5257,0.14921
0.52694,0.14601
0.52862,0.14074
0.5301,0.13008
0.53073,0.12355
0.5305,0.14084
0.5302,0.16287
0.53023,0.18043
0.53064,0.1794
0.53115,0.18045
0.53159,0.17738
0.53244,0.17331
0.53356,0.16921
0.53452,0.16716
0.5351,0.16407
0.5358,0.162
0.53661,0.15363
0.53729,0.14524
0.53788,0.14947
0.53861,0.16101
0.53948,0.16418
0.54015,0.16419
0.54062,0.16731
0.54101,0.16732
0.54161,0.16423
0.54231,0.16216
0.54329,0.16009
0.54397,0.15908
0.54422,0.16012
0.5448,0.15804
0.54609,0.14755
0.54796,0.13049
0.54933,0.1186
0.54995,0.1153
0.54968,0.1153
0.54935,0.112
0.54918,0.10757
0.5496,0.11312
0.55042,0.12404
0.55132,0.13704
0.55215,0.14131
0.55274,0.14454
0.55304,0.14347
0.55328,0.14455
0.55403,0.14136
0.5547,0.1414
0.55497,0.14138
0.55521,0.14247
0.55588,0.14249
0.55653,0.14355
0.55709,0.14252
0.55756,0.14039
0.5581,0.1404
0.5585,0.14041
0.55956,0.13184
0.56076,0.11888
0.56103,0.11889
0.5607,0.12537
0.56155,0.11998
0.56304,0.10682
0.56373,0.10239
0.56401,0.10239
0.56442,0.1024
0.56497,0.10242
0.56538,0.10243
0.56565,0.10244
0.56593,0.10244
0.56654,0.10469
0.56712,0.10802
0.56739,0.10803
0.5675,0.10471
0.56765,0.10025
0.56776,0.09691
0.56784,0.094664
0.56784,0.094664
0.56804,0.096917
0.56834,0.10027
0.56846,0.10474
0.56835,0.10805
0.56827,0.11026
0.56835,0.10805
0.56846,0.10474
0.56804,0.10917
0.56729,0.11901
0.5668,0.12555
0.56715,0.12338
0.56766,0.12013
0.56781,0.11575
0.56751,0.11245
0.56732,0.11024
0.56759,0.11025
0.568,0.11026
0.56827,0.11026
0.56827,0.11026
0.56792,0.11246
0.5674,0.11574
0.56713,0.11573
0.56724,0.11245
0.56732,0.11024
0.56732,0.11024
0.56732,0.11024
0.56724,0.11245
0.56713,0.11573
0.56666,0.11352
0.56606,0.1069
0.56558,0.10466
0.56547,0.10798
0.5654,0.11019
0.5654,0.11019
0.56527,0.10575
0.56507,0.099084
0.56494,0.09459
0.56494,0.09459
0.56474,0.092331
0.56443,0.088949
0.56423,0.086676
0.56415,0.088942
0.56405,0.092313
0.5637,0.094558
0.56329,0.094548
0.56301,0.094541
0.56301,0.094541
0.56274,0.094534
0.56239,0.092271
0.56229,0.086626
0.56246,0.080953
0.56253,0.078667
0.56253,0.078667
0.56253,0.078667
0.5619,0.080939
0.56062,0.086583
0.55949,0.092197
0.55915,0.094442
0.55915,0.094442
0.55894,0.092183
0.55862,0.0888
0.5576,0.095544
0.55641,0.10884
0.55565,0.1066
0.55568,0.089873
0.55571,0.078491
0.55571,0.078491
0.55571,0.078491
0.55571,0.078491
0.55571,0.078491
0.55537,0.08077
0.55487,0.084162
0.55453,0.086427
0.55431,0.084148
0.55392,0.083015
0.5534,0.081845
0.55301,0.080709
0.55257,0.076116
0.55218,0.074974
0.55154,0.078383
0.55137,0.079507
0.551,0.07724
0.54981,0.080627
0.54855,0.087392
0.5481,0.08853
0.54862,0.084001
0.54892,0.082887
0.54909,0.081734
0.54856,0.080595
0.54792,0.07829
0.54717,0.080559
0.54649,0.086221
0.54568,0.091844
0.54499,0.091827
0.5445,0.088438
0.54432,0.090697
0.54432,0.097419
0.54399,0.099652
0.54324,0.096286
0.5425,0.091763
0.54215,0.088378
0.54196,0.08383
0.54175,0.080419
0.54137,0.078121
0.54077,0.080394
0.5403,0.083787
0.5397,0.086046
0.53964,0.08149
0.53995,0.072354
0.53969,0.071211
0.53871,0.07918
0.53776,0.085997
0.53734,0.085986
0.53706,0.085979
0.53682,0.083698
0.53646,0.080283
0.53646,0.080283
0.53627,0.083684
0.53537,0.088204
0.53434,0.091555
0.53376,0.093795
0.5331,0.091523
0.53246,0.08813
0.53218,0.088123
0.53185,0.091491
0.53141,0.093735
0.53086,0.093721
0.53044,0.093711
0.52989,0.093696
0.52948,0.093686
0.52948,0.093686
0.52961,0.093689
0.52923,0.091424
0.52858,0.08803
0.52833,0.085755
0.52805,0.085747
0.5273,0.090262
0.52656,0.094721
0.52628,0.095854
0.52602,0.093598
0.52561,0.093587
0.52533,0.09358
0.52506,0.093573
0.52464,0.093563
0.52437,0.093556
0.52441,0.08904
0.52448,0.082257
0.52422,0.079967
0.52377,0.083362
0.52347,0.08563
0.52351,0.081075
0.52356,0.07653
0.52329,0.075358
0.52253,0.082207
0.52208,0.086713
0.52193,0.08786
0.52181,0.085587
0.52153,0.08558
0.52153,0.08558
0.52155,0.083305
0.52158,0.079899
0.52159,0.07761
0.521,0.082168
0.52012,0.08893
0.51925,0.093425
0.51856,0.093408
0.51787,0.09339
0.5176,0.093383
0.51819,0.086614
0.51881,0.076408
0.51899,0.07181
0.51868,0.075239
0.51839,0.077527
0.51797,0.077516
0.51769,0.077509
0.51769,0.077509
0.51799,0.075221
0.51842,0.071795
0.51756,0.076375
0.51585,0.084281
0.51472,0.087675
0.51472,0.087675
0.51442,0.093302
0.51398,0.098891
0.51371,0.096642
0.51403,0.087658
0.5142,0.079709
0.51407,0.077415
0.51379,0.077408
0.5135,0.079691
0.51307,0.083087
0.51194,0.089869
0.51069,0.094317
0.50986,0.093186
0.50987,0.087551
0.50959,0.085274
0.5089,0.087526
0.50792,0.09088
0.50751,0.093126
0.50737,0.090866
0.50723,0.087484
0.50751,0.080663
0.50835,0.073838
0.50864,0.069231
0.50822,0.06922
0.50794,0.069213
0.50766,0.07382
0.50724,0.080655
0.50696,0.085206
0.5064,0.087462
0.50557,0.09082
0.50502,0.090806
0.50501,0.087427
0.50501,0.08288
0.50501,0.079472
0.50473,0.079464
0.50431,0.08058
0.50403,0.079446
0.50403,0.077156
0.50403,0.077156
0.50403,0.077156
0.50403,0.077156
0.50403,0.077156
0.50348,0.081717
0.50238,0.086208
0.50141,0.087335
0.50113,0.087327
0.50086,0.0907
0.50046,0.092946
0.50018,0.092939
0.49909,0.097409
0.49746,0.10181
0.49636,0.10291
0.49606,0.098436
0.49535,0.095068
0.49463,0.090541
0.49433,0.087153
0.49432,0.084882
0.49432,0.084882
0.49432,0.084882
0.49402,0.082598
0.49358,0.079177
0.4933,0.07917
0.49333,0.08258
0.49223,0.084828
0.49057,0.084786
0.48945,0.084757
0.48982,0.093818
0.49035,0.10718
0.4907,0.11602
0.49045,0.11821
0.49007,0.12146
0.48946,0.11487
0.48943,0.097163
0.48984,0.081366
0.49036,0.076803
0.49036,0.076803
0.49038,0.079094
0.49041,0.082505
0.49017,0.087047
0.48927,0.094913
0.48683,0.099306
0.48391,0.097023
0.48172,0.087948
0.48099,0.085693
0.48075,0.087923
0.48057,0.094692
0.4802,0.098034
0.47996,0.10027
0.47958,0.093525
0.47901,0.083368
0.47849,0.085629
0.47832,0.10133
0.4782,0.1113
0.47842,0.108
0.47885,0.10914
0.479,0.119
0.47895,0.12444
0.47899,0.11792
0.47873,0.11903
0.47724,0.12764
0.4753,0.13302
0.47404,0.13083
0.47353,0.13298
0.47319,0.13618
0.47316,0.14898
0.47346,0.16465
0.47335,0.17293
0.47289,0.16983
0.47236,0.16982
0.47176,0.17289
0.47079,0.1708
0.47004,0.16667
0.46949,0.16561
0.46914,0.16767
0.46856,0.16559
0.46783,0.16246
0.46716,0.16244
0.46696,0.16555
0.46675,0.16762
0.46608,0.1676
0.46542,0.16759
0.46462,0.16757
0.46388,0.16962
0.46316,0.17268
0.46281,0.17474
0.4626,0.17678
0.46215,0.17983
0.46141,0.18186
0.46067,0.18388
0.46031,0.18487
0.45949,0.18385
0.45865,0.18179
0.45806,0.17973
0.45771,0.17667
0.45705,0.17665
0.45621,0.17969
0.45567,0.18376
0.45518,0.18475
0.45455,0.18576
0.45399,0.18878
0.45361,0.1938
0.45302,0.19579
0.45231,0.19377
0.45175,0.19276
0.45113,0.19374
0.45054,0.19573
0.45002,0.19572
0.44936,0.19571
0.44871,0.19569
0.44819,0.19568
0.44753,0.19566
0.44688,0.19565
0.44617,0.19764
0.44523,0.2006
0.44432,0.20058
0.44376,0.19958
0.44333,0.19856
0.44285,0.19956
0.44223,0.20053
0.44139,0.2025
0.44048,0.20248
0.43991,0.20446
0.4395,0.20741
0.43893,0.20937
0.43836,0.21133
0.43788,0.21229
0.4372,0.21131
0.43621,0.20931
0.43556,0.2093
0.43504,0.20929
0.43439,0.20927
0.43296,0.21514
0.43137,0.22579
0.43009,0.22865
0.42987,0.22384
0.42969,0.22285
0.4295,0.23538
0.42913,0.24673
0.42902,0.2552
0.42873,0.26262
0.42863,0.27364
0.42868,0.28001
0.42852,0.28182
0.42746,0.27269
0.4266,0.2626
0.42611,0.25511
0.42458,0.24191
0.42187,0.22076
0.42032,0.21289
0.42026,0.21679
0.42076,0.22169
0.42154,0.22943
0.42298,0.24283
0.4242,0.25227
0.42399,0.24283
0.42309,0.2324
0.42243,0.22943
0.42141,0.23711
0.41886,0.23703
0.41623,0.23794
0.41423,0.23407
0.41318,0.23117
0.41256,0.22923
0.41192,0.22922
0.41138,0.23113
0.41103,0.23399
0.41039,0.23398
0.40944,0.23301
0.40871,0.23586
0.4081,0.2406
0.40757,0.24249
0.40706,0.24248
0.40668,0.24247
0.40629,0.24436
0.40582,0.24717
0.40505,0.24904
0.40416,0.24902
0.40353,0.24901
0.4029,0.24711
0.40209,0.24427
0.40133,0.24235
0.40094,0.24424
0.40037,0.24516
0.39942,0.24421
0.3984,0.24229
0.39751,0.24227
0.39662,0.24225
0.39611,0.24414
0.39591,0.24884
0.39547,0.25164
0.39464,0.25258
0.39382,0.25348
0.39332,0.25534
0.39281,0.25533
0.39231,0.25719
0.39187,0.25996
0.39149,0.26181
0.39086,0.2618
0.38973,0.26177
0.38859,0.25989
0.38763,0.25709
0.38712,0.25521
0.38636,0.25519
0.38535,0.25517
0.3846,0.25702
0.3843,0.2598
0.38395,0.2635
0.38327,0.26625
0.38253,0.26807
0.38204,0.2699
0.38175,0.27263
0.38152,0.27446
0.38101,0.27445
0.38039,0.27443
0.37951,0.27442
0.37889,0.2744
0.37785,0.27072
0.37681,0.26704
0.37584,0.26424
0.37529,0.26516
0.37448,0.26605
0.3739,0.26973
0.37309,0.27061
0.37214,0.26969
0.37111,0.26783
0.37064,0.26966
0.37036,0.27239
0.37004,0.27604
0.36964,0.27875
0.36945,0.28237
0.3689,0.28325
0.36836,0.28416
0.36753,0.28322
0.36656,0.2805
0.36542,0.27594
0.36504,0.27593
0.36437,0.27681
0.36354,0.2759
0.36304,0.27589
0.36303,0.27861
0.36248,0.28222
0.36172,0.2849
0.36114,0.28669
0.36068,0.28848
0.36014,0.28935
0.35956,0.28846
0.35878,0.28664
0.35832,0.28843
0.3579,0.28931
0.35704,0.28661
0.35617,0.2839
0.35575,0.28478
0.3553,0.28657
0.35443,0.28655
0.35381,0.28654
0.35331,0.28653
0.35269,0.28651
0.35182,0.2865
0.35137,0.28829
0.35113,0.29096
0.35069,0.29274
0.35007,0.29272
0.34975,0.2945
0.34939,0.29715
0.34894,0.29892
0.34862,0.30068
0.34809,0.30154
0.34739,0.30066
0.34672,0.29887
0.34635,0.29886
0.34586,0.29885
0.34524,0.29884
0.34481,0.3006
0.34458,0.30323
0.34414,0.30499
0.34353,0.30497
0.34321,0.30673
0.34287,0.30934
0.34243,0.31108
0.34194,0.31107
0.34133,0.31105
0.34047,0.31104
0.34004,0.31277
0.33964,0.31362
0.33919,0.31275
0.33852,0.311
0.33815,0.31099
0.33766,0.31098
0.33705,0.31096
0.33644,0.31095
0.33595,0.31094
0.33558,0.31093
0.33484,0.31092
0.33454,0.31266
0.33402,0.31351
0.33363,0.31438
0.33323,0.31523
0.33361,0.3187
0.3334,0.32128
0.33262,0.32299
0.33177,0.32297
0.33171,0.32469
0.33175,0.32725
0.33134,0.32895
0.33073,0.32894
0.33025,0.32893
0.32945,0.3272
0.32875,0.32634
0.3286,0.32718
0.32855,0.32889
0.32795,0.32888
0.3271,0.32886
0.32625,0.32885
0.32584,0.33054
0.32584,0.33478
0.32577,0.33731
0.32519,0.33646
0.32459,0.33645
0.32384,0.33727
0.32334,0.33812
0.323,0.33725
0.32242,0.33641
0.3215,0.33469
0.32077,0.33468
0.32041,0.33467
0.31993,0.33466
0.31933,0.33465
0.31852,0.33294
0.31794,0.33209
0.31764,0.33462
0.31734,0.33714
0.31696,0.33799
0.31646,0.33881
0.31582,0.34048
0.31522,0.34047
0.31474,0.34046
0.31434,0.34213
0.31405,0.34463
0.31401,0.3463
0.31377,0.3463
0.31317,0.34629
0.31257,0.34627
0.31209,0.34627
0.31174,0.34626
0.31126,0.34625
0.31066,0.34624
0.30982,0.34622
0.30922,0.34621
0.30874,0.3462
0.30859,0.34786
0.30843,0.35035
0.30804,0.352
0.30766,0.35365
0.30749,0.35611
0.3069,0.3561
0.3062,0.35527
0.30583,0.35608
0.30523,0.35607
0.30453,0.35524
0.30418,0.3544
0.30405,0.35523
0.30335,0.35438
0.30265,0.35355
0.30195,0.35188
0.30159,0.35187
0.30088,0.35186
0.30016,0.35184
0.29968,0.35184
0.29966,0.35349
0.29939,0.35595
0.29902,0.3576
0.29876,0.35924
0.29873,0.36169
0.29848,0.36332
0.29789,0.36331
0.29729,0.36329
0.29682,0.36328
0.296,0.36163
0.2953,0.36081
0.29494,0.36161
0.2948,0.36325
0.29433,0.36324
0.29374,0.36322
0.29337,0.36485
0.293,0.36565
0.2923,0.36483
0.29148,0.36318
0.29101,0.36317
0.29088,0.3648
0.29074,0.36723
0.29038,0.36885
0.28933,0.3672
0.28862,0.36639
0.28826,0.36718
0.28814,0.36881
0.28766,0.3688
0.28731,0.36879
0.28707,0.36879
0.2866,0.36715
0.28567,0.3647
0.2846,0.36305
0.28448,0.36468
0.28424,0.36548
0.28365,0.36629
0.28246,0.36544
0.28223,0.36789
0.28199,0.36949
0.28152,0.3703
0.28045,0.36866
0.27986,0.37027
0.27963,0.37268
0.27939,0.37429
0.27857,0.37266
0.27738,0.37022
0.27655,0.36858
0.27584,0.36857
0.27513,0.36855
0.27442,0.36854
0.27383,0.36853
0.27276,0.36688
0.27205,0.36607
0.27218,0.3685
0.27232,0.37254
0.27162,0.37414
0.27056,0.37412
0.26997,0.37411
0.26975,0.37571
0.26953,0.37811
0.26919,0.3797
0.26847,0.37809
0.26751,0.37567
0.26669,0.37565
0.26622,0.37644
0.26588,0.37725
0.26493,0.37641
0.26362,0.3756
0.2628,0.37558
0.26271,0.37798
0.26212,0.37797
0.26093,0.37562
0.25972,0.37319
