%!PS-Adobe-3.0 EPSF-3.0
%%Creator: (MATLAB, The Mathworks, Inc. Version 9.7.0.1247435 \(R2019b\) Update 2. Operating System: Mac OS X)
%%Title: /Users/mattiapiccinini/Documents/Google_Drive/PhD/Ricerca/BitBucket/clone_eRumby/code/MPC_Piccinini/MPC_eRumby_vel2.5_atLimits/kineDyn_OCP_eRumby/ocp-interfaces/Matlab/Plots4Paper/delta_plot.eps
%%CreationDate: 2020-03-01T14:35:55
%%Pages: (atend)
%%BoundingBox: 0 0 500 380
%%LanguageLevel: 3
%%EndComments
%%BeginProlog
%%BeginResource: procset (Apache XML Graphics Std ProcSet) 1.2 0
%%Version: 1.2 0
%%Copyright: (Copyright 2001-2003,2010 The Apache Software Foundation. License terms: http://www.apache.org/licenses/LICENSE-2.0)
/bd{bind def}bind def
/ld{load def}bd
/GR/grestore ld
/GS/gsave ld
/RM/rmoveto ld
/C/curveto ld
/t/show ld
/L/lineto ld
/ML/setmiterlimit ld
/CT/concat ld
/f/fill ld
/N/newpath ld
/S/stroke ld
/CC/setcmykcolor ld
/A/ashow ld
/cp/closepath ld
/RC/setrgbcolor ld
/LJ/setlinejoin ld
/GC/setgray ld
/LW/setlinewidth ld
/M/moveto ld
/re {4 2 roll M
1 index 0 rlineto
0 exch rlineto
neg 0 rlineto
cp } bd
/_ctm matrix def
/_tm matrix def
/BT { _ctm currentmatrix pop matrix _tm copy pop 0 0 moveto } bd
/ET { _ctm setmatrix } bd
/iTm { _ctm setmatrix _tm concat } bd
/Tm { _tm astore pop iTm 0 0 moveto } bd
/ux 0.0 def
/uy 0.0 def
/F {
  /Tp exch def
  /Tf exch def
  Tf findfont Tp scalefont setfont
  /cf Tf def  /cs Tp def
} bd
/ULS {currentpoint /uy exch def /ux exch def} bd
/ULE {
  /Tcx currentpoint pop def
  gsave
  newpath
  cf findfont cs scalefont dup
  /FontMatrix get 0 get /Ts exch def /FontInfo get dup
  /UnderlinePosition get Ts mul /To exch def
  /UnderlineThickness get Ts mul /Tt exch def
  ux uy To add moveto  Tcx uy To add lineto
  Tt setlinewidth stroke
  grestore
} bd
/OLE {
  /Tcx currentpoint pop def
  gsave
  newpath
  cf findfont cs scalefont dup
  /FontMatrix get 0 get /Ts exch def /FontInfo get dup
  /UnderlinePosition get Ts mul /To exch def
  /UnderlineThickness get Ts mul /Tt exch def
  ux uy To add cs add moveto Tcx uy To add cs add lineto
  Tt setlinewidth stroke
  grestore
} bd
/SOE {
  /Tcx currentpoint pop def
  gsave
  newpath
  cf findfont cs scalefont dup
  /FontMatrix get 0 get /Ts exch def /FontInfo get dup
  /UnderlinePosition get Ts mul /To exch def
  /UnderlineThickness get Ts mul /Tt exch def
  ux uy To add cs 10 mul 26 idiv add moveto Tcx uy To add cs 10 mul 26 idiv add lineto
  Tt setlinewidth stroke
  grestore
} bd
/QT {
/Y22 exch store
/X22 exch store
/Y21 exch store
/X21 exch store
currentpoint
/Y21 load 2 mul add 3 div exch
/X21 load 2 mul add 3 div exch
/X21 load 2 mul /X22 load add 3 div
/Y21 load 2 mul /Y22 load add 3 div
/X22 load /Y22 load curveto
} bd
/SSPD {
dup length /d exch dict def
{
/v exch def
/k exch def
currentpagedevice k known {
/cpdv currentpagedevice k get def
v cpdv ne {
/upd false def
/nullv v type /nulltype eq def
/nullcpdv cpdv type /nulltype eq def
nullv nullcpdv or
{
/upd true def
} {
/sametype v type cpdv type eq def
sametype {
v type /arraytype eq {
/vlen v length def
/cpdvlen cpdv length def
vlen cpdvlen eq {
0 1 vlen 1 sub {
/i exch def
/obj v i get def
/cpdobj cpdv i get def
obj cpdobj ne {
/upd true def
exit
} if
} for
} {
/upd true def
} ifelse
} {
v type /dicttype eq {
v {
/dv exch def
/dk exch def
/cpddv cpdv dk get def
dv cpddv ne {
/upd true def
exit
} if
} forall
} {
/upd true def
} ifelse
} ifelse
} if
} ifelse
upd true eq {
d k v put
} if
} if
} if
} forall
d length 0 gt {
d setpagedevice
} if
} bd
/RE { % /NewFontName [NewEncodingArray] /FontName RE -
  findfont dup length dict begin
  {
    1 index /FID ne
    {def} {pop pop} ifelse
  } forall
  /Encoding exch def
  /FontName 1 index def
  currentdict definefont pop
  end
} bind def
%%EndResource
%%BeginResource: procset (Apache XML Graphics EPS ProcSet) 1.0 0
%%Version: 1.0 0
%%Copyright: (Copyright 2002-2003 The Apache Software Foundation. License terms: http://www.apache.org/licenses/LICENSE-2.0)
/BeginEPSF { %def
/b4_Inc_state save def         % Save state for cleanup
/dict_count countdictstack def % Count objects on dict stack
/op_count count 1 sub def      % Count objects on operand stack
userdict begin                 % Push userdict on dict stack
/showpage { } def              % Redefine showpage, { } = null proc
0 setgray 0 setlinecap         % Prepare graphics state
1 setlinewidth 0 setlinejoin
10 setmiterlimit [ ] 0 setdash newpath
/languagelevel where           % If level not equal to 1 then
{pop languagelevel             % set strokeadjust and
1 ne                           % overprint to their defaults.
{false setstrokeadjust false setoverprint
} if
} if
} bd
/EndEPSF { %def
count op_count sub {pop} repeat            % Clean up stacks
countdictstack dict_count sub {end} repeat
b4_Inc_state restore
} bd
%%EndResource
%FOPBeginFontDict
%%IncludeResource: font Courier-Oblique
%%IncludeResource: font Courier-BoldOblique
%%IncludeResource: font Courier-Bold
%%IncludeResource: font ZapfDingbats
%%IncludeResource: font Symbol
%%IncludeResource: font Helvetica
%%IncludeResource: font Helvetica-Oblique
%%IncludeResource: font Helvetica-Bold
%%IncludeResource: font Helvetica-BoldOblique
%%IncludeResource: font Times-Roman
%%IncludeResource: font Times-Italic
%%IncludeResource: font Times-Bold
%%IncludeResource: font Times-BoldItalic
%%IncludeResource: font Courier
%FOPEndFontDict
%%BeginResource: encoding WinAnsiEncoding
/WinAnsiEncoding [
/.notdef /.notdef /.notdef /.notdef /.notdef
/.notdef /.notdef /.notdef /.notdef /.notdef
/.notdef /.notdef /.notdef /.notdef /.notdef
/.notdef /.notdef /.notdef /.notdef /.notdef
/.notdef /.notdef /.notdef /.notdef /.notdef
/.notdef /.notdef /.notdef /.notdef /.notdef
/.notdef /.notdef /space /exclam /quotedbl
/numbersign /dollar /percent /ampersand /quotesingle
/parenleft /parenright /asterisk /plus /comma
/hyphen /period /slash /zero /one
/two /three /four /five /six
/seven /eight /nine /colon /semicolon
/less /equal /greater /question /at
/A /B /C /D /E
/F /G /H /I /J
/K /L /M /N /O
/P /Q /R /S /T
/U /V /W /X /Y
/Z /bracketleft /backslash /bracketright /asciicircum
/underscore /quoteleft /a /b /c
/d /e /f /g /h
/i /j /k /l /m
/n /o /p /q /r
/s /t /u /v /w
/x /y /z /braceleft /bar
/braceright /asciitilde /bullet /Euro /bullet
/quotesinglbase /florin /quotedblbase /ellipsis /dagger
/daggerdbl /circumflex /perthousand /Scaron /guilsinglleft
/OE /bullet /Zcaron /bullet /bullet
/quoteleft /quoteright /quotedblleft /quotedblright /bullet
/endash /emdash /asciitilde /trademark /scaron
/guilsinglright /oe /bullet /zcaron /Ydieresis
/space /exclamdown /cent /sterling /currency
/yen /brokenbar /section /dieresis /copyright
/ordfeminine /guillemotleft /logicalnot /sfthyphen /registered
/macron /degree /plusminus /twosuperior /threesuperior
/acute /mu /paragraph /middot /cedilla
/onesuperior /ordmasculine /guillemotright /onequarter /onehalf
/threequarters /questiondown /Agrave /Aacute /Acircumflex
/Atilde /Adieresis /Aring /AE /Ccedilla
/Egrave /Eacute /Ecircumflex /Edieresis /Igrave
/Iacute /Icircumflex /Idieresis /Eth /Ntilde
/Ograve /Oacute /Ocircumflex /Otilde /Odieresis
/multiply /Oslash /Ugrave /Uacute /Ucircumflex
/Udieresis /Yacute /Thorn /germandbls /agrave
/aacute /acircumflex /atilde /adieresis /aring
/ae /ccedilla /egrave /eacute /ecircumflex
/edieresis /igrave /iacute /icircumflex /idieresis
/eth /ntilde /ograve /oacute /ocircumflex
/otilde /odieresis /divide /oslash /ugrave
/uacute /ucircumflex /udieresis /yacute /thorn
/ydieresis
] def
%%EndResource
%FOPBeginFontReencode
/Courier-Oblique findfont
dup length dict begin
  {1 index /FID ne {def} {pop pop} ifelse} forall
  /Encoding WinAnsiEncoding def
  currentdict
end
/Courier-Oblique exch definefont pop
/Courier-BoldOblique findfont
dup length dict begin
  {1 index /FID ne {def} {pop pop} ifelse} forall
  /Encoding WinAnsiEncoding def
  currentdict
end
/Courier-BoldOblique exch definefont pop
/Courier-Bold findfont
dup length dict begin
  {1 index /FID ne {def} {pop pop} ifelse} forall
  /Encoding WinAnsiEncoding def
  currentdict
end
/Courier-Bold exch definefont pop
/Helvetica findfont
dup length dict begin
  {1 index /FID ne {def} {pop pop} ifelse} forall
  /Encoding WinAnsiEncoding def
  currentdict
end
/Helvetica exch definefont pop
/Helvetica-Oblique findfont
dup length dict begin
  {1 index /FID ne {def} {pop pop} ifelse} forall
  /Encoding WinAnsiEncoding def
  currentdict
end
/Helvetica-Oblique exch definefont pop
/Helvetica-Bold findfont
dup length dict begin
  {1 index /FID ne {def} {pop pop} ifelse} forall
  /Encoding WinAnsiEncoding def
  currentdict
end
/Helvetica-Bold exch definefont pop
/Helvetica-BoldOblique findfont
dup length dict begin
  {1 index /FID ne {def} {pop pop} ifelse} forall
  /Encoding WinAnsiEncoding def
  currentdict
end
/Helvetica-BoldOblique exch definefont pop
/Times-Roman findfont
dup length dict begin
  {1 index /FID ne {def} {pop pop} ifelse} forall
  /Encoding WinAnsiEncoding def
  currentdict
end
/Times-Roman exch definefont pop
/Times-Italic findfont
dup length dict begin
  {1 index /FID ne {def} {pop pop} ifelse} forall
  /Encoding WinAnsiEncoding def
  currentdict
end
/Times-Italic exch definefont pop
/Times-Bold findfont
dup length dict begin
  {1 index /FID ne {def} {pop pop} ifelse} forall
  /Encoding WinAnsiEncoding def
  currentdict
end
/Times-Bold exch definefont pop
/Times-BoldItalic findfont
dup length dict begin
  {1 index /FID ne {def} {pop pop} ifelse} forall
  /Encoding WinAnsiEncoding def
  currentdict
end
/Times-BoldItalic exch definefont pop
/Courier findfont
dup length dict begin
  {1 index /FID ne {def} {pop pop} ifelse} forall
  /Encoding WinAnsiEncoding def
  currentdict
end
/Courier exch definefont pop
%FOPEndFontReencode
%%EndProlog
%%Page: 1 1
%%PageBoundingBox: 0 0 500 380
%%BeginPageSetup
[1 0 0 -1 0 380] CT
%%EndPageSetup
GS
1 GC
N
0 0 500 380 re
f
GR
GS
1 GC
N
0 0 500 380 re
f
GR
GS
1 GC
N
68 317.5 M
452.5 317.5 L
452.5 28.5 L
68 28.5 L
cp
f
GR
GS
0.873 GC
1 LJ
0.5 LW
N
68 317.5 M
68 28.5 L
S
GR
GS
0.873 GC
1 LJ
0.5 LW
N
154.211 317.5 M
154.211 28.5 L
S
GR
GS
0.873 GC
1 LJ
0.5 LW
N
240.422 317.5 M
240.422 28.5 L
S
GR
GS
0.873 GC
1 LJ
0.5 LW
N
326.632 317.5 M
326.632 28.5 L
S
GR
GS
0.873 GC
1 LJ
0.5 LW
N
412.843 317.5 M
412.843 28.5 L
S
GR
GS
0.873 GC
1 LJ
0.5 LW
N
452.5 317.5 M
68 317.5 L
S
GR
GS
0.873 GC
1 LJ
0.5 LW
N
452.5 245.25 M
68 245.25 L
S
GR
GS
0.873 GC
1 LJ
0.5 LW
N
452.5 173 M
68 173 L
S
GR
GS
0.873 GC
1 LJ
0.5 LW
N
452.5 100.75 M
68 100.75 L
S
GR
GS
0.873 GC
1 LJ
0.5 LW
N
452.5 28.5 M
68 28.5 L
S
GR
GS
0.149 GC
2 setlinecap
1 LJ
0.5 LW
N
68 317.5 M
452.5 317.5 L
S
GR
GS
0.149 GC
2 setlinecap
1 LJ
0.5 LW
N
68 317.5 M
68 313.655 L
S
GR
GS
0.149 GC
2 setlinecap
1 LJ
0.5 LW
N
154.211 317.5 M
154.211 313.655 L
S
GR
GS
0.149 GC
2 setlinecap
1 LJ
0.5 LW
N
240.422 317.5 M
240.422 313.655 L
S
GR
GS
0.149 GC
2 setlinecap
1 LJ
0.5 LW
N
326.632 317.5 M
326.632 313.655 L
S
GR
GS
0.149 GC
2 setlinecap
1 LJ
0.5 LW
N
412.843 317.5 M
412.843 313.655 L
S
GR
GS
[1 0 0 1 68 323.89999] CT
0.149 GC
N
0 18.964 M
-2.703 18.964 -3.672 16.746 QT
-4.641 14.527 -4.641 11.464 QT
-4.641 9.558 -4.289 7.871 QT
-3.938 6.183 -2.906 5.003 QT
-1.875 3.824 0 3.824 QT
1.453 3.824 2.375 4.535 QT
3.297 5.246 3.781 6.371 QT
4.266 7.496 4.445 8.777 QT
4.625 10.058 4.625 11.464 QT
4.625 13.355 4.273 15.003 QT
3.922 16.652 2.898 17.808 QT
1.875 18.964 0 18.964 QT
cp
0 18.386 M
1.219 18.386 1.82 17.136 QT
2.422 15.886 2.563 14.355 QT
2.703 12.824 2.703 11.105 QT
2.703 9.449 2.563 8.058 QT
2.422 6.667 1.828 5.535 QT
1.234 4.402 0 4.402 QT
-1.25 4.402 -1.852 5.535 QT
-2.453 6.667 -2.594 8.058 QT
-2.734 9.449 -2.734 11.105 QT
-2.734 12.339 -2.672 13.425 QT
-2.609 14.511 -2.352 15.66 QT
-2.094 16.808 -1.516 17.597 QT
-0.938 18.386 0 18.386 QT
cp
f
GR
GS
[1 0 0 1 154.21077 323.89999] CT
0.149 GC
N
-3.594 15.98 M
-3.359 16.621 -2.891 17.144 QT
-2.422 17.667 -1.789 17.964 QT
-1.156 18.261 -0.469 18.261 QT
1.125 18.261 1.727 17.027 QT
2.328 15.792 2.328 14.027 QT
2.328 13.277 2.305 12.753 QT
2.281 12.23 2.156 11.746 QT
1.953 10.964 1.445 10.386 QT
0.938 9.808 0.188 9.808 QT
-0.547 9.808 -1.078 10.035 QT
-1.609 10.261 -1.945 10.566 QT
-2.281 10.871 -2.539 11.199 QT
-2.797 11.527 -2.859 11.558 QT
-3.109 11.558 L
-3.156 11.558 -3.234 11.488 QT
-3.313 11.417 -3.313 11.339 QT
-3.313 3.996 L
-3.313 3.949 -3.242 3.886 QT
-3.172 3.824 -3.109 3.824 QT
-3.047 3.824 L
-1.563 4.542 0.109 4.542 QT
1.734 4.542 3.25 3.824 QT
3.313 3.824 L
3.391 3.824 3.461 3.878 QT
3.531 3.933 3.531 3.996 QT
3.531 4.199 L
3.531 4.308 3.484 4.308 QT
2.734 5.308 1.602 5.871 QT
0.469 6.433 -0.75 6.433 QT
-1.625 6.433 -2.563 6.183 QT
-2.563 10.339 L
-1.828 9.746 -1.25 9.496 QT
-0.672 9.246 0.219 9.246 QT
1.422 9.246 2.391 9.941 QT
3.359 10.636 3.875 11.761 QT
4.391 12.886 4.391 14.058 QT
4.391 15.371 3.734 16.503 QT
3.078 17.636 1.961 18.3 QT
0.844 18.964 -0.469 18.964 QT
-1.547 18.964 -2.453 18.402 QT
-3.359 17.839 -3.883 16.894 QT
-4.406 15.949 -4.406 14.886 QT
-4.406 14.402 -4.086 14.089 QT
-3.766 13.777 -3.281 13.777 QT
-2.797 13.777 -2.469 14.089 QT
-2.141 14.402 -2.141 14.886 QT
-2.141 15.371 -2.469 15.699 QT
-2.797 16.027 -3.281 16.027 QT
-3.344 16.027 -3.445 16.003 QT
-3.547 15.98 -3.594 15.98 QT
cp
f
GR
GS
[1 0 0 1 240.42152 323.89999] CT
0.149 GC
N
-8.953 18.48 M
-8.953 17.699 L
-6.203 17.699 -6.203 17.011 QT
-6.203 5.464 L
-7.344 6.011 -9.094 6.011 QT
-9.094 5.23 L
-6.391 5.23 -5.016 3.824 QT
-4.703 3.824 L
-4.625 3.824 -4.555 3.886 QT
-4.484 3.949 -4.484 4.027 QT
-4.484 17.011 L
-4.484 17.699 -1.734 17.699 QT
-1.734 18.48 L
-8.953 18.48 L
cp
f
GR
GS
[1 0 0 1 240.42152 323.89999] CT
0.149 GC
N
5.5 18.964 M
2.797 18.964 1.828 16.746 QT
0.859 14.527 0.859 11.464 QT
0.859 9.558 1.211 7.871 QT
1.563 6.183 2.594 5.003 QT
3.625 3.824 5.5 3.824 QT
6.953 3.824 7.875 4.535 QT
8.797 5.246 9.281 6.371 QT
9.766 7.496 9.945 8.777 QT
10.125 10.058 10.125 11.464 QT
10.125 13.355 9.773 15.003 QT
9.422 16.652 8.398 17.808 QT
7.375 18.964 5.5 18.964 QT
cp
5.5 18.386 M
6.719 18.386 7.32 17.136 QT
7.922 15.886 8.063 14.355 QT
8.203 12.824 8.203 11.105 QT
8.203 9.449 8.063 8.058 QT
7.922 6.667 7.328 5.535 QT
6.734 4.402 5.5 4.402 QT
4.25 4.402 3.648 5.535 QT
3.047 6.667 2.906 8.058 QT
2.766 9.449 2.766 11.105 QT
2.766 12.339 2.828 13.425 QT
2.891 14.511 3.148 15.66 QT
3.406 16.808 3.984 17.597 QT
4.563 18.386 5.5 18.386 QT
cp
f
GR
GS
[1 0 0 1 326.63229 323.89999] CT
0.149 GC
N
/f-317520835{-8.953 18.48 M
-8.953 17.699 L
-6.203 17.699 -6.203 17.011 QT
-6.203 5.464 L
-7.344 6.011 -9.094 6.011 QT
-9.094 5.23 L
-6.391 5.23 -5.016 3.824 QT
-4.703 3.824 L
-4.625 3.824 -4.555 3.886 QT
-4.484 3.949 -4.484 4.027 QT
-4.484 17.011 L
-4.484 17.699 -1.734 17.699 QT
-1.734 18.48 L
-8.953 18.48 L
cp}def
f-317520835
f
GR
GS
[1 0 0 1 326.63229 323.89999] CT
0.149 GC
N
/f1946694848{1.906 15.98 M
2.141 16.621 2.609 17.144 QT
3.078 17.667 3.711 17.964 QT
4.344 18.261 5.031 18.261 QT
6.625 18.261 7.227 17.027 QT
7.828 15.792 7.828 14.027 QT
7.828 13.277 7.805 12.753 QT
7.781 12.23 7.656 11.746 QT
7.453 10.964 6.945 10.386 QT
6.438 9.808 5.688 9.808 QT
4.953 9.808 4.422 10.035 QT
3.891 10.261 3.555 10.566 QT
3.219 10.871 2.961 11.199 QT
2.703 11.527 2.641 11.558 QT
2.391 11.558 L
2.344 11.558 2.266 11.488 QT
2.188 11.417 2.188 11.339 QT
2.188 3.996 L
2.188 3.949 2.258 3.886 QT
2.328 3.824 2.391 3.824 QT
2.453 3.824 L
3.938 4.542 5.609 4.542 QT
7.234 4.542 8.75 3.824 QT
8.813 3.824 L
8.891 3.824 8.961 3.878 QT
9.031 3.933 9.031 3.996 QT
9.031 4.199 L
9.031 4.308 8.984 4.308 QT
8.234 5.308 7.102 5.871 QT
5.969 6.433 4.75 6.433 QT
3.875 6.433 2.938 6.183 QT
2.938 10.339 L
3.672 9.746 4.25 9.496 QT
4.828 9.246 5.719 9.246 QT
6.922 9.246 7.891 9.941 QT
8.859 10.636 9.375 11.761 QT
9.891 12.886 9.891 14.058 QT
9.891 15.371 9.234 16.503 QT
8.578 17.636 7.461 18.3 QT
6.344 18.964 5.031 18.964 QT
3.953 18.964 3.047 18.402 QT
2.141 17.839 1.617 16.894 QT
1.094 15.949 1.094 14.886 QT
1.094 14.402 1.414 14.089 QT
1.734 13.777 2.219 13.777 QT
2.703 13.777 3.031 14.089 QT
3.359 14.402 3.359 14.886 QT
3.359 15.371 3.031 15.699 QT
2.703 16.027 2.219 16.027 QT
2.156 16.027 2.055 16.003 QT
1.953 15.98 1.906 15.98 QT
cp}def
f1946694848
f
GR
GS
[1 0 0 1 412.84305 323.89999] CT
0.149 GC
N
/f-363805074{-9.906 18.48 M
-9.906 17.886 L
-9.906 17.839 -9.859 17.777 QT
-6.438 13.996 L
-5.672 13.152 -5.188 12.581 QT
-4.703 12.011 -4.234 11.269 QT
-3.766 10.527 -3.492 9.761 QT
-3.219 8.996 -3.219 8.136 QT
-3.219 7.23 -3.547 6.41 QT
-3.875 5.589 -4.539 5.097 QT
-5.203 4.605 -6.141 4.605 QT
-7.094 4.605 -7.852 5.175 QT
-8.609 5.746 -8.922 6.667 QT
-8.844 6.636 -8.688 6.636 QT
-8.203 6.636 -7.852 6.972 QT
-7.5 7.308 -7.5 7.839 QT
-7.5 8.339 -7.852 8.691 QT
-8.203 9.042 -8.688 9.042 QT
-9.203 9.042 -9.555 8.683 QT
-9.906 8.324 -9.906 7.839 QT
-9.906 7.011 -9.594 6.285 QT
-9.281 5.558 -8.695 4.996 QT
-8.109 4.433 -7.375 4.128 QT
-6.641 3.824 -5.813 3.824 QT
-4.547 3.824 -3.469 4.355 QT
-2.391 4.886 -1.75 5.863 QT
-1.109 6.839 -1.109 8.136 QT
-1.109 9.089 -1.531 9.949 QT
-1.953 10.808 -2.609 11.511 QT
-3.266 12.214 -4.289 13.105 QT
-5.313 13.996 -5.625 14.308 QT
-8.125 16.699 L
-6 16.699 L
-4.453 16.699 -3.406 16.667 QT
-2.359 16.636 -2.281 16.589 QT
-2.031 16.308 -1.766 14.558 QT
-1.109 14.558 L
-1.734 18.48 L
-9.906 18.48 L
cp}def
f-363805074
f
GR
GS
[1 0 0 1 412.84305 323.89999] CT
0.149 GC
N
/f-463512050{5.5 18.964 M
2.797 18.964 1.828 16.746 QT
0.859 14.527 0.859 11.464 QT
0.859 9.558 1.211 7.871 QT
1.563 6.183 2.594 5.003 QT
3.625 3.824 5.5 3.824 QT
6.953 3.824 7.875 4.535 QT
8.797 5.246 9.281 6.371 QT
9.766 7.496 9.945 8.777 QT
10.125 10.058 10.125 11.464 QT
10.125 13.355 9.773 15.003 QT
9.422 16.652 8.398 17.808 QT
7.375 18.964 5.5 18.964 QT
cp
5.5 18.386 M
6.719 18.386 7.32 17.136 QT
7.922 15.886 8.063 14.355 QT
8.203 12.824 8.203 11.105 QT
8.203 9.449 8.063 8.058 QT
7.922 6.667 7.328 5.535 QT
6.734 4.402 5.5 4.402 QT
4.25 4.402 3.648 5.535 QT
3.047 6.667 2.906 8.058 QT
2.766 9.449 2.766 11.105 QT
2.766 12.339 2.828 13.425 QT
2.891 14.511 3.148 15.66 QT
3.406 16.808 3.984 17.597 QT
4.563 18.386 5.5 18.386 QT
cp}def
f-463512050
f
GR
GS
[1 0 0 1 260.25018 350.95999] CT
0.149 GC
N
/f-1250781163{-39.027 20.328 M
-39.027 19.484 L
-37.824 19.484 -36.691 19.351 QT
-35.558 19.219 -35.558 18.719 QT
-35.558 5.531 L
-35.558 5.015 -35.839 4.898 QT
-36.121 4.781 -36.777 4.781 QT
-37.777 4.781 L
-39.761 4.781 -40.589 5.64 QT
-41.027 6.078 -41.214 7.031 QT
-41.402 7.984 -41.527 9.422 QT
-42.214 9.422 L
-41.761 3.937 L
-27.105 3.937 L
-26.652 9.422 L
-27.355 9.422 L
-27.496 7.875 -27.66 6.969 QT
-27.824 6.062 -28.277 5.64 QT
-29.121 4.781 -31.089 4.781 QT
-32.089 4.781 L
-32.527 4.781 -32.769 4.812 QT
-33.011 4.844 -33.16 5.015 QT
-33.308 5.187 -33.308 5.531 QT
-33.308 18.719 L
-33.308 19.219 -32.175 19.351 QT
-31.043 19.484 -29.839 19.484 QT
-29.839 20.328 L
-39.027 20.328 L
cp}def
f-1250781163
f
GR
GS
[1 0 0 1 260.25018 350.95999] CT
0.149 GC
N
/f510810211{-24.877 20.328 M
-24.877 19.484 L
-24.049 19.484 -23.526 19.351 QT
-23.002 19.219 -23.002 18.719 QT
-23.002 12.172 L
-23.002 11.25 -23.354 11.039 QT
-23.705 10.828 -24.768 10.828 QT
-24.768 9.984 L
-21.315 9.719 L
-21.315 18.719 L
-21.315 19.219 -20.854 19.351 QT
-20.393 19.484 -19.627 19.484 QT
-19.627 20.328 L
-24.877 20.328 L
cp
-23.846 5.594 M
-23.846 5.062 -23.448 4.664 QT
-23.049 4.265 -22.534 4.265 QT
-22.205 4.265 -21.885 4.445 QT
-21.565 4.625 -21.393 4.937 QT
-21.221 5.25 -21.221 5.594 QT
-21.221 6.109 -21.62 6.508 QT
-22.018 6.906 -22.534 6.906 QT
-23.049 6.906 -23.448 6.508 QT
-23.846 6.109 -23.846 5.594 QT
cp}def
f510810211
f
GR
GS
[1 0 0 1 260.25018 350.95999] CT
0.149 GC
N
/f331276905{-18.171 20.328 M
-18.171 19.484 L
-17.358 19.484 -16.827 19.351 QT
-16.296 19.219 -16.296 18.719 QT
-16.296 12.172 L
-16.296 11.531 -16.491 11.242 QT
-16.686 10.953 -17.046 10.89 QT
-17.405 10.828 -18.171 10.828 QT
-18.171 9.984 L
-14.686 9.719 L
-14.686 12.062 L
-14.218 11.031 -13.272 10.375 QT
-12.327 9.719 -11.218 9.719 QT
-8.452 9.719 -7.968 11.969 QT
-7.483 10.969 -6.561 10.344 QT
-5.639 9.719 -4.53 9.719 QT
-3.436 9.719 -2.694 10.07 QT
-1.952 10.422 -1.577 11.14 QT
-1.202 11.859 -1.202 12.953 QT
-1.202 18.719 L
-1.202 19.219 -0.671 19.351 QT
-0.139 19.484 0.673 19.484 QT
0.673 20.328 L
-4.827 20.328 L
-4.827 19.484 L
-3.999 19.484 -3.475 19.351 QT
-2.952 19.219 -2.952 18.719 QT
-2.952 13.031 L
-2.952 11.812 -3.288 11.078 QT
-3.624 10.344 -4.686 10.344 QT
-6.061 10.344 -6.968 11.453 QT
-7.874 12.562 -7.874 13.984 QT
-7.874 18.719 L
-7.874 19.219 -7.343 19.351 QT
-6.811 19.484 -5.999 19.484 QT
-5.999 20.328 L
-11.499 20.328 L
-11.499 19.484 L
-10.671 19.484 -10.147 19.351 QT
-9.624 19.219 -9.624 18.719 QT
-9.624 13.031 L
-9.624 11.859 -9.96 11.101 QT
-10.296 10.344 -11.358 10.344 QT
-12.749 10.344 -13.647 11.453 QT
-14.546 12.562 -14.546 13.984 QT
-14.546 18.719 L
-14.546 19.219 -14.014 19.351 QT
-13.483 19.484 -12.671 19.484 QT
-12.671 20.328 L
-18.171 20.328 L
cp}def
f331276905
f
GR
GS
[1 0 0 1 260.25018 350.95999] CT
0.149 GC
N
/f1828176041{7.262 20.594 M
5.793 20.594 4.566 19.828 QT
3.34 19.062 2.644 17.781 QT
1.949 16.5 1.949 15.062 QT
1.949 13.656 2.59 12.39 QT
3.23 11.125 4.371 10.344 QT
5.512 9.562 6.918 9.562 QT
8.012 9.562 8.832 9.937 QT
9.652 10.312 10.176 10.969 QT
10.699 11.625 10.973 12.515 QT
11.246 13.406 11.246 14.469 QT
11.246 14.781 10.996 14.781 QT
4.043 14.781 L
4.043 15.047 L
4.043 17.031 4.848 18.461 QT
5.652 19.89 7.465 19.89 QT
8.199 19.89 8.832 19.562 QT
9.465 19.234 9.926 18.648 QT
10.387 18.062 10.543 17.39 QT
10.574 17.312 10.637 17.25 QT
10.699 17.187 10.777 17.187 QT
10.996 17.187 L
11.246 17.187 11.246 17.484 QT
10.902 18.844 9.777 19.719 QT
8.652 20.594 7.262 20.594 QT
cp
4.074 14.187 M
9.543 14.187 L
9.543 13.281 9.293 12.359 QT
9.043 11.437 8.457 10.82 QT
7.871 10.203 6.918 10.203 QT
5.559 10.203 4.816 11.476 QT
4.074 12.75 4.074 14.187 QT
cp}def
f1828176041
f
GR
GS
[1 0 0 1 260.25018 350.95999] CT
0.149 GC
N
/f2077678459{22.943 26.328 M
22.943 2.328 L
26.224 2.328 L
26.224 3.281 L
23.896 3.281 L
23.896 25.375 L
26.224 25.375 L
26.224 26.328 L
22.943 26.328 L
cp}def
f2077678459
f
GR
GS
[1 0 0 1 260.25018 350.95999] CT
0.149 GC
N
/f1525464002{27.619 20.406 M
27.619 16.484 L
27.619 16.297 27.837 16.297 QT
28.119 16.297 L
28.259 16.297 28.306 16.484 QT
28.978 19.969 31.54 19.969 QT
32.681 19.969 33.447 19.453 QT
34.212 18.937 34.212 17.859 QT
34.212 17.078 33.619 16.531 QT
33.025 15.984 32.197 15.797 QT
30.603 15.469 L
29.79 15.297 29.126 14.937 QT
28.462 14.578 28.04 13.969 QT
27.619 13.359 27.619 12.562 QT
27.619 11.515 28.173 10.844 QT
28.728 10.172 29.619 9.867 QT
30.509 9.562 31.54 9.562 QT
32.775 9.562 33.697 10.219 QT
34.384 9.625 L
34.384 9.562 34.494 9.562 QT
34.681 9.562 L
34.744 9.562 34.806 9.633 QT
34.869 9.703 34.869 9.765 QT
34.869 12.906 L
34.869 13.125 34.681 13.125 QT
34.384 13.125 L
34.165 13.125 34.165 12.906 QT
34.165 11.656 33.47 10.89 QT
32.775 10.125 31.525 10.125 QT
30.447 10.125 29.658 10.523 QT
28.869 10.922 28.869 11.906 QT
28.869 12.562 29.431 12.992 QT
29.994 13.422 30.759 13.609 QT
32.384 13.922 L
33.212 14.109 33.923 14.554 QT
34.634 15 35.048 15.679 QT
35.462 16.359 35.462 17.203 QT
35.462 18.078 35.165 18.719 QT
34.869 19.359 34.33 19.781 QT
33.79 20.203 33.064 20.398 QT
32.337 20.594 31.54 20.594 QT
30.04 20.594 28.978 19.594 QT
28.103 20.547 L
28.103 20.594 27.978 20.594 QT
27.837 20.594 L
27.619 20.594 27.619 20.406 QT
cp}def
f1525464002
f
GR
GS
[1 0 0 1 260.25018 350.95999] CT
0.149 GC
N
/f-1606863090{36.899 26.328 M
36.899 25.375 L
39.227 25.375 L
39.227 3.281 L
36.899 3.281 L
36.899 2.328 L
40.195 2.328 L
40.195 26.328 L
36.899 26.328 L
cp}def
f-1606863090
f
GR
GS
0.149 GC
2 setlinecap
1 LJ
0.5 LW
N
68 317.5 M
68 28.5 L
S
GR
GS
0.149 GC
2 setlinecap
1 LJ
0.5 LW
N
68 317.5 M
71.845 317.5 L
S
GR
GS
0.149 GC
2 setlinecap
1 LJ
0.5 LW
N
68 245.25 M
71.845 245.25 L
S
GR
GS
0.149 GC
2 setlinecap
1 LJ
0.5 LW
N
68 173 M
71.845 173 L
S
GR
GS
0.149 GC
2 setlinecap
1 LJ
0.5 LW
N
68 100.75 M
71.845 100.75 L
S
GR
GS
0.149 GC
2 setlinecap
1 LJ
0.5 LW
N
68 28.5 M
71.845 28.5 L
S
GR
GS
[1 0 0 1 61.6 317.5] CT
0.149 GC
N
/f1220938350{-29.083 1.202 M
-29.083 -0.158 L
-23.271 -0.158 L
-23.271 1.202 L
-29.083 1.202 L
cp}def
f1220938350
f
GR
GS
[1 0 0 1 61.6 317.5] CT
0.149 GC
N
/f1568626602{-20.906 5.28 M
-20.906 4.686 L
-20.906 4.639 -20.859 4.577 QT
-17.438 0.796 L
-16.672 -0.048 -16.188 -0.619 QT
-15.703 -1.189 -15.234 -1.931 QT
-14.766 -2.673 -14.492 -3.439 QT
-14.219 -4.204 -14.219 -5.064 QT
-14.219 -5.97 -14.547 -6.79 QT
-14.875 -7.611 -15.539 -8.103 QT
-16.203 -8.595 -17.141 -8.595 QT
-18.094 -8.595 -18.852 -8.025 QT
-19.609 -7.454 -19.922 -6.533 QT
-19.844 -6.564 -19.688 -6.564 QT
-19.203 -6.564 -18.852 -6.228 QT
-18.5 -5.892 -18.5 -5.361 QT
-18.5 -4.861 -18.852 -4.509 QT
-19.203 -4.158 -19.688 -4.158 QT
-20.203 -4.158 -20.555 -4.517 QT
-20.906 -4.876 -20.906 -5.361 QT
-20.906 -6.189 -20.594 -6.915 QT
-20.281 -7.642 -19.695 -8.204 QT
-19.109 -8.767 -18.375 -9.072 QT
-17.641 -9.376 -16.813 -9.376 QT
-15.547 -9.376 -14.469 -8.845 QT
-13.391 -8.314 -12.75 -7.337 QT
-12.109 -6.361 -12.109 -5.064 QT
-12.109 -4.111 -12.531 -3.251 QT
-12.953 -2.392 -13.609 -1.689 QT
-14.266 -0.986 -15.289 -0.095 QT
-16.313 0.796 -16.625 1.108 QT
-19.125 3.499 L
-17 3.499 L
-15.453 3.499 -14.406 3.467 QT
-13.359 3.436 -13.281 3.389 QT
-13.031 3.108 -12.766 1.358 QT
-12.109 1.358 L
-12.734 5.28 L
-20.906 5.28 L
cp}def
f1568626602
f
GR
GS
[1 0 0 1 61.6 317.5] CT
0.149 GC
N
/f-1898792534{-5.5 5.764 M
-8.203 5.764 -9.172 3.546 QT
-10.141 1.327 -10.141 -1.736 QT
-10.141 -3.642 -9.789 -5.329 QT
-9.438 -7.017 -8.406 -8.197 QT
-7.375 -9.376 -5.5 -9.376 QT
-4.047 -9.376 -3.125 -8.665 QT
-2.203 -7.954 -1.719 -6.829 QT
-1.234 -5.704 -1.055 -4.423 QT
-0.875 -3.142 -0.875 -1.736 QT
-0.875 0.155 -1.227 1.803 QT
-1.578 3.452 -2.602 4.608 QT
-3.625 5.764 -5.5 5.764 QT
cp
-5.5 5.186 M
-4.281 5.186 -3.68 3.936 QT
-3.078 2.686 -2.938 1.155 QT
-2.797 -0.376 -2.797 -2.095 QT
-2.797 -3.751 -2.938 -5.142 QT
-3.078 -6.533 -3.672 -7.665 QT
-4.266 -8.798 -5.5 -8.798 QT
-6.75 -8.798 -7.352 -7.665 QT
-7.953 -6.533 -8.094 -5.142 QT
-8.234 -3.751 -8.234 -2.095 QT
-8.234 -0.861 -8.172 0.225 QT
-8.109 1.311 -7.852 2.46 QT
-7.594 3.608 -7.016 4.397 QT
-6.438 5.186 -5.5 5.186 QT
cp}def
f-1898792534
f
GR
GS
[1 0 0 1 61.6 245.25] CT
0.149 GC
N
f1220938350
f
GR
GS
[1 0 0 1 61.6 245.25] CT
0.149 GC
N
/f-2134977297{-19.953 5.28 M
-19.953 4.499 L
-17.203 4.499 -17.203 3.811 QT
-17.203 -7.736 L
-18.344 -7.189 -20.094 -7.189 QT
-20.094 -7.97 L
-17.391 -7.97 -16.016 -9.376 QT
-15.703 -9.376 L
-15.625 -9.376 -15.555 -9.314 QT
-15.484 -9.251 -15.484 -9.173 QT
-15.484 3.811 L
-15.484 4.499 -12.734 4.499 QT
-12.734 5.28 L
-19.953 5.28 L
cp}def
f-2134977297
f
GR
GS
[1 0 0 1 61.6 245.25] CT
0.149 GC
N
f-1898792534
f
GR
GS
[1 0 0 1 61.6 173] CT
0.149 GC
N
f-1898792534
f
GR
GS
[1 0 0 1 61.6 100.75] CT
0.149 GC
N
f-2134977297
f
GR
GS
[1 0 0 1 61.6 100.75] CT
0.149 GC
N
f-1898792534
f
GR
GS
[1 0 0 1 61.6 28.5] CT
0.149 GC
N
f1568626602
f
GR
GS
[1 0 0 1 61.6 28.5] CT
0.149 GC
N
f-1898792534
f
GR
GS
[0 -1 1 0 29.04 172.99986] CT
0.149 GC
N
/f557083398{-29.929 -8.353 M
-30.773 -8.353 -31.483 -8.665 QT
-32.194 -8.978 -32.726 -9.564 QT
-33.257 -10.15 -33.515 -10.868 QT
-33.773 -11.587 -33.773 -12.431 QT
-33.773 -13.931 -33.069 -15.345 QT
-32.366 -16.759 -31.14 -17.79 QT
-29.913 -18.821 -28.476 -19.181 QT
-29.179 -20.478 -29.546 -21.423 QT
-29.913 -22.368 -29.913 -23.353 QT
-29.913 -24.071 -29.569 -24.634 QT
-29.226 -25.196 -28.632 -25.509 QT
-28.038 -25.821 -27.304 -25.821 QT
-26.585 -25.821 -24.46 -25.337 QT
-23.913 -25.212 -23.913 -24.696 QT
-23.913 -24.306 -24.202 -23.978 QT
-24.491 -23.65 -24.898 -23.65 QT
-25.194 -23.65 -25.429 -23.782 QT
-25.663 -23.915 -26.163 -24.251 QT
-26.663 -24.587 -27.062 -24.775 QT
-27.46 -24.962 -27.898 -24.962 QT
-28.382 -24.962 -28.78 -24.657 QT
-29.179 -24.353 -29.179 -23.884 QT
-29.179 -23.118 -28.499 -22.126 QT
-27.819 -21.134 -26.585 -19.587 QT
-25.163 -17.79 -25.163 -15.603 QT
-25.163 -14.525 -25.476 -13.275 QT
-25.788 -12.025 -26.382 -10.907 QT
-26.976 -9.79 -27.89 -9.071 QT
-28.804 -8.353 -29.929 -8.353 QT
cp
-29.882 -9.009 M
-28.944 -9.009 -28.273 -9.978 QT
-27.601 -10.946 -27.257 -12.29 QT
-26.913 -13.634 -26.913 -14.556 QT
-26.913 -16.337 -28.163 -18.587 QT
-29.429 -18.228 -30.343 -17.103 QT
-31.257 -15.978 -31.726 -14.517 QT
-32.194 -13.056 -32.194 -11.743 QT
-32.194 -10.587 -31.601 -9.798 QT
-31.007 -9.009 -29.882 -9.009 QT
cp}def
f557083398
f
GR
GS
[0 -1 1 0 29.04 172.99986] CT
0.149 GC
N
/f1668736438{-12.159 -2.712 M
-12.159 -26.712 L
-8.878 -26.712 L
-8.878 -25.759 L
-11.206 -25.759 L
-11.206 -3.665 L
-8.878 -3.665 L
-8.878 -2.712 L
-12.159 -2.712 L
cp}def
f1668736438
f
GR
GS
[0 -1 1 0 29.04 172.99986] CT
0.149 GC
N
/f1302390714{-2.422 -8.446 M
-3.843 -8.446 -5.015 -9.212 QT
-6.187 -9.978 -6.836 -11.236 QT
-7.484 -12.493 -7.484 -13.9 QT
-7.484 -15.353 -6.773 -16.595 QT
-6.062 -17.837 -4.843 -18.579 QT
-3.625 -19.321 -2.156 -19.321 QT
-1.281 -19.321 -0.5 -18.954 QT
0.282 -18.587 0.86 -17.931 QT
0.86 -22.915 L
0.86 -23.556 0.664 -23.845 QT
0.469 -24.134 0.117 -24.196 QT
-0.234 -24.259 -1 -24.259 QT
-1 -25.103 L
2.547 -25.368 L
2.547 -10.9 L
2.547 -10.259 2.742 -9.97 QT
2.938 -9.681 3.297 -9.618 QT
3.657 -9.556 4.407 -9.556 QT
4.407 -8.712 L
0.797 -8.446 L
0.797 -9.962 L
0.172 -9.243 -0.687 -8.845 QT
-1.547 -8.446 -2.422 -8.446 QT
cp
-4.875 -10.806 M
-4.453 -10.009 -3.773 -9.54 QT
-3.093 -9.071 -2.281 -9.071 QT
-1.281 -9.071 -0.453 -9.65 QT
0.375 -10.228 0.797 -11.134 QT
0.797 -16.9 L
0.516 -17.415 0.086 -17.837 QT
-0.343 -18.259 -0.875 -18.478 QT
-1.406 -18.696 -2.015 -18.696 QT
-3.265 -18.696 -4.023 -17.986 QT
-4.781 -17.275 -5.086 -16.173 QT
-5.39 -15.071 -5.39 -13.868 QT
-5.39 -12.915 -5.297 -12.196 QT
-5.203 -11.478 -4.875 -10.806 QT
cp}def
f1302390714
f
GR
GS
[0 -1 1 0 29.04 172.99986] CT
0.149 GC
N
/f462692534{11.148 -8.446 M
9.679 -8.446 8.453 -9.212 QT
7.226 -9.978 6.531 -11.259 QT
5.835 -12.54 5.835 -13.978 QT
5.835 -15.384 6.476 -16.65 QT
7.117 -17.915 8.257 -18.696 QT
9.398 -19.478 10.804 -19.478 QT
11.898 -19.478 12.718 -19.103 QT
13.539 -18.728 14.062 -18.071 QT
14.585 -17.415 14.859 -16.525 QT
15.132 -15.634 15.132 -14.571 QT
15.132 -14.259 14.882 -14.259 QT
7.929 -14.259 L
7.929 -13.993 L
7.929 -12.009 8.734 -10.579 QT
9.539 -9.15 11.351 -9.15 QT
12.085 -9.15 12.718 -9.478 QT
13.351 -9.806 13.812 -10.392 QT
14.273 -10.978 14.429 -11.65 QT
14.46 -11.728 14.523 -11.79 QT
14.585 -11.853 14.664 -11.853 QT
14.882 -11.853 L
15.132 -11.853 15.132 -11.556 QT
14.789 -10.196 13.664 -9.321 QT
12.539 -8.446 11.148 -8.446 QT
cp
7.96 -14.853 M
13.429 -14.853 L
13.429 -15.759 13.179 -16.681 QT
12.929 -17.603 12.343 -18.22 QT
11.757 -18.837 10.804 -18.837 QT
9.445 -18.837 8.703 -17.564 QT
7.96 -16.29 7.96 -14.853 QT
cp}def
f462692534
f
GR
GS
[0 -1 1 0 29.04 172.99986] CT
0.149 GC
N
/f-1602547132{16.591 -6.837 M
16.591 -7.696 17.208 -8.337 QT
17.825 -8.978 18.685 -9.243 QT
18.2 -9.603 17.95 -10.157 QT
17.7 -10.712 17.7 -11.321 QT
17.7 -12.446 18.419 -13.321 QT
17.31 -14.4 17.31 -15.79 QT
17.31 -16.54 17.638 -17.196 QT
17.966 -17.853 18.536 -18.337 QT
19.107 -18.821 19.81 -19.071 QT
20.513 -19.321 21.247 -19.321 QT
22.685 -19.321 23.825 -18.493 QT
24.31 -19.009 24.982 -19.298 QT
25.653 -19.587 26.388 -19.587 QT
26.903 -19.587 27.232 -19.22 QT
27.56 -18.853 27.56 -18.337 QT
27.56 -18.04 27.333 -17.821 QT
27.107 -17.603 26.825 -17.603 QT
26.513 -17.603 26.294 -17.821 QT
26.075 -18.04 26.075 -18.337 QT
26.075 -18.775 26.357 -18.962 QT
25.122 -18.962 24.232 -18.103 QT
24.669 -17.665 24.927 -17.04 QT
25.185 -16.415 25.185 -15.79 QT
25.185 -14.775 24.622 -13.962 QT
24.06 -13.15 23.146 -12.696 QT
22.232 -12.243 21.247 -12.243 QT
19.935 -12.243 18.857 -12.962 QT
18.513 -12.493 18.513 -11.9 QT
18.513 -11.275 18.927 -10.798 QT
19.341 -10.321 19.982 -10.321 QT
21.95 -10.321 L
23.372 -10.321 24.521 -10.064 QT
25.669 -9.806 26.45 -9.032 QT
27.232 -8.259 27.232 -6.837 QT
27.232 -5.775 26.341 -5.079 QT
25.45 -4.384 24.216 -4.071 QT
22.982 -3.759 21.919 -3.759 QT
20.857 -3.759 19.614 -4.071 QT
18.372 -4.384 17.482 -5.079 QT
16.591 -5.775 16.591 -6.837 QT
cp
17.935 -6.837 M
17.935 -6.025 18.591 -5.478 QT
19.247 -4.931 20.177 -4.673 QT
21.107 -4.415 21.919 -4.415 QT
22.732 -4.415 23.653 -4.673 QT
24.575 -4.931 25.232 -5.478 QT
25.888 -6.025 25.888 -6.837 QT
25.888 -8.087 24.739 -8.462 QT
23.591 -8.837 21.95 -8.837 QT
19.982 -8.837 L
19.419 -8.837 18.958 -8.571 QT
18.497 -8.306 18.216 -7.829 QT
17.935 -7.353 17.935 -6.837 QT
cp
21.247 -12.884 M
23.294 -12.884 23.294 -15.79 QT
23.294 -17.04 22.857 -17.861 QT
22.419 -18.681 21.247 -18.681 QT
20.075 -18.681 19.646 -17.861 QT
19.216 -17.04 19.216 -15.79 QT
19.216 -14.993 19.38 -14.353 QT
19.544 -13.712 19.989 -13.298 QT
20.435 -12.884 21.247 -12.884 QT
cp}def
f-1602547132
f
GR
GS
[0 -1 1 0 29.04 172.99986] CT
0.149 GC
N
/f-1811528829{28.55 -2.712 M
28.55 -3.665 L
30.878 -3.665 L
30.878 -25.759 L
28.55 -25.759 L
28.55 -26.712 L
31.847 -26.712 L
31.847 -2.712 L
28.55 -2.712 L
cp}def
f-1811528829
f
GR
GS
0.502 0 0.502 RC
1 LJ
3 LW
N
68 172.744 M
69.724 172.07 L
71.448 170.793 L
73.173 168.706 L
74.897 165.758 L
76.621 162.21 L
78.345 158.627 L
80.07 155.618 L
81.794 153.327 L
83.518 151.688 L
85.19 150.864 L
85.242 150.746 L
86.692 150.504 L
86.966 150.556 L
88.251 150.597 L
88.691 150.864 L
89.85 150.994 L
90.415 151.442 L
91.478 151.551 L
92.139 152.118 L
93.127 152.155 L
93.863 152.783 L
94.792 152.734 L
95.587 153.384 L
96.469 153.257 L
97.312 153.934 L
98.155 154.051 L
98.99 155.008 L
99.036 155.332 L
99.835 158.707 L
100.639 161.993 L
100.76 162.14 L
101.558 159.639 L
102.373 158.52 L
102.484 158.751 L
103.286 161.844 L
104.08 164.981 L
104.209 165.534 L
104.993 166.563 L
105.772 168.07 L
105.933 168.477 L
106.703 169.195 L
107.468 170.689 L
107.657 171.298 L
108.415 172.473 L
109.169 174.139 L
109.381 174.821 L
110.129 176.048 L
110.874 177.79 L
111.105 178.579 L
111.845 179.883 L
112.582 181.784 L
112.83 183.313 L
113.562 189.99 L
114.292 195.722 L
114.554 198.006 L
115.281 202.071 L
116.007 205.145 L
116.278 206.382 L
117.001 208.647 L
117.724 209.685 L
118.002 209.802 L
118.724 209.007 L
119.447 207.54 L
119.726 207.253 L
120.319 209.522 L
120.92 210.707 L
121.451 211.06 L
122.138 210.651 L
122.847 208.945 L
123.175 207.498 L
123.912 204.009 L
124.658 199.487 L
124.899 197.435 L
125.643 192.46 L
126.377 186.645 L
126.623 183.488 L
127.332 173.769 L
128.022 164.796 L
128.348 159.388 L
128.999 149.194 L
129.635 139.594 L
130.072 132.298 L
130.699 123.483 L
131.331 115.776 L
131.796 109.322 L
132.485 100.519 L
133.228 91.29 L
133.52 86.361 L
134.319 77.214 L
135.096 68.721 L
135.244 64.688 L
136.017 56.79 L
136.774 50.009 L
136.969 48.749 L
137.729 47.108 L
138.485 47.377 L
138.693 46.36 L
139.457 45.154 L
140.227 44.124 L
140.417 43.305 L
141.277 42.693 L
142.141 41.493 L
143.102 41.273 L
143.865 40.503 L
144.849 40.553 L
145.59 40.067 L
146.579 40.602 L
147.314 40.385 L
148.303 41.129 L
149.038 41.217 L
150.017 42.312 L
150.762 42.73 L
151.731 43.412 L
152.487 43.933 L
153.439 45.323 L
154.211 46.489 L
155.145 48.734 L
155.935 50.777 L
156.848 53.831 L
157.659 56.876 L
158.546 60.849 L
159.383 65.096 L
160.246 70.251 L
161.107 75.791 L
161.108 75.597 L
161.948 78.542 L
162.789 82.447 L
162.832 82.799 L
163.655 88.562 L
164.482 94.555 L
164.556 95.338 L
165.37 101.704 L
166.195 108.055 L
166.28 109.042 L
167.097 115.833 L
167.932 122.349 L
168.004 123.627 L
168.828 133.815 L
169.639 142.314 L
169.729 143.68 L
170.528 150.866 L
171.319 156.745 L
171.453 158.017 L
172.235 163.186 L
173.012 167.274 L
173.177 168.31 L
173.947 171.911 L
174.713 174.612 L
174.901 175.364 L
175.661 177.722 L
176.416 179.331 L
176.626 179.757 L
177.375 180.76 L
178.121 181.25 L
178.35 181.376 L
179.09 181.839 L
179.828 181.87 L
180.074 181.831 L
180.806 181.925 L
181.536 181.615 L
181.798 181.419 L
182.524 181.177 L
183.247 180.578 L
183.522 180.28 L
184.242 180.128 L
184.96 179.554 L
185.247 179.128 L
185.961 178.13 L
186.674 176.92 L
186.971 176.248 L
187.681 175.023 L
188.39 173.673 L
188.695 173.038 L
189.401 172.665 L
190.107 171.936 L
190.419 171.292 L
191.122 169.399 L
191.824 167.547 L
192.143 166.615 L
192.843 165.589 L
193.543 164.462 L
193.868 163.607 L
194.565 161.155 L
195.262 159.207 L
195.592 158.356 L
196.287 157.554 L
196.983 157.017 L
197.316 156.902 L
198.01 157.627 L
198.679 158.245 L
199.04 158.489 L
199.685 158.345 L
200.332 158.454 L
200.765 158.619 L
201.418 158.731 L
202.077 159.115 L
202.489 159.46 L
203.165 159.804 L
203.847 160.484 L
204.213 161.017 L
204.9 161.794 L
205.592 162.887 L
205.937 163.661 L
206.631 165.056 L
207.326 166.697 L
207.661 167.743 L
208.358 169.543 L
209.054 171.579 L
209.386 172.878 L
210.08 175.181 L
210.774 177.727 L
211.11 179.265 L
211.801 181.108 L
212.489 183.439 L
212.834 185.155 L
213.518 188.004 L
214.199 191.226 L
214.558 193.755 L
215.232 198.982 L
215.902 203.935 L
216.283 207.523 L
216.947 214.074 L
217.61 219.644 L
218.007 223.708 L
218.665 231.811 L
219.321 237.841 L
219.731 241.86 L
220.387 249.637 L
221.044 254.74 L
221.455 257.68 L
222.114 262.618 L
222.776 265.413 L
223.179 266.879 L
223.846 269.034 L
224.517 269.895 L
224.904 270.284 L
225.578 270.133 L
226.255 269.338 L
226.628 268.982 L
227.307 268.41 L
227.989 267.22 L
228.352 266.47 L
229.031 264.168 L
229.712 261.611 L
230.076 260.14 L
230.751 256.842 L
231.426 253.593 L
231.8 251.741 L
232.483 247.983 L
233.183 244.505 L
233.525 242.185 L
234.22 233.113 L
234.913 227.018 L
235.249 223.307 L
235.938 210.029 L
236.623 204.704 L
236.973 204.047 L
237.653 196.479 L
238.328 200.046 L
238.697 204.03 L
239.368 200.248 L
240.034 207.158 L
240.422 214.121 L
241.081 223.409 L
241.739 232.341 L
242.146 238.435 L
242.802 245.881 L
243.461 251.332 L
243.87 254.122 L
244.528 256.826 L
245.19 258.276 L
245.594 259.052 L
246.257 260.712 L
246.925 261.257 L
247.318 261.286 L
247.985 260.31 L
248.656 258.885 L
249.043 257.774 L
249.713 254.275 L
250.386 251.172 L
250.767 248.568 L
251.439 239.046 L
252.113 234.106 L
252.491 232.288 L
253.164 226.999 L
253.836 226.074 L
254.215 225.628 L
254.885 219.236 L
255.555 218.455 L
255.939 218.755 L
256.605 216.258 L
257.27 216.551 L
257.664 216.73 L
258.325 214.713 L
258.986 213.669 L
259.388 212.731 L
260.04 210.277 L
260.69 208.212 L
261.112 206.514 L
261.769 203.306 L
262.436 200.323 L
262.836 198.182 L
263.508 194.106 L
264.19 190.471 L
264.561 188.229 L
265.247 183.89 L
265.943 180.16 L
266.285 178.177 L
266.987 174.192 L
267.697 170.912 L
268.009 169.383 L
268.723 166.233 L
269.44 163.862 L
269.733 162.829 L
270.451 160.242 L
271.17 158.469 L
271.457 157.747 L
272.173 155.923 L
272.887 154.853 L
273.182 154.514 L
273.888 154.072 L
274.589 154.114 L
274.906 154.327 L
275.597 155.407 L
276.282 156.585 L
276.63 157.151 L
277.302 157.303 L
277.967 157.714 L
278.354 157.994 L
279.009 158.011 L
279.659 158.304 L
280.078 158.733 L
280.723 160.144 L
281.369 161.517 L
281.803 162.5 L
282.502 163.836 L
283.2 165.107 L
283.527 165.754 L
284.223 166.82 L
284.918 167.828 L
285.251 168.372 L
285.944 169.383 L
286.638 170.317 L
286.975 170.785 L
287.667 171.364 L
288.359 171.912 L
288.7 172.19 L
289.39 172.494 L
290.081 172.797 L
290.424 172.897 L
291.114 172.583 L
291.805 172.366 L
292.148 172.343 L
292.838 172.841 L
293.528 173.089 L
293.872 172.979 L
294.562 172.036 L
295.252 171.077 L
295.596 170.393 L
296.286 168.882 L
296.977 167.239 L
297.321 165.862 L
298.011 162.152 L
298.701 159.041 L
299.045 156.571 L
299.736 148.689 L
300.426 144.262 L
300.769 142.018 L
301.459 134.71 L
302.148 131.39 L
302.493 129.239 L
303.183 120.267 L
303.871 115.291 L
304.217 112.301 L
304.907 105.387 L
305.598 100.451 L
305.942 95.113 L
306.636 86.79 L
307.337 78.732 L
307.666 73.17 L
308.377 65.539 L
309.104 58.069 L
309.39 54.968 L
310.226 49.896 L
311.054 48.236 L
311.114 47.65 L
311.921 47.158 L
312.726 45.962 L
312.839 45.213 L
313.627 44.504 L
314.418 43.81 L
314.563 43.183 L
315.343 43.109 L
316.127 42.818 L
316.287 42.227 L
317.065 42.105 L
317.852 42.056 L
318.011 41.557 L
318.79 41.763 L
319.579 42.069 L
319.735 41.634 L
320.523 41.873 L
321.324 42.386 L
321.46 41.966 L
322.26 42.095 L
323.076 42.733 L
323.184 42.496 L
324.001 44.37 L
324.834 46.492 L
324.908 46.398 L
325.737 48.943 L
326.581 52.132 L
326.632 52.177 L
327.473 56.124 L
328.33 60.884 L
328.357 61.202 L
329.205 68.454 L
330.07 75.979 L
330.081 76.396 L
330.942 85.021 L
331.805 93.99 L
332.68 103.881 L
333.529 113.237 L
334.402 122.611 L
335.253 130.642 L
336.11 133.349 L
336.95 136.319 L
336.978 136.136 L
337.817 135.261 L
338.643 135.733 L
338.702 136.564 L
339.49 145.504 L
340.271 152.91 L
340.426 154.5 L
341.2 159.044 L
341.968 162.775 L
342.15 163.744 L
342.911 166.499 L
343.669 168.706 L
343.874 169.379 L
344.626 171.364 L
345.373 172.884 L
345.599 173.375 L
346.341 174.701 L
347.081 175.648 L
347.323 175.939 L
348.058 176.525 L
348.79 176.866 L
349.047 176.972 L
349.775 177.259 L
350.501 177.358 L
350.771 177.368 L
351.493 177.405 L
352.213 177.308 L
352.496 177.222 L
353.212 176.93 L
353.926 176.59 L
354.22 176.404 L
354.931 175.933 L
355.641 175.477 L
355.944 175.255 L
356.651 174.814 L
357.358 174.405 L
357.668 174.174 L
358.372 173.531 L
359.075 172.991 L
359.392 172.727 L
360.093 172.18 L
360.793 171.744 L
361.117 171.522 L
361.815 171.025 L
362.513 170.651 L
362.841 170.455 L
363.537 169.979 L
364.232 169.637 L
364.565 169.455 L
365.259 168.992 L
365.953 168.676 L
366.289 168.511 L
366.981 168.108 L
367.673 167.843 L
368.013 167.677 L
368.704 167.13 L
369.395 166.754 L
369.738 166.543 L
370.427 166.027 L
371.116 165.68 L
371.462 165.434 L
372.15 164.568 L
372.838 163.961 L
373.186 163.628 L
373.873 162.901 L
374.56 162.39 L
374.91 162.042 L
375.596 161.008 L
376.282 160.241 L
376.635 159.829 L
377.319 159.277 L
378.004 158.865 L
378.359 158.421 L
379.043 156.601 L
379.727 155.218 L
380.083 154.489 L
380.766 153.579 L
381.45 152.89 L
381.807 152.227 L
382.491 149.766 L
383.175 147.956 L
383.531 147.096 L
384.216 146.465 L
384.902 146.01 L
385.256 145.346 L
385.93 142.368 L
386.592 140.324 L
386.98 139.184 L
387.637 137.621 L
388.293 136.669 L
388.704 136.016 L
389.356 134.622 L
390.007 133.832 L
390.428 133.409 L
391.078 133.164 L
391.728 133.2 L
392.152 133.312 L
392.801 134.366 L
393.45 135.182 L
393.877 135.611 L
394.523 136.982 L
395.171 137.68 L
395.601 137.767 L
396.246 138.136 L
396.893 137.589 L
397.325 136.605 L
397.971 134.791 L
398.618 133.23 L
399.049 132.138 L
399.696 130.897 L
400.344 130.004 L
400.774 129.328 L
401.421 128.025 L
402.071 127.272 L
402.498 126.855 L
403.147 126.436 L
403.799 126.408 L
404.222 126.399 L
404.873 126.343 L
405.526 126.588 L
405.946 126.643 L
406.599 126.162 L
407.254 126.111 L
407.67 126.094 L
408.324 126.042 L
408.98 126.312 L
409.395 126.467 L
410.05 126.674 L
410.707 127.095 L
411.119 127.305 L
411.775 127.586 L
412.433 128.007 L
412.843 128.197 L
413.5 128.517 L
414.158 128.893 L
414.567 128.975 L
415.224 128.873 L
415.883 128.916 L
416.292 128.868 L
416.949 128.903 L
417.608 129.016 L
418.016 129.016 L
418.673 129.232 L
419.332 129.43 L
419.74 129.447 L
420.398 129.595 L
421.057 129.694 L
421.464 129.641 L
422.122 129.632 L
422.781 129.632 L
423.188 129.924 L
423.846 132.438 L
424.505 133.652 L
424.913 134.001 L
425.57 134.51 L
426.229 134.178 L
426.637 133.801 L
427.294 133.874 L
427.952 133.431 L
428.361 133.02 L
429.018 132.503 L
429.676 131.906 L
430.085 131.399 L
430.742 130.205 L
431.401 129.256 L
431.809 128.677 L
432.467 128.038 L
433.127 127.521 L
433.534 127.094 L
434.192 126.536 L
434.853 125.964 L
435.258 125.446 L
435.917 125.209 L
436.578 124.881 L
436.982 124.405 L
437.642 123.672 L
438.303 122.837 L
438.706 122.097 L
439.367 121.797 L
440.03 121.305 L
440.431 120.54 L
441.092 118.644 L
441.756 116.831 L
442.155 114.969 L
442.818 109.884 L
443.483 106.788 L
443.879 105.509 L
444.544 104.578 L
445.212 105.007 L
445.603 105.672 L
446.271 106.371 L
446.94 108.359 L
447.327 110.111 L
447.888 112.354 L
448.475 115.513 L
449.052 119.892 L
449.675 126.481 L
450.331 133.371 L
450.776 139.353 L
451.477 152.21 L
452.198 163.726 L
452.5 168.868 L
S
GR
GS
0.937 0.42 0.267 RC
1 LJ
3 LW
N
68 172.786 M
68.172 172.696 L
68.345 172.607 L
68.517 172.52 L
68.69 172.433 L
68.862 172.348 L
69.035 172.263 L
69.207 172.178 L
69.379 172.094 L
69.552 172.009 L
69.724 171.925 L
69.897 171.84 L
70.069 171.755 L
70.241 171.67 L
70.414 171.584 L
70.586 171.497 L
70.759 171.41 L
70.931 171.321 L
71.104 171.232 L
71.276 171.141 L
71.448 171.049 L
71.621 170.956 L
71.793 170.861 L
71.966 170.765 L
72.138 170.668 L
72.311 170.569 L
72.483 170.469 L
72.655 170.367 L
72.828 170.264 L
73 170.159 L
73.173 170.052 L
73.345 169.944 L
73.517 169.835 L
73.69 169.724 L
73.862 169.611 L
74.035 169.497 L
74.207 169.382 L
74.38 169.265 L
74.552 169.147 L
74.724 169.028 L
74.897 168.908 L
75.069 168.787 L
75.242 168.665 L
75.414 168.541 L
75.587 168.417 L
75.759 168.293 L
75.931 168.167 L
76.104 168.041 L
76.276 167.915 L
76.449 167.788 L
76.621 167.661 L
76.793 167.534 L
76.966 167.407 L
77.138 167.28 L
77.311 167.153 L
77.483 167.027 L
77.656 166.901 L
77.828 166.775 L
78 166.65 L
78.173 166.526 L
78.345 166.403 L
78.518 166.281 L
78.69 166.16 L
78.863 166.04 L
79.035 165.921 L
79.207 165.804 L
79.38 165.688 L
79.552 165.574 L
79.725 165.462 L
79.897 165.352 L
80.07 165.243 L
80.242 165.137 L
80.414 165.033 L
80.587 164.93 L
80.759 164.831 L
80.932 164.733 L
81.104 164.638 L
81.276 164.546 L
81.449 164.456 L
81.621 164.368 L
81.794 164.284 L
81.966 164.202 L
82.139 164.123 L
82.311 164.047 L
82.483 163.974 L
82.656 163.904 L
82.828 163.836 L
83.001 163.772 L
83.173 163.711 L
83.346 163.653 L
83.518 163.598 L
83.69 163.546 L
83.863 163.497 L
84.035 163.452 L
84.208 163.409 L
84.38 163.37 L
84.552 163.333 L
84.725 163.3 L
84.897 163.27 L
85.07 163.243 L
85.242 163.219 L
85.415 163.198 L
85.587 163.18 L
85.759 163.164 L
85.932 163.152 L
86.104 163.143 L
86.277 163.136 L
86.449 163.132 L
86.622 163.131 L
86.794 163.133 L
86.966 163.137 L
87.139 163.143 L
87.311 163.153 L
87.484 163.164 L
87.656 163.178 L
87.828 163.194 L
88.001 163.212 L
88.173 163.233 L
88.346 163.255 L
88.518 163.28 L
88.691 163.306 L
88.863 163.335 L
89.035 163.365 L
89.208 163.397 L
89.38 163.43 L
89.553 163.465 L
89.725 163.501 L
89.898 163.539 L
90.07 163.578 L
90.242 163.618 L
90.415 163.66 L
90.587 163.702 L
90.76 163.746 L
90.932 163.79 L
91.104 163.836 L
91.277 163.882 L
91.449 163.929 L
91.622 163.977 L
91.794 164.026 L
91.967 164.075 L
92.139 164.125 L
92.311 164.175 L
92.484 164.226 L
92.656 164.277 L
92.829 164.328 L
93.001 164.38 L
93.174 164.433 L
93.346 164.486 L
93.518 164.539 L
93.691 164.592 L
93.863 164.646 L
94.036 164.7 L
94.208 164.755 L
94.38 164.809 L
94.553 164.864 L
94.725 164.92 L
94.898 164.976 L
95.07 165.032 L
95.243 165.089 L
95.415 165.146 L
95.587 165.204 L
95.76 165.263 L
95.932 165.322 L
96.105 165.382 L
96.277 165.443 L
96.45 165.505 L
96.622 165.567 L
96.794 165.631 L
96.967 165.696 L
97.139 165.762 L
97.312 165.83 L
97.484 165.899 L
97.657 165.97 L
97.829 166.042 L
98.001 166.117 L
98.174 166.193 L
98.346 166.271 L
98.519 166.352 L
98.691 166.435 L
98.863 166.521 L
99.036 166.609 L
99.208 166.701 L
99.381 166.795 L
99.553 166.893 L
99.726 166.994 L
99.898 167.099 L
100.07 167.207 L
100.243 167.319 L
100.415 167.436 L
100.588 167.557 L
100.76 167.682 L
100.933 167.812 L
101.105 167.947 L
101.277 168.087 L
101.45 168.232 L
101.622 168.383 L
101.795 168.539 L
101.967 168.701 L
102.139 168.87 L
102.312 169.044 L
102.484 169.225 L
102.657 169.412 L
102.829 169.607 L
103.002 169.808 L
103.174 170.016 L
103.346 170.232 L
103.519 170.455 L
103.691 170.686 L
103.864 170.925 L
104.036 171.172 L
104.209 171.426 L
104.381 171.689 L
104.553 171.961 L
104.726 172.24 L
104.898 172.529 L
105.071 172.826 L
105.243 173.132 L
105.415 173.447 L
105.588 173.771 L
105.76 174.104 L
105.933 174.446 L
106.105 174.797 L
106.278 175.158 L
106.45 175.527 L
106.622 175.906 L
106.795 176.294 L
106.967 176.691 L
107.14 177.097 L
107.312 177.513 L
107.485 177.937 L
107.657 178.37 L
107.829 178.812 L
108.002 179.263 L
108.174 179.722 L
108.347 180.189 L
108.519 180.665 L
108.691 181.149 L
108.864 181.64 L
109.036 182.139 L
109.209 182.646 L
109.381 183.159 L
109.554 183.679 L
109.726 184.205 L
109.898 184.738 L
110.071 185.276 L
110.243 185.819 L
110.416 186.368 L
110.588 186.92 L
110.761 187.477 L
110.933 188.037 L
111.105 188.601 L
111.278 189.167 L
111.45 189.734 L
111.623 190.304 L
111.795 190.874 L
111.967 191.444 L
112.14 192.014 L
112.312 192.582 L
112.485 193.149 L
112.657 193.714 L
112.83 194.275 L
113.002 194.833 L
113.174 195.385 L
113.347 195.933 L
113.519 196.474 L
113.692 197.008 L
113.864 197.534 L
114.037 198.051 L
114.209 198.559 L
114.381 199.057 L
114.554 199.543 L
114.726 200.016 L
114.899 200.477 L
115.071 200.923 L
115.243 201.354 L
115.416 201.769 L
115.588 202.168 L
115.761 202.548 L
115.933 202.909 L
116.106 203.251 L
116.278 203.571 L
116.45 203.87 L
116.623 204.146 L
116.795 204.399 L
116.968 204.627 L
117.14 204.829 L
117.313 205.005 L
117.485 205.153 L
117.657 205.273 L
117.83 205.364 L
118.002 205.425 L
118.175 205.456 L
118.347 205.455 L
118.52 205.421 L
118.692 205.354 L
118.864 205.254 L
119.037 205.12 L
119.209 204.951 L
119.382 204.746 L
119.554 204.506 L
119.726 204.229 L
119.899 203.916 L
120.071 203.566 L
120.244 203.179 L
120.416 202.755 L
120.589 202.294 L
120.761 201.796 L
120.933 201.261 L
121.106 200.689 L
121.278 200.082 L
121.451 199.438 L
121.623 198.76 L
121.796 198.047 L
121.968 197.301 L
122.14 196.523 L
122.313 195.713 L
122.485 194.874 L
122.658 194.006 L
122.83 193.112 L
123.002 192.193 L
123.175 191.251 L
123.347 190.288 L
123.52 189.308 L
123.692 188.312 L
123.865 187.303 L
124.037 186.286 L
124.209 185.262 L
124.382 184.235 L
124.554 183.211 L
124.727 182.191 L
124.899 181.182 L
125.072 180.188 L
125.244 179.214 L
125.416 178.265 L
125.589 177.347 L
125.761 176.466 L
125.934 175.629 L
126.495 172.596 L
127.232 167.888 L
127.959 163.017 L
128.673 158.012 L
129.373 152.898 L
130.057 147.692 L
130.729 142.4 L
131.392 137.016 L
132.052 131.516 L
132.719 125.855 L
133.404 119.962 L
134.122 113.745 L
134.858 107.521 L
135.585 101.441 L
136.307 95.532 L
137.025 89.816 L
137.741 84.311 L
138.459 79.038 L
139.181 74.022 L
139.913 69.296 L
140.66 64.899 L
141.423 60.851 L
142.184 57.364 L
142.927 54.485 L
143.653 52.149 L
144.366 50.275 L
145.067 48.78 L
145.757 47.58 L
146.438 46.61 L
147.112 45.818 L
147.78 45.17 L
148.445 44.653 L
149.107 44.265 L
149.769 44.024 L
150.432 43.964 L
151.097 44.125 L
151.767 44.537 L
152.442 45.217 L
153.124 46.177 L
153.814 47.442 L
154.514 49.044 L
155.224 51.026 L
155.947 53.433 L
156.683 56.308 L
157.433 59.693 L
158.198 63.622 L
158.98 68.122 L
159.779 73.204 L
160.597 78.867 L
161.436 85.09 L
162.296 91.833 L
163.182 99.034 L
164.095 106.608 L
164.992 114.117 L
165.848 121.092 L
166.685 127.671 L
167.507 133.799 L
168.317 139.435 L
169.117 144.55 L
169.909 149.132 L
170.694 153.181 L
171.474 156.715 L
172.248 159.763 L
173.017 162.361 L
173.783 164.552 L
174.545 166.377 L
175.303 167.879 L
176.057 169.095 L
176.809 170.063 L
177.557 170.816 L
178.303 171.382 L
179.046 171.79 L
179.787 172.062 L
180.525 172.219 L
181.261 172.277 L
181.995 172.254 L
182.726 172.161 L
183.456 172.01 L
184.184 171.81 L
184.911 171.569 L
185.635 171.295 L
186.359 170.994 L
187.08 170.672 L
187.801 170.334 L
188.52 169.985 L
189.239 169.632 L
189.956 169.28 L
190.672 168.936 L
191.387 168.608 L
192.102 168.304 L
192.816 168.033 L
193.529 167.805 L
194.241 167.63 L
194.931 167.519 L
195.597 167.476 L
196.262 167.502 L
196.927 167.602 L
197.594 167.778 L
198.263 168.034 L
198.936 168.37 L
199.612 168.787 L
200.293 169.287 L
200.978 169.872 L
201.668 170.547 L
202.361 171.317 L
203.058 172.188 L
203.758 173.171 L
204.461 174.274 L
205.166 175.51 L
205.872 176.89 L
206.579 178.428 L
207.285 180.134 L
207.991 182.022 L
208.695 184.101 L
209.398 186.379 L
210.097 188.863 L
210.794 191.555 L
211.487 194.453 L
212.177 197.554 L
212.863 200.846 L
213.544 204.314 L
214.222 207.939 L
214.895 211.695 L
215.564 215.551 L
216.23 219.471 L
216.891 223.415 L
217.548 227.342 L
218.202 231.204 L
218.853 234.955 L
219.5 238.549 L
220.144 241.939 L
220.786 245.08 L
221.425 247.925 L
222.061 250.43 L
222.695 252.55 L
223.328 254.241 L
223.958 255.463 L
224.587 256.185 L
225.215 256.395 L
225.841 256.113 L
226.467 255.396 L
227.093 254.321 L
227.719 252.972 L
228.368 251.367 L
229.041 249.562 L
229.716 247.677 L
230.394 245.776 L
231.073 243.916 L
231.753 242.145 L
232.433 240.505 L
233.114 239.027 L
233.795 237.734 L
234.475 236.642 L
235.154 235.758 L
235.832 235.084 L
236.51 234.612 L
237.186 234.333 L
237.862 234.231 L
238.537 234.288 L
239.21 234.482 L
239.884 234.791 L
240.556 235.192 L
241.229 235.661 L
241.9 236.174 L
242.572 236.709 L
243.243 237.243 L
243.915 237.753 L
244.586 238.215 L
245.257 238.607 L
245.929 238.904 L
246.6 239.08 L
247.272 239.107 L
247.944 238.959 L
248.615 238.605 L
249.287 238.017 L
249.959 237.167 L
250.631 236.031 L
251.303 234.593 L
251.975 232.842 L
252.646 230.778 L
253.317 228.415 L
253.988 225.778 L
254.659 222.901 L
255.329 219.83 L
255.999 216.612 L
256.663 213.325 L
257.325 210 L
257.993 206.632 L
258.669 203.257 L
259.352 199.907 L
260.042 196.609 L
260.74 193.387 L
261.445 190.261 L
262.156 187.246 L
262.873 184.353 L
263.595 181.591 L
264.322 178.963 L
265.051 176.474 L
265.782 174.124 L
266.515 171.914 L
267.246 169.846 L
267.976 167.924 L
268.702 166.152 L
269.424 164.538 L
270.141 163.092 L
270.851 161.826 L
271.553 160.755 L
272.246 159.892 L
272.931 159.248 L
273.606 158.832 L
274.273 158.645 L
274.931 158.678 L
275.582 158.916 L
276.226 159.332 L
276.866 159.899 L
277.504 160.585 L
278.143 161.365 L
278.82 162.263 L
279.532 163.254 L
280.242 164.268 L
280.951 165.286 L
281.659 166.29 L
282.366 167.268 L
283.072 168.209 L
283.777 169.105 L
284.481 169.948 L
285.184 170.73 L
285.887 171.444 L
286.589 172.081 L
287.291 172.629 L
287.992 173.077 L
288.693 173.41 L
289.394 173.609 L
290.094 173.656 L
290.794 173.524 L
291.494 173.186 L
292.194 172.611 L
292.893 171.764 L
293.592 170.607 L
294.291 169.098 L
294.99 167.197 L
295.688 164.861 L
296.386 162.051 L
297.084 158.733 L
297.781 154.88 L
298.477 150.479 L
299.173 145.536 L
299.868 140.08 L
300.563 134.164 L
301.257 127.871 L
301.952 121.305 L
302.648 114.58 L
303.347 107.807 L
304.05 101.082 L
304.761 94.478 L
305.482 88.05 L
306.218 81.842 L
306.991 75.736 L
307.777 70.136 L
308.538 65.312 L
309.275 61.232 L
309.993 57.846 L
310.694 55.087 L
311.379 52.873 L
312.052 51.112 L
312.715 49.718 L
313.369 48.614 L
314.017 47.747 L
314.66 47.089 L
315.301 46.639 L
315.941 46.423 L
316.583 46.485 L
317.228 46.863 L
317.878 47.58 L
318.534 48.649 L
319.199 50.089 L
319.873 51.932 L
320.559 54.213 L
321.258 56.973 L
321.971 60.25 L
322.7 64.08 L
323.446 68.491 L
324.21 73.503 L
324.996 79.123 L
325.803 85.34 L
326.635 92.127 L
327.493 99.431 L
328.382 107.175 L
329.263 114.937 L
330.108 122.21 L
330.935 129.098 L
331.748 135.537 L
332.549 141.474 L
333.341 146.868 L
334.125 151.696 L
334.903 155.949 L
335.675 159.64 L
336.442 162.794 L
337.205 165.451 L
337.963 167.658 L
338.718 169.464 L
339.469 170.918 L
340.217 172.069 L
340.962 172.959 L
341.703 173.629 L
342.443 174.115 L
343.179 174.449 L
343.913 174.658 L
344.645 174.766 L
345.374 174.796 L
346.101 174.763 L
346.827 174.683 L
347.551 174.569 L
348.272 174.43 L
348.993 174.275 L
349.711 174.112 L
350.429 173.944 L
351.145 173.777 L
351.859 173.613 L
352.573 173.454 L
353.285 173.302 L
353.996 173.158 L
354.707 173.022 L
355.416 172.894 L
356.124 172.773 L
356.832 172.658 L
357.539 172.548 L
358.245 172.441 L
358.95 172.336 L
359.654 172.231 L
360.358 172.123 L
361.062 172.009 L
361.764 171.888 L
362.466 171.756 L
363.168 171.609 L
363.869 171.443 L
364.57 171.255 L
365.27 171.041 L
365.97 170.794 L
366.669 170.511 L
367.368 170.186 L
368.067 169.812 L
368.766 169.384 L
369.464 168.895 L
370.161 168.337 L
370.859 167.705 L
371.556 166.992 L
372.254 166.19 L
372.951 165.293 L
373.648 164.295 L
374.345 163.192 L
375.041 161.98 L
375.738 160.656 L
376.436 159.222 L
377.133 157.679 L
377.831 156.033 L
378.529 154.294 L
379.229 152.475 L
379.911 150.637 L
380.575 148.815 L
381.236 146.992 L
381.893 145.194 L
382.549 143.445 L
383.203 141.771 L
383.856 140.198 L
384.508 138.748 L
385.16 137.442 L
385.812 136.292 L
386.464 135.307 L
387.117 134.488 L
387.77 133.831 L
388.423 133.326 L
389.078 132.959 L
389.732 132.713 L
390.388 132.572 L
391.044 132.515 L
391.701 132.527 L
392.358 132.59 L
393.017 132.689 L
393.675 132.811 L
394.334 132.946 L
394.994 133.083 L
395.654 133.217 L
396.314 133.34 L
396.975 133.451 L
397.636 133.545 L
398.297 133.621 L
398.958 133.681 L
399.62 133.723 L
400.282 133.749 L
400.945 133.762 L
401.607 133.762 L
402.27 133.752 L
402.933 133.734 L
403.596 133.711 L
404.259 133.683 L
404.923 133.653 L
405.586 133.623 L
406.25 133.594 L
406.914 133.566 L
407.578 133.541 L
408.243 133.52 L
408.907 133.503 L
409.572 133.489 L
410.237 133.48 L
410.902 133.475 L
411.567 133.474 L
412.232 133.477 L
412.897 133.482 L
413.562 133.49 L
414.228 133.5 L
414.893 133.51 L
415.559 133.52 L
416.224 133.528 L
416.89 133.534 L
417.556 133.536 L
418.222 133.533 L
418.888 133.523 L
419.554 133.506 L
420.22 133.48 L
420.886 133.444 L
421.552 133.4 L
422.219 133.345 L
422.885 133.283 L
423.551 133.213 L
424.218 133.139 L
424.884 133.063 L
425.551 132.992 L
426.217 132.929 L
426.884 132.882 L
427.551 132.86 L
428.217 132.87 L
428.884 132.923 L
429.551 133.029 L
430.218 133.197 L
430.885 133.439 L
431.552 133.762 L
432.219 134.174 L
432.886 134.68 L
433.553 135.282 L
434.22 135.98 L
434.887 136.768 L
435.553 137.639 L
436.22 138.58 L
436.887 139.579 L
437.554 140.62 L
438.221 141.688 L
438.888 142.769 L
439.555 143.852 L
440.223 144.926 L
440.891 145.983 L
441.56 147.012 L
442.23 148.008 L
442.241 147.89 L
442.494 148.244 L
442.793 148.599 L
443.115 149.042 L
443.482 149.574 L
444.08 150.372 L
444.563 150.904 L
445.322 151.879 L
446.034 152.766 L
446.77 154.007 L
447.391 155.248 L
448.103 156.932 L
449.069 158.794 L
449.804 160.744 L
450.448 162.074 L
450.816 162.872 L
451.207 163.758 L
451.621 164.556 L
451.919 165.265 L
452.195 166.063 L
S
GR
GS
1 GC
N
444.5 309 M
444.5 257 L
292.5 257 L
292.5 309 L
cp
f
GR
GS
[1 0 0 1 329.5426 270.87466] CT
N
/f201143701{0.703 4.752 M
0.703 4.049 L
2.766 4.049 2.766 2.861 QT
2.766 -7.576 L
2.766 -8.201 0.703 -8.201 QT
0.703 -8.904 L
4.484 -8.904 L
4.734 -8.904 4.813 -8.686 QT
9.156 2.627 L
13.516 -8.686 L
13.594 -8.904 13.844 -8.904 QT
17.625 -8.904 L
17.625 -8.201 L
15.563 -8.201 15.563 -7.576 QT
15.563 3.408 L
15.563 4.049 17.625 4.049 QT
17.625 4.752 L
11.797 4.752 L
11.797 4.049 L
13.859 4.049 13.859 3.408 QT
13.859 -8.232 L
8.938 4.533 L
8.844 4.752 8.609 4.752 QT
8.344 4.752 8.266 4.533 QT
3.406 -8.076 L
3.406 2.861 L
3.406 4.049 5.453 4.049 QT
5.453 4.752 L
0.703 4.752 L
cp}def
f201143701
f
GR
GS
[1 0 0 1 329.5426 270.87466] CT
N
/f-1614294572{18.822 4.752 M
18.822 4.049 L
20.869 4.049 20.869 3.408 QT
20.869 -7.576 L
20.869 -8.201 18.822 -8.201 QT
18.822 -8.904 L
25.931 -8.904 L
27.025 -8.904 28.119 -8.459 QT
29.213 -8.014 29.923 -7.154 QT
30.634 -6.295 30.634 -5.154 QT
30.634 -4.045 29.923 -3.201 QT
29.213 -2.357 28.127 -1.92 QT
27.041 -1.482 25.931 -1.482 QT
22.728 -1.482 L
22.728 3.408 L
22.728 4.049 24.791 4.049 QT
24.791 4.752 L
18.822 4.752 L
cp
22.666 -2.092 M
25.384 -2.092 L
26.494 -2.092 27.173 -2.404 QT
27.853 -2.717 28.173 -3.389 QT
28.494 -4.061 28.494 -5.154 QT
28.494 -6.779 27.775 -7.49 QT
27.056 -8.201 25.384 -8.201 QT
23.681 -8.201 L
23.322 -8.201 23.127 -8.178 QT
22.931 -8.154 22.798 -8.014 QT
22.666 -7.873 22.666 -7.576 QT
22.666 -2.092 L
cp}def
f-1614294572
f
GR
GS
[1 0 0 1 329.5426 270.87466] CT
N
/f-175486492{36.188 2.611 M
36.875 3.486 37.899 3.986 QT
38.922 4.486 40.031 4.486 QT
40.953 4.486 41.742 4.119 QT
42.531 3.752 43.125 3.096 QT
43.719 2.439 44.031 1.611 QT
44.344 0.783 44.344 -0.139 QT
44.344 -0.295 44.531 -0.295 QT
44.766 -0.295 L
44.922 -0.295 44.922 -0.092 QT
44.922 0.955 44.524 1.924 QT
44.125 2.893 43.391 3.635 QT
42.656 4.377 41.703 4.783 QT
40.75 5.189 39.719 5.189 QT
38.281 5.189 37 4.611 QT
35.719 4.033 34.766 3.018 QT
33.813 2.002 33.281 0.674 QT
32.75 -0.654 32.75 -2.092 QT
32.75 -3.514 33.281 -4.842 QT
33.813 -6.17 34.766 -7.186 QT
35.719 -8.201 37 -8.779 QT
38.281 -9.357 39.719 -9.357 QT
40.75 -9.357 41.688 -8.912 QT
42.625 -8.467 43.328 -7.654 QT
44.484 -9.295 L
44.609 -9.357 44.625 -9.357 QT
44.766 -9.357 L
44.828 -9.357 44.875 -9.303 QT
44.922 -9.248 44.922 -9.186 QT
44.922 -3.779 L
44.922 -3.607 44.766 -3.607 QT
44.406 -3.607 L
44.219 -3.607 44.219 -3.779 QT
44.219 -4.357 43.992 -5.068 QT
43.766 -5.779 43.406 -6.42 QT
43.047 -7.061 42.578 -7.561 QT
41.453 -8.654 40 -8.654 QT
38.906 -8.654 37.891 -8.154 QT
36.875 -7.654 36.188 -6.779 QT
35.453 -5.842 35.172 -4.639 QT
34.891 -3.436 34.891 -2.092 QT
34.891 -0.732 35.172 0.471 QT
35.453 1.674 36.188 2.611 QT
cp}def
f-175486492
f
GR
GS
[1 0 0 1 329.5426 270.87466] CT
N
/f-261314747{57.525 4.971 M
56.322 4.971 55.299 4.361 QT
54.275 3.752 53.681 2.728 QT
53.088 1.705 53.088 0.486 QT
53.088 -0.42 53.416 -1.272 QT
53.744 -2.123 54.353 -2.795 QT
54.963 -3.467 55.767 -3.842 QT
56.572 -4.217 57.525 -4.217 QT
58.759 -4.217 59.767 -3.568 QT
60.775 -2.92 61.361 -1.826 QT
61.947 -0.732 61.947 0.486 QT
61.947 1.689 61.353 2.721 QT
60.759 3.752 59.736 4.361 QT
58.713 4.971 57.525 4.971 QT
cp
57.525 4.393 M
59.134 4.393 59.666 3.228 QT
60.197 2.064 60.197 0.268 QT
60.197 -0.732 60.095 -1.397 QT
59.994 -2.061 59.619 -2.592 QT
59.4 -2.92 59.056 -3.17 QT
58.713 -3.42 58.322 -3.553 QT
57.931 -3.686 57.525 -3.686 QT
56.9 -3.686 56.338 -3.404 QT
55.775 -3.123 55.4 -2.592 QT
55.041 -2.029 54.939 -1.35 QT
54.838 -0.67 54.838 0.268 QT
54.838 1.393 55.033 2.283 QT
55.228 3.174 55.814 3.783 QT
56.4 4.393 57.525 4.393 QT
cp}def
f-261314747
f
GR
GS
[1 0 0 1 329.5426 270.87466] CT
N
/f182521152{63.019 4.752 M
63.019 4.049 L
63.706 4.049 64.144 3.939 QT
64.581 3.83 64.581 3.408 QT
64.581 -2.045 L
64.581 -2.576 64.425 -2.818 QT
64.269 -3.061 63.964 -3.115 QT
63.659 -3.17 63.019 -3.17 QT
63.019 -3.873 L
65.925 -4.092 L
65.925 -2.139 L
66.316 -2.998 67.105 -3.545 QT
67.894 -4.092 68.816 -4.092 QT
70.206 -4.092 70.909 -3.428 QT
71.613 -2.764 71.613 -1.389 QT
71.613 3.408 L
71.613 3.83 72.05 3.939 QT
72.488 4.049 73.175 4.049 QT
73.175 4.752 L
68.581 4.752 L
68.581 4.049 L
69.269 4.049 69.706 3.939 QT
70.144 3.83 70.144 3.408 QT
70.144 -1.326 L
70.144 -2.311 69.863 -2.943 QT
69.581 -3.576 68.706 -3.576 QT
67.55 -3.576 66.8 -2.647 QT
66.05 -1.717 66.05 -0.529 QT
66.05 3.408 L
66.05 3.83 66.488 3.939 QT
66.925 4.049 67.597 4.049 QT
67.597 4.752 L
63.019 4.752 L
cp}def
f182521152
f
GR
GS
[1 0 0 1 329.5426 270.87466] CT
N
/f67248436{73.644 1.049 M
73.644 -0.186 L
78.941 -0.186 L
78.941 1.049 L
73.644 1.049 L
cp}def
f67248436
f
GR
GS
[1 0 0 1 329.5426 270.87466] CT
N
/f-825749030{80.634 4.752 M
80.634 4.049 L
81.322 4.049 81.759 3.939 QT
82.197 3.83 82.197 3.408 QT
82.197 -7.092 L
82.197 -7.623 82.041 -7.865 QT
81.884 -8.107 81.58 -8.154 QT
81.275 -8.201 80.634 -8.201 QT
80.634 -8.904 L
83.603 -9.123 L
83.603 3.408 L
83.603 3.83 84.049 3.939 QT
84.494 4.049 85.166 4.049 QT
85.166 4.752 L
80.634 4.752 L
cp}def
f-825749030
f
GR
GS
[1 0 0 1 329.5426 270.87466] CT
N
/f1991936395{86.135 4.752 M
86.135 4.049 L
86.822 4.049 87.26 3.939 QT
87.697 3.83 87.697 3.408 QT
87.697 -2.045 L
87.697 -2.811 87.4 -2.99 QT
87.103 -3.17 86.228 -3.17 QT
86.228 -3.873 L
89.103 -4.092 L
89.103 3.408 L
89.103 3.83 89.486 3.939 QT
89.869 4.049 90.51 4.049 QT
90.51 4.752 L
86.135 4.752 L
cp
86.994 -7.529 M
86.994 -7.967 87.322 -8.295 QT
87.65 -8.623 88.088 -8.623 QT
88.369 -8.623 88.635 -8.482 QT
88.9 -8.342 89.041 -8.076 QT
89.181 -7.811 89.181 -7.529 QT
89.181 -7.092 88.853 -6.764 QT
88.525 -6.436 88.088 -6.436 QT
87.65 -6.436 87.322 -6.764 QT
86.994 -7.092 86.994 -7.529 QT
cp}def
f1991936395
f
GR
GS
[1 0 0 1 329.5426 270.87466] CT
N
/f1330086426{91.619 4.752 M
91.619 4.049 L
92.306 4.049 92.744 3.939 QT
93.181 3.83 93.181 3.408 QT
93.181 -2.045 L
93.181 -2.576 93.025 -2.818 QT
92.869 -3.061 92.564 -3.115 QT
92.26 -3.17 91.619 -3.17 QT
91.619 -3.873 L
94.525 -4.092 L
94.525 -2.139 L
94.916 -2.998 95.705 -3.545 QT
96.494 -4.092 97.416 -4.092 QT
98.806 -4.092 99.51 -3.428 QT
100.213 -2.764 100.213 -1.389 QT
100.213 3.408 L
100.213 3.83 100.65 3.939 QT
101.088 4.049 101.775 4.049 QT
101.775 4.752 L
97.181 4.752 L
97.181 4.049 L
97.869 4.049 98.306 3.939 QT
98.744 3.83 98.744 3.408 QT
98.744 -1.326 L
98.744 -2.311 98.463 -2.943 QT
98.181 -3.576 97.306 -3.576 QT
96.15 -3.576 95.4 -2.647 QT
94.65 -1.717 94.65 -0.529 QT
94.65 3.408 L
94.65 3.83 95.088 3.939 QT
95.525 4.049 96.197 4.049 QT
96.197 4.752 L
91.619 4.752 L
cp}def
f1330086426
f
GR
GS
[1 0 0 1 329.5426 270.87466] CT
N
/f-303319415{107.01 4.971 M
105.791 4.971 104.767 4.33 QT
103.744 3.689 103.166 2.627 QT
102.588 1.564 102.588 0.361 QT
102.588 -0.811 103.119 -1.865 QT
103.65 -2.92 104.603 -3.568 QT
105.556 -4.217 106.728 -4.217 QT
107.635 -4.217 108.314 -3.904 QT
108.994 -3.592 109.439 -3.045 QT
109.885 -2.498 110.103 -1.756 QT
110.322 -1.014 110.322 -0.139 QT
110.322 0.127 110.119 0.127 QT
104.338 0.127 L
104.338 0.346 L
104.338 2.002 105.002 3.197 QT
105.666 4.393 107.181 4.393 QT
107.791 4.393 108.314 4.119 QT
108.838 3.846 109.228 3.353 QT
109.619 2.861 109.744 2.314 QT
109.775 2.236 109.83 2.182 QT
109.885 2.127 109.947 2.127 QT
110.119 2.127 L
110.322 2.127 110.322 2.393 QT
110.041 3.518 109.103 4.244 QT
108.166 4.971 107.01 4.971 QT
cp
104.353 -0.373 M
108.916 -0.373 L
108.916 -1.123 108.705 -1.889 QT
108.494 -2.654 108.002 -3.17 QT
107.51 -3.686 106.728 -3.686 QT
105.588 -3.686 104.971 -2.623 QT
104.353 -1.561 104.353 -0.373 QT
cp}def
f-303319415
f
GR
GS
0.502 0 0.502 RC
1 LJ
3 LW
N
296.505 270.875 M
326.539 270.875 L
S
GR
GS
[1 0 0 1 329.5426 295.12534] CT
N
/f987584810{7.781 5.189 M
5.875 5.189 4.359 4.182 QT
2.844 3.174 1.984 1.494 QT
1.125 -0.186 1.125 -2.029 QT
1.125 -3.389 1.617 -4.732 QT
2.109 -6.076 2.992 -7.107 QT
3.875 -8.139 5.117 -8.748 QT
6.359 -9.357 7.781 -9.357 QT
9.203 -9.357 10.445 -8.74 QT
11.688 -8.123 12.578 -7.084 QT
13.469 -6.045 13.945 -4.74 QT
14.422 -3.436 14.422 -2.029 QT
14.422 -0.186 13.563 1.494 QT
12.703 3.174 11.18 4.182 QT
9.656 5.189 7.781 5.189 QT
cp
4.469 2.596 M
5.047 3.518 5.906 4.057 QT
6.766 4.596 7.781 4.596 QT
8.438 4.596 9.07 4.33 QT
9.703 4.064 10.211 3.603 QT
10.719 3.143 11.078 2.596 QT
12.281 0.799 12.281 -2.342 QT
12.281 -5.232 11.078 -6.904 QT
10.5 -7.748 9.625 -8.256 QT
8.75 -8.764 7.781 -8.764 QT
6.813 -8.764 5.93 -8.256 QT
5.047 -7.748 4.469 -6.904 QT
4 -6.248 3.742 -5.514 QT
3.484 -4.779 3.375 -3.99 QT
3.266 -3.201 3.266 -2.342 QT
3.266 -1.436 3.367 -0.576 QT
3.469 0.283 3.75 1.119 QT
4.031 1.955 4.469 2.596 QT
cp}def
f987584810
f
GR
GS
[1 0 0 1 329.5426 295.12534] CT
N
/f-1997874166{19.963 2.611 M
20.65 3.486 21.673 3.986 QT
22.697 4.486 23.806 4.486 QT
24.728 4.486 25.517 4.119 QT
26.306 3.752 26.9 3.096 QT
27.494 2.439 27.806 1.611 QT
28.119 0.783 28.119 -0.139 QT
28.119 -0.295 28.306 -0.295 QT
28.541 -0.295 L
28.697 -0.295 28.697 -0.092 QT
28.697 0.955 28.298 1.924 QT
27.9 2.893 27.166 3.635 QT
26.431 4.377 25.478 4.783 QT
24.525 5.189 23.494 5.189 QT
22.056 5.189 20.775 4.611 QT
19.494 4.033 18.541 3.018 QT
17.588 2.002 17.056 0.674 QT
16.525 -0.654 16.525 -2.092 QT
16.525 -3.514 17.056 -4.842 QT
17.588 -6.17 18.541 -7.186 QT
19.494 -8.201 20.775 -8.779 QT
22.056 -9.357 23.494 -9.357 QT
24.525 -9.357 25.463 -8.912 QT
26.4 -8.467 27.103 -7.654 QT
28.259 -9.295 L
28.384 -9.357 28.4 -9.357 QT
28.541 -9.357 L
28.603 -9.357 28.65 -9.303 QT
28.697 -9.248 28.697 -9.186 QT
28.697 -3.779 L
28.697 -3.607 28.541 -3.607 QT
28.181 -3.607 L
27.994 -3.607 27.994 -3.779 QT
27.994 -4.357 27.767 -5.068 QT
27.541 -5.779 27.181 -6.42 QT
26.822 -7.061 26.353 -7.561 QT
25.228 -8.654 23.775 -8.654 QT
22.681 -8.654 21.666 -8.154 QT
20.65 -7.654 19.963 -6.779 QT
19.228 -5.842 18.947 -4.639 QT
18.666 -3.436 18.666 -2.092 QT
18.666 -0.732 18.947 0.471 QT
19.228 1.674 19.963 2.611 QT
cp}def
f-1997874166
f
GR
GS
[1 0 0 1 329.5426 295.12534] CT
N
/f1796904477{41.3 4.971 M
40.097 4.971 39.073 4.361 QT
38.05 3.752 37.456 2.728 QT
36.863 1.705 36.863 0.486 QT
36.863 -0.42 37.191 -1.272 QT
37.519 -2.123 38.128 -2.795 QT
38.738 -3.467 39.542 -3.842 QT
40.347 -4.217 41.3 -4.217 QT
42.534 -4.217 43.542 -3.568 QT
44.55 -2.92 45.136 -1.826 QT
45.722 -0.732 45.722 0.486 QT
45.722 1.689 45.128 2.721 QT
44.534 3.752 43.511 4.361 QT
42.488 4.971 41.3 4.971 QT
cp
41.3 4.393 M
42.909 4.393 43.441 3.228 QT
43.972 2.064 43.972 0.268 QT
43.972 -0.732 43.87 -1.397 QT
43.769 -2.061 43.394 -2.592 QT
43.175 -2.92 42.831 -3.17 QT
42.488 -3.42 42.097 -3.553 QT
41.706 -3.686 41.3 -3.686 QT
40.675 -3.686 40.113 -3.404 QT
39.55 -3.123 39.175 -2.592 QT
38.816 -2.029 38.714 -1.35 QT
38.613 -0.67 38.613 0.268 QT
38.613 1.393 38.808 2.283 QT
39.003 3.174 39.589 3.783 QT
40.175 4.393 41.3 4.393 QT
cp}def
f1796904477
f
GR
GS
[1 0 0 1 329.5426 295.12534] CT
N
/f-660096830{46.716 4.752 M
46.716 4.049 L
47.403 4.049 47.841 3.939 QT
48.278 3.83 48.278 3.408 QT
48.278 -3.17 L
46.731 -3.17 L
46.731 -3.873 L
48.278 -3.873 L
48.278 -6.264 L
48.278 -7.014 48.708 -7.607 QT
49.138 -8.201 49.794 -8.584 QT
50.45 -8.967 51.224 -9.162 QT
51.997 -9.357 52.7 -9.357 QT
53.325 -9.357 53.911 -9.147 QT
54.497 -8.936 54.825 -8.498 QT
55.778 -9.357 57.075 -9.357 QT
57.747 -9.357 58.294 -8.951 QT
58.841 -8.545 58.841 -7.889 QT
58.841 -7.498 58.583 -7.24 QT
58.325 -6.982 57.934 -6.982 QT
57.559 -6.982 57.294 -7.24 QT
57.028 -7.498 57.028 -7.889 QT
57.028 -8.514 57.559 -8.732 QT
57.231 -8.826 56.981 -8.826 QT
56.403 -8.826 55.981 -8.42 QT
55.559 -8.014 55.349 -7.412 QT
55.138 -6.811 55.138 -6.232 QT
55.138 -3.873 L
57.466 -3.873 L
57.466 -3.17 L
55.2 -3.17 L
55.2 3.408 L
55.2 3.83 55.786 3.939 QT
56.372 4.049 57.138 4.049 QT
57.138 4.752 L
52.231 4.752 L
52.231 4.049 L
52.919 4.049 53.356 3.939 QT
53.794 3.83 53.794 3.408 QT
53.794 -3.17 L
49.684 -3.17 L
49.684 3.408 L
49.684 3.83 50.122 3.939 QT
50.559 4.049 51.247 4.049 QT
51.247 4.752 L
46.716 4.752 L
cp
49.622 -3.873 M
53.794 -3.873 L
53.794 -6.264 L
53.794 -6.436 53.841 -6.779 QT
53.294 -7.029 53.294 -7.607 QT
53.294 -7.936 53.481 -8.178 QT
53.669 -8.42 53.981 -8.498 QT
53.419 -8.826 52.544 -8.826 QT
51.809 -8.826 51.13 -8.49 QT
50.45 -8.154 50.036 -7.553 QT
49.622 -6.951 49.622 -6.232 QT
49.622 -3.873 L
cp}def
f-660096830
f
GR
GS
[1 0 0 1 329.5426 295.12534] CT
N
/f685933464{57.969 1.049 M
57.969 -0.186 L
63.266 -0.186 L
63.266 1.049 L
57.969 1.049 L
cp}def
f685933464
f
GR
GS
[1 0 0 1 329.5426 295.12534] CT
N
/f1762589011{64.959 4.752 M
64.959 4.049 L
65.647 4.049 66.084 3.939 QT
66.522 3.83 66.522 3.408 QT
66.522 -7.092 L
66.522 -7.623 66.366 -7.865 QT
66.209 -8.107 65.905 -8.154 QT
65.6 -8.201 64.959 -8.201 QT
64.959 -8.904 L
67.928 -9.123 L
67.928 3.408 L
67.928 3.83 68.374 3.939 QT
68.819 4.049 69.491 4.049 QT
69.491 4.752 L
64.959 4.752 L
cp}def
f1762589011
f
GR
GS
[1 0 0 1 329.5426 295.12534] CT
N
/f1905320632{70.46 4.752 M
70.46 4.049 L
71.147 4.049 71.585 3.939 QT
72.022 3.83 72.022 3.408 QT
72.022 -2.045 L
72.022 -2.811 71.725 -2.99 QT
71.428 -3.17 70.553 -3.17 QT
70.553 -3.873 L
73.428 -4.092 L
73.428 3.408 L
73.428 3.83 73.811 3.939 QT
74.194 4.049 74.835 4.049 QT
74.835 4.752 L
70.46 4.752 L
cp
71.319 -7.529 M
71.319 -7.967 71.647 -8.295 QT
71.975 -8.623 72.413 -8.623 QT
72.694 -8.623 72.96 -8.482 QT
73.225 -8.342 73.366 -8.076 QT
73.506 -7.811 73.506 -7.529 QT
73.506 -7.092 73.178 -6.764 QT
72.85 -6.436 72.413 -6.436 QT
71.975 -6.436 71.647 -6.764 QT
71.319 -7.092 71.319 -7.529 QT
cp}def
f1905320632
f
GR
GS
[1 0 0 1 329.5426 295.12534] CT
N
/f1001358065{75.944 4.752 M
75.944 4.049 L
76.631 4.049 77.069 3.939 QT
77.506 3.83 77.506 3.408 QT
77.506 -2.045 L
77.506 -2.576 77.35 -2.818 QT
77.194 -3.061 76.889 -3.115 QT
76.585 -3.17 75.944 -3.17 QT
75.944 -3.873 L
78.85 -4.092 L
78.85 -2.139 L
79.241 -2.998 80.03 -3.545 QT
80.819 -4.092 81.741 -4.092 QT
83.131 -4.092 83.835 -3.428 QT
84.538 -2.764 84.538 -1.389 QT
84.538 3.408 L
84.538 3.83 84.975 3.939 QT
85.413 4.049 86.1 4.049 QT
86.1 4.752 L
81.506 4.752 L
81.506 4.049 L
82.194 4.049 82.631 3.939 QT
83.069 3.83 83.069 3.408 QT
83.069 -1.326 L
83.069 -2.311 82.788 -2.943 QT
82.506 -3.576 81.631 -3.576 QT
80.475 -3.576 79.725 -2.647 QT
78.975 -1.717 78.975 -0.529 QT
78.975 3.408 L
78.975 3.83 79.413 3.939 QT
79.85 4.049 80.522 4.049 QT
80.522 4.752 L
75.944 4.752 L
cp}def
f1001358065
f
GR
GS
[1 0 0 1 329.5426 295.12534] CT
N
/f710428890{91.335 4.971 M
90.116 4.971 89.092 4.33 QT
88.069 3.689 87.491 2.627 QT
86.913 1.564 86.913 0.361 QT
86.913 -0.811 87.444 -1.865 QT
87.975 -2.92 88.928 -3.568 QT
89.881 -4.217 91.053 -4.217 QT
91.96 -4.217 92.639 -3.904 QT
93.319 -3.592 93.764 -3.045 QT
94.21 -2.498 94.428 -1.756 QT
94.647 -1.014 94.647 -0.139 QT
94.647 0.127 94.444 0.127 QT
88.663 0.127 L
88.663 0.346 L
88.663 2.002 89.327 3.197 QT
89.991 4.393 91.506 4.393 QT
92.116 4.393 92.639 4.119 QT
93.163 3.846 93.553 3.353 QT
93.944 2.861 94.069 2.314 QT
94.1 2.236 94.155 2.182 QT
94.21 2.127 94.272 2.127 QT
94.444 2.127 L
94.647 2.127 94.647 2.393 QT
94.366 3.518 93.428 4.244 QT
92.491 4.971 91.335 4.971 QT
cp
88.678 -0.373 M
93.241 -0.373 L
93.241 -1.123 93.03 -1.889 QT
92.819 -2.654 92.327 -3.17 QT
91.835 -3.686 91.053 -3.686 QT
89.913 -3.686 89.295 -2.623 QT
88.678 -1.561 88.678 -0.373 QT
cp}def
f710428890
f
GR
GS
0.937 0.42 0.267 RC
1 LJ
3 LW
N
296.505 295.125 M
326.539 295.125 L
S
GR
GS
0.149 GC
10.0 ML
0.5 LW
N
292.5 309 M
292.5 257 L
444.5 257 L
444.5 309 L
cp
S
GR
%%Trailer
%%Pages: 1
%%EOF
