X	Y	THETA
                   0	                   0	                   0
         10.00953861	                   0	                   0
         20.01907722	                   0	                   0
         30.02861583	                   0	                   0
         40.03815444	                   0	                   0
         50.04769305	                   0	                   0
         60.05723166	                   0	                   0
         70.06677027	                   0	                   0
         80.07630888	                   0	                   0
         90.08584749	                   0	                   0
         100.0953861	                   0	                   0
         110.1049247	                   0	                   0
         120.1144633	                   0	                   0
         130.1240019	                   0	                   0
         140.1335405	                   0	                   0
         150.1430791	                   0	                   0
         160.1522882	      -0.05536490166	       -0.0178553458
         170.1562711	       -0.3782524615	      -0.04667405491
         180.1467961	       -0.9892679154	      -0.07549276403
         190.1155664	        -1.887903839	       -0.1043114731
         200.0544805	        -3.072073589	            -0.13034
         209.9791158	        -4.373025996	            -0.13034
         219.9037511	        -5.673978403	            -0.13034
         229.8283864	         -6.97493081	            -0.13034
         239.7530217	        -8.275883216	            -0.13034
          249.677657	        -9.576835623	            -0.13034
         259.6022923	        -10.87778803	            -0.13034
         269.5269276	        -12.17874044	            -0.13034
          279.451563	        -13.47969284	            -0.13034
         289.3761983	        -14.78064525	            -0.13034
         299.3008336	        -16.08159766	            -0.13034
         309.2254689	        -17.38255006	            -0.13034
         319.1501042	        -18.68350247	            -0.13034
         329.0747395	        -19.98445488	            -0.13034
         338.9993748	        -21.28540728	            -0.13034
         348.9240101	        -22.58635969	            -0.13034
         358.8486454	         -23.8873121	            -0.13034
         368.7732807	        -25.18826451	            -0.13034
          378.697916	        -26.48921691	            -0.13034
         388.6225514	        -27.79016932	            -0.13034
         398.5471867	        -29.09112173	            -0.13034
          408.471822	        -30.39207413	            -0.13034
         418.3964573	        -31.69302654	            -0.13034
         428.3210926	        -32.99397895	            -0.13034
         438.2457279	        -34.29493135	            -0.13034
         448.1792388	        -35.52441239	       -0.1099754233
         458.1427595	        -36.47949622	      -0.08115671415
         468.1296635	        -37.14708741	      -0.05233800504
         478.1316571	        -37.52663154	      -0.02351929593
          488.140434	        -37.61781344	      0.005299413186
         498.1476823	        -37.42055736	        0.0341181223
         508.1492652	        -37.02187795	       0.04056066667
         518.1505712	         -36.6159957	       0.04056066667
         528.1518773	        -36.21011345	       0.04056066667
         538.1531833	        -35.80423121	       0.04056066667
         548.1544894	        -35.39834896	       0.04056066667
         558.1557954	        -34.99246671	       0.04056066667
         568.1571015	        -34.58658447	       0.04056066667
         578.1584075	        -34.18070222	       0.04056066667
         588.1597136	        -33.77481997	       0.04056066667
         598.1610196	        -33.36893773	       0.04056066667
         608.1623257	        -32.96305548	       0.04056066667
         618.1636318	        -32.55717323	       0.04056066667
         628.1649378	        -32.15129099	       0.04056066667
         638.1662439	        -31.74540874	       0.04056066667
         648.1675499	        -31.33952649	       0.04056066667
          658.168856	        -30.93364424	       0.04056066667
          668.170162	          -30.527762	       0.04056066667
         678.1714681	        -30.12187975	       0.04056066667
         688.1727741	         -29.7159975	       0.04056066667
         698.1740802	        -29.31011526	       0.04056066667
         708.1746897	        -29.30493133	      -0.08634407983
         717.9934014	        -31.16145953	       -0.2874048411
         727.2435528	        -34.94147197	       -0.4884656023
         735.5524607	        -40.49267412	       -0.6895263636
          742.585364	        -47.59141121	       -0.8905871248
         748.0589108	        -55.95167919	        -1.091647886
         751.7525753	        -65.23664763	        -1.292708647
         753.5175417	        -75.07223046	        -1.493769409
         753.2827006	        -85.06215767	         -1.69483017
         751.0575136	        -94.80394081	        -1.895890931
         746.9316321	         -103.905089	        -2.096951692
         741.0712856	        -111.9989222	        -2.298012454
         733.7125842	        -118.7593444	        -2.499073215
         725.1520056	        -123.9139822	        -2.700133976
         715.7705416	        -127.3769759	         -2.82974631
          706.243776	         -130.448067	         -2.82974631
         696.7170105	        -133.5191582	         -2.82974631
         687.1902449	        -136.5902493	         -2.82974631
         677.6634793	        -139.6613404	         -2.82974631
         668.1367137	        -142.7324315	         -2.82974631
         658.6099481	        -145.8035226	         -2.82974631
         649.0831825	        -148.8746137	         -2.82974631
         639.5564169	        -151.9457048	         -2.82974631
         630.0296513	        -155.0167959	         -2.82974631
         620.5028857	         -158.087887	         -2.82974631
         610.9761201	        -161.1589781	         -2.82974631
         601.4493546	        -164.2300692	         -2.82974631
         591.9227449	        -167.3016417	        -2.825565352
         582.7245268	        -171.2175407	        -2.652653097
         574.3372115	        -176.6576163	        -2.479740842
         567.0109441	        -183.4596224	        -2.306828588
         560.9642249	        -191.4206944	        -2.133916333
         556.3773927	        -200.3033996	        -1.961004078
         553.3872462	        -209.8428181	        -1.788091824
         551.9990333	        -219.7476862	         -1.66911831
         551.0164605	        -229.7088817	         -1.66911831
         550.0338877	        -239.6700771	         -1.66911831
         549.0513149	        -249.6312725	         -1.66911831
         548.0687422	        -259.5924679	         -1.66911831
         546.5313477	        -269.4696821	        -1.824843328
          542.992318	        -278.8118815	        -2.040983646
          537.532092	         -287.177726	        -2.257123965
         530.4047616	        -294.1779105	        -2.473264283
         521.9419975	        -299.4866811	        -2.689404601
         512.5376148	        -302.8569939	         -2.90554492
          502.629247	        -304.1320113	        -3.121685238
         492.6730767	        -303.2804892	         -3.30273331
         482.7932125	        -301.6745169	         -3.30273331
         472.9133483	        -300.0685446	         -3.30273331
         463.0334841	        -298.4625722	         -3.30273331
           453.15362	        -296.8565999	         -3.30273331
         443.2737558	        -295.2506276	         -3.30273331
         433.3938916	        -293.6446553	         -3.30273331
         423.5140274	         -292.038683	         -3.30273331
         413.6341633	        -290.4327107	         -3.30273331
         403.7542991	        -288.8267384	         -3.30273331
         393.8744349	         -287.220766	         -3.30273331
         383.9945707	        -285.6147937	         -3.30273331
         374.1147066	        -284.0088214	         -3.30273331
         364.2348424	        -282.4028491	         -3.30273331
         354.3549782	        -280.7968768	         -3.30273331
          344.475114	        -279.1909045	         -3.30273331
         334.5952499	        -277.5849322	         -3.30273331
         324.7153857	        -275.9789598	         -3.30273331
         314.8355215	        -274.3729875	         -3.30273331
         304.9556573	        -272.7670152	         -3.30273331
         295.0757932	        -271.1610429	         -3.30273331
          285.195929	        -269.5550706	         -3.30273331
         275.3160648	        -267.9490983	         -3.30273331
         265.4362007	         -266.343126	         -3.30273331
         255.5563365	        -264.7371537	         -3.30273331
         245.6764723	        -263.1311813	         -3.30273331
         235.7966081	         -261.525209	         -3.30273331
          225.916744	        -259.9192367	         -3.30273331
         216.0368798	        -258.3132644	         -3.30273331
         206.1570156	        -256.7072921	         -3.30273331
         196.2771514	        -255.1013198	         -3.30273331
         186.3972873	        -253.4953475	         -3.30273331
         176.5174231	        -251.8893751	         -3.30273331
         166.6375589	        -250.2834028	         -3.30273331
         156.7102292	        -249.0508403	        -3.198614597
         146.7104766	        -249.2010962	        -3.054521051
         136.8359328	        -250.7857137	        -2.910427506
         127.2912678	        -253.7718483	         -2.76633396
         118.2743146	        -258.0976062	        -2.622240414
         109.9719678	        -263.6733273	        -2.478146869
         102.5563106	        -270.3834434	        -2.334053323
         95.98933286	        -277.9353474	        -2.274059977
         89.51605985	         -285.569979	        -2.274059977
         83.04278684	        -293.2046106	        -2.274059977
         76.56150454	        -300.8323708	        -2.291490812
         69.43807653	        -307.8519436	        -2.435584358
         61.38049378	        -313.7758771	        -2.579677904
         52.55576621	        -318.4813858	        -2.723771449
          43.1468044	        -321.8709382	        -2.867864995
         33.34862836	        -323.8742791	         -3.01195854
         23.36432537	         -324.449885	        -3.156052086
         13.40084058	        -323.5858253	        -3.300145631
         3.660819391	        -321.3129969	        -3.424486643
         -5.95085652	        -318.5189766	        -3.424486643
        -15.56253243	        -315.7249563	        -3.424486643
        -25.17420834	        -312.9309361	        -3.424486643
        -34.78588425	        -310.1369158	        -3.424486643
        -44.39756016	        -307.3428955	        -3.424486643
        -54.00923607	        -304.5488752	        -3.424486643
        -63.62091198	        -301.7548549	        -3.424486643
        -73.23258789	        -298.9608346	        -3.424486643
         -82.8442638	        -296.1668143	        -3.424486643
        -92.45593972	         -293.372794	        -3.424486643
        -102.0676156	        -290.5787738	        -3.424486643
        -111.6792915	        -287.7847535	        -3.424486643
        -121.2909674	        -284.9907332	        -3.424486643
        -130.9026434	        -282.1967129	        -3.424486643
        -140.5143193	        -279.4026926	        -3.424486643
        -150.1259952	        -276.6086723	        -3.424486643
        -159.7376711	         -273.814652	        -3.424486643
         -169.349347	        -271.0206317	        -3.424486643
        -178.9610229	        -268.2266114	        -3.424486643
        -188.5726988	        -265.4325912	        -3.424486643
        -198.1843747	        -262.6385709	        -3.424486643
        -207.7960506	        -259.8445506	        -3.424486643
        -217.4077266	        -257.0505303	        -3.424486643
        -227.0194025	          -254.25651	        -3.424486643
        -236.6310784	        -251.4624897	        -3.424486643
        -246.2427543	        -248.6684694	        -3.424486643
        -255.7267235	        -245.4844407	        -3.525136584
        -264.7544135	        -241.1758008	        -3.648645337
        -273.1825321	        -235.7878159	         -3.77215409
        -280.8826767	        -229.4025721	        -3.895662844
        -287.7375354	        -222.1173488	        -4.019171597
        -293.6426741	        -214.0431366	         -4.14268035
        -298.5081278	        -205.3029464	        -4.266189104
        -302.2597713	        -196.0299352	        -4.389697857
        -305.1269451	        -186.4404224	        -4.427706643
        -307.9381499	        -176.8337585	        -4.427706643
        -310.7493548	        -167.2270946	        -4.427706643
        -313.5605596	        -157.6204308	        -4.427706643
        -316.3717644	        -148.0137669	        -4.427706643
        -319.5288684	        -138.5195177	        -4.339075876
        -323.6753926	         -129.414589	        -4.231005717
        -328.7797832	        -120.8100212	        -4.122935558
        -334.7824833	        -112.8062109	        -4.014865399
        -341.6134546	        -105.4965447	         -3.90679524
        -349.1929948	        -98.96631037	        -3.798725081
        -357.4326672	        -93.29170138	        -3.690654921
        -366.2363331	        -88.53892789	        -3.582584762
        -375.5012731	         -84.7634443	        -3.474514603
        -385.1193857	        -82.00930219	        -3.366444444
        -394.9784488	        -80.30863632	        -3.258374285
        -404.9634287	        -79.68128973	        -3.150304125
        -414.9578229	        -80.13458216	        -3.042233966
        -424.9101169	         -81.2034893	        -3.034309143
        -434.8621071	        -82.27528895	        -3.034309143
        -444.8140973	         -83.3470886	        -3.034309143
        -454.7660875	        -84.41888825	        -3.034309143
        -464.7180776	         -85.4906879	        -3.034309143
        -474.6700678	        -86.56248755	        -3.034309143
         -484.622058	         -87.6342872	        -3.034309143
        -494.5740482	        -88.70608684	        -3.034309143
        -504.5260384	        -89.77788649	        -3.034309143
        -514.4780286	        -90.84968614	        -3.034309143
        -524.4300188	        -91.92148579	        -3.034309143
         -534.382009	        -92.99328544	        -3.034309143
        -544.3339991	        -94.06508509	        -3.034309143
        -554.2859893	        -95.13688474	        -3.034309143
        -564.2379795	        -96.20868438	        -3.034309143
        -574.1899697	        -97.28048403	        -3.034309143
        -584.1585695	        -98.15896199	        -3.099042026
        -594.1625781	        -98.04406637	        -3.207112186
        -604.0958317	        -96.85080948	        -3.315182345
        -613.8424311	        -94.59311398	        -3.423252504
        -623.2886549	        -91.29732221	        -3.531322663
        -632.3242867	        -87.00188879	        -3.639392822
        -640.8439004	        -81.75693198	        -3.747462981
        -648.7480908	        -75.62364886	        -3.855533141
        -655.9446336	        -68.67360133	          -3.9636033
         -662.349561	        -60.98788113	        -4.071673459
        -667.8881414	         -52.6561637	        -4.179743618
         -672.495752	        -43.77566181	        -4.287813777
         -676.118632	        -34.44999135	        -4.395883937
        -678.7145105	        -24.78796236	        -4.503954096
        -680.2530991	        -14.90230942	        -4.612024255
        -680.7173154	        -4.908372141	        -4.715761643
        -680.6835567	          5.10110954	        -4.715761643
         -680.649798	         15.11059122	        -4.715761643
        -680.6160392	          25.1200729	        -4.715761643
        -680.5822805	         35.12955458	        -4.715761643
        -680.5485217	         45.13903627	        -4.715761643
         -680.514763	         55.14851795	        -4.715761643
        -680.4810043	         65.15799963	        -4.715761643
        -680.4472455	         75.16748131	        -4.715761643
        -680.4134868	         85.17696299	        -4.715761643
        -680.3797281	         95.18644467	        -4.715761643
        -680.3459693	         105.1959264	        -4.715761643
        -680.3122106	          115.205408	        -4.715761643
        -680.2784518	         125.2148897	        -4.715761643
        -679.8155257	         135.2070041	        -4.826984975
        -677.9597519	         145.0341976	        -4.971078521
        -674.7120704	         154.4930661	        -5.115172067
        -670.1397961	         163.3875552	        -5.259265612
        -664.3376987	         171.5333083	        -5.403359158
        -657.4260386	          178.761488	        -5.547452703
        -649.5480741	         184.9222756	        -5.691546249
        -640.8670921	         189.8879759	        -5.835639794
        -631.5630238	         193.5556648	         -5.97973334
        -621.8876107	         196.1147522	        -6.035341643
         -612.183927	          198.570233	        -6.035341643
        -602.4802433	         201.0257138	        -6.035341643
        -592.7765596	         203.4811946	        -6.035341643
        -583.0728759	         205.9366754	        -6.035341643
        -573.3691922	         208.3921562	        -6.035341643
        -563.6655085	          210.847637	        -6.035341643
        -553.9618248	         213.3031178	        -6.035341643
        -544.2581411	         215.7585986	        -6.035341643
        -534.5544574	         218.2140795	        -6.035341643
        -524.8507737	         220.6695603	        -6.035341643
          -515.14709	         223.1250411	        -6.035341643
        -505.4434063	         225.5805219	        -6.035341643
        -495.7397226	         228.0360027	        -6.035341643
         -486.036039	         230.4914835	        -6.035341643
        -476.3323553	         232.9469643	        -6.035341643
        -466.6286716	         235.4024451	        -6.035341643
        -456.9249879	         237.8579259	        -6.035341643
        -447.2213042	         240.3134067	        -6.035341643
        -437.5176205	         242.7688875	        -6.035341643
        -427.8139368	         245.2243683	        -6.035341643
        -418.1102531	         247.6798491	        -6.035341643
        -408.4065694	         250.1353299	        -6.035341643
        -398.7028857	         252.5908107	        -6.035341643
         -388.999202	         255.0462915	        -6.035341643
        -379.2955183	         257.5017723	        -6.035341643
        -369.5918346	         259.9572531	        -6.035341643
        -359.8881509	         262.4127339	        -6.035341643
        -350.0486409	          264.195908	        -6.180842913
        -340.0522022	         264.4473657	        -6.335228854
        -330.1359923	         263.1586465	        -6.489614796
         -320.535895	         260.3604061	        -6.644000738
        -311.4802748	         256.1192082	        -6.798386679
        -303.1845442	         250.5359412	        -6.952772621
        -295.8460396	         243.7434183	        -7.107158563
        -289.6393272	         235.9032182	        -7.261544504
        -284.7120507	         227.2018411	        -7.415930446
        -281.0973528	          217.873992	        -7.518059501
        -277.7978094	         208.4239191	        -7.518059501
        -274.4982661	         198.9738463	        -7.518059501
        -271.1987228	         189.5237734	        -7.518059501
         -267.410216	         180.2695074	        -7.383126768
        -262.1227037	         171.7851868	        -7.210214514
        -255.4542959	          164.337112	        -7.037302259
        -247.6038728	         158.1474159	        -6.864390004
        -238.8055671	         153.4007016	         -6.69147775
        -229.3217814	          150.238536	        -6.518565495
        -219.4353625	         148.7552283	         -6.34565324
        -209.4411651	          148.995017	        -6.172740986
        -199.5012285	         150.1733374	        -6.165019501
         -189.561491	          151.353372	        -6.165019501
        -179.6217535	         152.5334065	        -6.165019501
         -169.682016	         153.7134411	        -6.165019501
        -159.7422785	         154.8934756	        -6.165019501
         -149.802541	         156.0735102	        -6.165019501
        -139.8628035	         157.2535447	        -6.165019501
         -129.923066	         158.4335793	        -6.165019501
        -119.9833285	         159.6136139	        -6.165019501
         -110.043591	         160.7936484	        -6.165019501
        -100.1038535	          161.973683	        -6.165019501
        -90.16411601	         163.1537175	        -6.165019501
        -80.22437851	         164.3337521	        -6.165019501
        -70.28464101	         165.5137866	        -6.165019501
         -60.3449035	         166.6938212	        -6.165019501
          -50.405166	         167.8738557	        -6.165019501
         -40.4654285	         169.0538903	        -6.165019501
        -30.52569099	         170.2339249	        -6.165019501
        -20.58595349	         171.4139594	        -6.165019501
        -10.64621599	          172.593994	        -6.165019501
       -0.7064784853	         173.7740285	        -6.165019501
         9.233259018	         174.9540631	        -6.165019501
         19.17299652	         176.1340976	        -6.165019501
         29.11273402	         177.3141322	        -6.165019501
         39.05247153	         178.4941667	        -6.165019501
         48.99220903	         179.6742013	        -6.165019501
         58.93194653	         180.8542359	        -6.165019501
         68.87168404	         182.0342704	        -6.165019501
         78.81142154	          183.214305	        -6.165019501
         88.75115904	         184.3943395	        -6.165019501
         98.69089654	         185.5743741	        -6.165019501
          108.630634	         186.7544086	        -6.165019501
         118.5957729	         187.6387041	        -6.262477759
         128.5770226	         187.0456763	        -6.422581699
         138.3360783	         184.8690139	        -6.582685638
         147.6233174	         181.1643928	        -6.742789578
         156.2011857	         176.0265719	        -6.902893517
         163.8502736	         169.5869692	        -7.062997457
         170.3749284	         162.0103006	        -7.223101396
         175.6082589	         153.4903664	        -7.383205336
         179.4164039	         144.2450941	        -7.543309275
         181.7019567	         134.5109647	        -7.703413215
          182.406456	          124.536963	        -7.863517154
         181.5118817	         114.5782099	        -8.023621094
         179.0411159	         104.8894358	        -8.183725033
          175.057357	         95.71846562	        -8.343828973
         169.6625041	         87.29987969	        -8.503932912
         162.9945495	         79.84901329	        -8.664036852
         155.2240501	         73.55644889	        -8.824140791
         146.5497641	         68.58314122	        -8.984244731
         137.1935671	         65.05630037	         -9.14434867
         127.3947774	         63.06613784	         -9.30445261
         117.4040338	         62.66355914	        -9.464556549
         107.4768852	         63.85886165	        -9.624660489
         97.74844813	         66.21150663	        -9.667889871
         88.03325438	         68.62104468	        -9.667889871
         78.31806063	         71.03058272	        -9.667889871
         68.60286688	         73.44012077	        -9.667889871
         58.88767313	         75.84965881	        -9.667889871
         49.17247938	         78.25919686	        -9.667889871
         39.45728563	          80.6687349	        -9.667889871
         29.74209188	         83.07827295	        -9.667889871
         20.02689813	         85.48781099	        -9.667889871
         10.31170438	         87.89734904	        -9.667889871
        0.5965106321	         90.30688708	        -9.667889871
        -9.118683117	         92.71642513	        -9.667889871
        -18.92665491	         94.67027193	        -9.541106293
        -28.91926842	         94.96886215	        -9.368194038
        -38.81424396	          93.5437516	        -9.195281783
        -48.33233714	         90.47755249	        -9.060973871
        -57.68675117	         86.91583924	        -9.060973871
         -67.0411652	         83.35412598	        -9.060973871
        -76.39557923	         79.79241272	        -9.060973871
        -85.74999326	         76.23069947	        -9.060973871
        -95.10540169	         72.67161723	        -9.068321435
        -104.6389511	         69.63430325	        -9.164383799
        -114.4198696	         67.52540005	        -9.260446163
        -124.3579686	         66.36435358	        -9.356508526
          -134.36161	         66.16186971	         -9.45257089
        -144.3385513	         66.91981553	        -9.548633254
        -154.1967964	          68.6312021	        -9.644695617
        -163.9454526	         70.90151103	        -9.654038315
        -173.6930891	         73.17625168	        -9.654038315
        -183.4407257	         75.45099233	        -9.654038315
        -193.1883622	         77.72573298	        -9.654038315
        -202.9359988	         80.00047363	        -9.654038315
        -212.6836353	         82.27521429	        -9.654038315
        -222.4312719	         84.54995494	        -9.654038315
        -232.1789084	         86.82469559	        -9.654038315
        -241.9265449	         89.09943624	        -9.654038315
        -251.6741815	          91.3741769	        -9.654038315
         -261.421818	         93.64891755	        -9.654038315
        -271.1694546	          95.9236582	        -9.654038315
        -280.9170911	         98.19839885	        -9.654038315
        -290.6647276	         100.4731395	        -9.654038315
        -300.4123642	         102.7478802	        -9.654038315
        -310.1600007	         105.0226208	        -9.654038315
        -319.9076373	         107.2973615	        -9.654038315
        -329.6552738	         109.5721021	        -9.654038315
        -339.4029104	         111.8468428	        -9.654038315
        -349.1505469	         114.1215834	        -9.654038315
        -358.8981834	         116.3963241	        -9.654038315
          -368.64582	         118.6710647	        -9.654038315
        -378.3934565	         120.9458054	        -9.654038315
        -388.1410931	          123.220546	        -9.654038315
        -397.8887296	         125.4952867	        -9.654038315
        -407.6363661	         127.7700273	        -9.654038315
        -417.3840027	          130.044768	        -9.654038315
        -427.1316392	         132.3195086	        -9.654038315
        -436.8792758	         134.5942493	        -9.654038315
        -446.6269123	         136.8689899	        -9.654038315
        -456.3745489	         139.1437306	        -9.654038315
        -466.1221854	         141.4184712	        -9.654038315
        -475.8698219	         143.6932119	        -9.654038315
        -485.6174585	         145.9679526	        -9.654038315
         -495.365095	         148.2426932	        -9.654038315
        -505.1127316	         150.5174339	        -9.654038315
        -514.8603681	         152.7921745	        -9.654038315
        -524.6080046	         155.0669152	        -9.654038315
         -534.444565	         156.8868611	        -9.545519877
        -544.4310203	          157.458422	        -9.418378513
        -554.4093425	         156.7590958	         -9.29123715
        -564.2184499	         154.8001721	        -9.164095786
        -573.6999926	         151.6132739	        -9.036954422
        -582.7009084	          147.249848	        -8.909813058
         -591.075894	         141.7803337	        -8.782671695
        -598.6897508	         135.2930265	        -8.655530331
         -605.419567	         127.8926518	        -8.528388967
        -611.1567021	         119.6986753	        -8.401247603
        -615.8085406	         110.8433734	         -8.27410624
         -619.299987	          101.469699	        -8.146964876
        -621.5746785	         91.72897265	        -8.019823512
        -622.5958942	         81.77844053	        -7.892682149
        -622.3471486	          71.7787357	        -7.765540785
        -620.8324572	         61.89128502	        -7.638399421
        -618.0762718	         52.27570322	        -7.511258057
        -614.1230861	          43.0872162	        -7.384116694
         -609.036717	          34.4741552	         -7.25697533
        -602.8992744	         26.57556226	        -7.129833966
        -595.8098363	         19.51894566	        -7.002692602
        -587.8828485	          13.4182215	        -6.875551239
        -579.2462776	         8.371874772	        -6.748409875
        -570.0395454	         4.461369468	        -6.621268511
        -560.4112774	         1.749833511	        -6.494127148
        -550.5169045	        0.2810396672	        -6.366985784
        -540.5150849	      0.004757520431	        -6.283188568
        -530.5055463	      0.004721243303	         -6.28318929
        -520.4960077	      0.004677890266	        -6.283189982
        -510.4864691	       0.00462775672	        -6.283190645
        -500.4769305	      0.004571138064	        -6.283191278
        -490.4673919	      0.004508329696	        -6.283191881
        -480.4578532	      0.004439627015	        -6.283192455
        -470.4483146	       0.00436532542	           -6.283193
         -460.438776	      0.004285720309	        -6.283193515
        -450.4292374	      0.004201107081	        -6.283194001
        -440.4196988	      0.004111781134	        -6.283194457
        -430.4101602	      0.004018037868	        -6.283194883
        -420.4006216	       0.00392017268	         -6.28319528
         -410.391083	      0.003818480971	        -6.283195648
        -400.3815444	      0.003713258137	        -6.283195986
        -390.3720058	      0.003604799578	        -6.283196294
        -380.3624672	      0.003493400693	        -6.283196573
        -370.3529285	       0.00337935688	        -6.283196823
        -360.3433899	      0.003262963538	        -6.283197043
        -350.3338513	      0.003144516066	        -6.283197233
        -340.3243127	      0.003024309862	        -6.283197394
        -330.3147741	      0.002902640325	        -6.283197526
        -320.3052355	      0.002779802853	        -6.283197628
        -310.2956969	      0.002656092846	          -6.2831977
        -300.2861583	      0.002531805701	        -6.283197743
        -290.2766197	      0.002407236818	        -6.283197756
        -280.2670811	      0.002282681595	         -6.28319774
        -270.2575425	      0.002158435432	        -6.283197695
        -260.2480038	      0.002034793725	         -6.28319762
        -250.2384652	      0.001912051875	        -6.283197515
        -240.2289266	       0.00179050528	        -6.283197381
         -230.219388	      0.001670449339	        -6.283197217
        -220.2098494	      0.001552179449	        -6.283197024
        -210.2003108	      0.001435991011	        -6.283196801
        -200.1907722	      0.001322179422	        -6.283196549
        -190.1812336	      0.001211040082	        -6.283196267
         -180.171695	      0.001102868388	        -6.283195956
        -170.1621564	     0.0009979597398	        -6.283195615
        -160.1526178	     0.0008966095359	        -6.283195245
        -150.1430791	     0.0007991131749	        -6.283194845
        -140.1335405	     0.0007057660554	        -6.283194416
        -130.1240019	     0.0006168635762	        -6.283193957
        -120.1144633	     0.0005327011359	        -6.283193469
        -110.1049247	     0.0004535741331	        -6.283192951
        -100.0953861	     0.0003797779665	        -6.283192404
        -90.08584749	     0.0003116080349	        -6.283191827
        -80.07630888	     0.0002493597368	         -6.28319122
        -70.06677027	     0.0001933284709	        -6.283190585
        -60.05723166	     0.0001438096359	        -6.283189919
        -50.04769305	     0.0001010986305	        -6.283189224
        -40.03815444	     6.549085327e-05	          -6.2831885
        -30.02861583	     3.728170295e-05	        -6.283187746
        -20.01907722	     1.676657818e-05	        -6.283186963
        -10.00953861	     4.240877626e-06	         -6.28318615
     2.273736754e-13	    -3.981710794e-14	        -6.283185307
