speed	Kus_6	Kus_7
0.75	0.0005769832176991	0.0031208917657210
1.00	0.0005769832176991	0.0031208917657210
1.24	0.0005769832176991	0.0031208917657210
1.45	-0.0001123448538692	0.0004419219642293
1.63	-0.0001270873427814	0.0000842917194127
2.00	-0.0001270873427814	0.0000842917194127
