<?xml version="1.0" encoding="utf-8"?>
<!DOCTYPE eagle SYSTEM "eagle.dtd">
<eagle version="8.7.0">
<drawing>
<settings>
<setting alwaysvectorfont="no"/>
<setting verticaltext="up"/>
</settings>
<grid distance="0.1" unitdist="inch" unit="mil" style="lines" multiple="1" display="yes" altdistance="0.01" altunitdist="inch" altunit="inch"/>
<layers>
<layer number="1" name="Top" color="4" fill="1" visible="no" active="no"/>
<layer number="16" name="Bottom" color="1" fill="1" visible="no" active="no"/>
<layer number="17" name="Pads" color="2" fill="1" visible="no" active="no"/>
<layer number="18" name="Vias" color="2" fill="1" visible="no" active="no"/>
<layer number="19" name="Unrouted" color="6" fill="1" visible="no" active="no"/>
<layer number="20" name="Dimension" color="15" fill="1" visible="no" active="no"/>
<layer number="21" name="tPlace" color="16" fill="1" visible="no" active="no"/>
<layer number="22" name="bPlace" color="14" fill="1" visible="no" active="no"/>
<layer number="23" name="tOrigins" color="15" fill="1" visible="no" active="no"/>
<layer number="24" name="bOrigins" color="15" fill="1" visible="no" active="no"/>
<layer number="25" name="tNames" color="7" fill="1" visible="no" active="no"/>
<layer number="26" name="bNames" color="7" fill="1" visible="no" active="no"/>
<layer number="27" name="tValues" color="7" fill="1" visible="no" active="no"/>
<layer number="28" name="bValues" color="7" fill="1" visible="no" active="no"/>
<layer number="29" name="tStop" color="7" fill="3" visible="no" active="no"/>
<layer number="30" name="bStop" color="7" fill="6" visible="no" active="no"/>
<layer number="31" name="tCream" color="7" fill="4" visible="no" active="no"/>
<layer number="32" name="bCream" color="7" fill="5" visible="no" active="no"/>
<layer number="33" name="tFinish" color="6" fill="3" visible="no" active="no"/>
<layer number="34" name="bFinish" color="6" fill="6" visible="no" active="no"/>
<layer number="35" name="tGlue" color="7" fill="4" visible="no" active="no"/>
<layer number="36" name="bGlue" color="7" fill="5" visible="no" active="no"/>
<layer number="37" name="tTest" color="7" fill="1" visible="no" active="no"/>
<layer number="38" name="bTest" color="7" fill="1" visible="no" active="no"/>
<layer number="39" name="tKeepout" color="4" fill="11" visible="no" active="no"/>
<layer number="40" name="bKeepout" color="1" fill="11" visible="no" active="no"/>
<layer number="41" name="tRestrict" color="4" fill="10" visible="no" active="no"/>
<layer number="42" name="bRestrict" color="1" fill="10" visible="no" active="no"/>
<layer number="43" name="vRestrict" color="2" fill="10" visible="no" active="no"/>
<layer number="44" name="Drills" color="7" fill="1" visible="no" active="no"/>
<layer number="45" name="Holes" color="7" fill="1" visible="no" active="no"/>
<layer number="46" name="Milling" color="3" fill="1" visible="no" active="no"/>
<layer number="47" name="Measures" color="7" fill="1" visible="no" active="no"/>
<layer number="48" name="Document" color="7" fill="1" visible="no" active="no"/>
<layer number="49" name="Reference" color="7" fill="1" visible="no" active="no"/>
<layer number="50" name="dxf" color="7" fill="1" visible="no" active="no"/>
<layer number="51" name="tDocu" color="7" fill="1" visible="no" active="no"/>
<layer number="52" name="bDocu" color="7" fill="1" visible="no" active="no"/>
<layer number="53" name="tGND_GNDA" color="7" fill="9" visible="no" active="no"/>
<layer number="54" name="bGND_GNDA" color="1" fill="9" visible="no" active="no"/>
<layer number="56" name="wert" color="7" fill="1" visible="no" active="no"/>
<layer number="57" name="tCAD" color="7" fill="1" visible="no" active="no"/>
<layer number="59" name="tCarbon" color="7" fill="1" visible="no" active="no"/>
<layer number="60" name="bCarbon" color="7" fill="1" visible="no" active="no"/>
<layer number="88" name="SimResults" color="9" fill="1" visible="yes" active="yes"/>
<layer number="89" name="SimProbes" color="9" fill="1" visible="yes" active="yes"/>
<layer number="90" name="Modules" color="5" fill="1" visible="yes" active="yes"/>
<layer number="91" name="Nets" color="2" fill="1" visible="yes" active="yes"/>
<layer number="92" name="Busses" color="1" fill="1" visible="yes" active="yes"/>
<layer number="93" name="Pins" color="2" fill="1" visible="no" active="yes"/>
<layer number="94" name="Symbols" color="4" fill="1" visible="yes" active="yes"/>
<layer number="95" name="Names" color="7" fill="1" visible="yes" active="yes"/>
<layer number="96" name="Values" color="7" fill="1" visible="yes" active="yes"/>
<layer number="97" name="Info" color="7" fill="1" visible="yes" active="yes"/>
<layer number="98" name="Guide" color="6" fill="1" visible="yes" active="yes"/>
<layer number="99" name="SpiceOrder" color="7" fill="1" visible="no" active="no"/>
<layer number="100" name="Muster" color="7" fill="1" visible="no" active="no"/>
<layer number="101" name="Patch_Top" color="12" fill="4" visible="yes" active="yes"/>
<layer number="102" name="Vscore" color="7" fill="1" visible="yes" active="yes"/>
<layer number="103" name="tMap" color="7" fill="1" visible="yes" active="yes"/>
<layer number="104" name="Name" color="16" fill="1" visible="yes" active="yes"/>
<layer number="105" name="tPlate" color="7" fill="1" visible="yes" active="yes"/>
<layer number="106" name="bPlate" color="7" fill="1" visible="yes" active="yes"/>
<layer number="107" name="Crop" color="7" fill="1" visible="yes" active="yes"/>
<layer number="108" name="tplace-old" color="10" fill="1" visible="yes" active="yes"/>
<layer number="109" name="ref-old" color="11" fill="1" visible="yes" active="yes"/>
<layer number="110" name="fp0" color="7" fill="1" visible="yes" active="yes"/>
<layer number="111" name="LPC17xx" color="7" fill="1" visible="yes" active="yes"/>
<layer number="112" name="tSilk" color="7" fill="1" visible="yes" active="yes"/>
<layer number="113" name="IDFDebug" color="7" fill="1" visible="yes" active="yes"/>
<layer number="114" name="Badge_Outline" color="11" fill="1" visible="no" active="no"/>
<layer number="115" name="ReferenceISLANDS" color="7" fill="1" visible="yes" active="yes"/>
<layer number="116" name="Patch_BOT" color="9" fill="4" visible="yes" active="yes"/>
<layer number="118" name="Rect_Pads" color="7" fill="1" visible="yes" active="yes"/>
<layer number="121" name="_tsilk" color="7" fill="1" visible="yes" active="yes"/>
<layer number="122" name="_bsilk" color="7" fill="1" visible="yes" active="yes"/>
<layer number="123" name="tTestmark" color="7" fill="1" visible="yes" active="yes"/>
<layer number="124" name="bTestmark" color="7" fill="1" visible="yes" active="yes"/>
<layer number="125" name="_tNames" color="7" fill="1" visible="yes" active="yes"/>
<layer number="126" name="_bNames" color="7" fill="1" visible="yes" active="yes"/>
<layer number="127" name="_tValues" color="7" fill="1" visible="yes" active="yes"/>
<layer number="128" name="_bValues" color="7" fill="1" visible="yes" active="yes"/>
<layer number="129" name="Mask" color="7" fill="1" visible="yes" active="yes"/>
<layer number="131" name="tAdjust" color="7" fill="1" visible="yes" active="yes"/>
<layer number="132" name="bAdjust" color="7" fill="1" visible="yes" active="yes"/>
<layer number="144" name="Drill_legend" color="7" fill="1" visible="yes" active="yes"/>
<layer number="150" name="Notes" color="7" fill="1" visible="yes" active="yes"/>
<layer number="151" name="HeatSink" color="7" fill="1" visible="yes" active="yes"/>
<layer number="152" name="_bDocu" color="7" fill="1" visible="yes" active="yes"/>
<layer number="153" name="FabDoc1" color="7" fill="1" visible="yes" active="yes"/>
<layer number="154" name="FabDoc2" color="7" fill="1" visible="yes" active="yes"/>
<layer number="155" name="FabDoc3" color="7" fill="1" visible="yes" active="yes"/>
<layer number="199" name="Contour" color="7" fill="1" visible="yes" active="yes"/>
<layer number="200" name="200bmp" color="1" fill="10" visible="yes" active="yes"/>
<layer number="201" name="201bmp" color="2" fill="10" visible="yes" active="yes"/>
<layer number="202" name="202bmp" color="3" fill="10" visible="yes" active="yes"/>
<layer number="203" name="203bmp" color="4" fill="10" visible="yes" active="yes"/>
<layer number="204" name="204bmp" color="5" fill="10" visible="yes" active="yes"/>
<layer number="205" name="205bmp" color="6" fill="10" visible="yes" active="yes"/>
<layer number="206" name="206bmp" color="7" fill="10" visible="yes" active="yes"/>
<layer number="207" name="207bmp" color="8" fill="10" visible="yes" active="yes"/>
<layer number="208" name="208bmp" color="9" fill="10" visible="yes" active="yes"/>
<layer number="209" name="209bmp" color="7" fill="1" visible="yes" active="yes"/>
<layer number="210" name="210bmp" color="7" fill="1" visible="yes" active="yes"/>
<layer number="211" name="211bmp" color="7" fill="1" visible="yes" active="yes"/>
<layer number="212" name="212bmp" color="7" fill="1" visible="yes" active="yes"/>
<layer number="213" name="213bmp" color="7" fill="1" visible="yes" active="yes"/>
<layer number="214" name="214bmp" color="7" fill="1" visible="yes" active="yes"/>
<layer number="215" name="215bmp" color="7" fill="1" visible="yes" active="yes"/>
<layer number="216" name="216bmp" color="7" fill="1" visible="yes" active="yes"/>
<layer number="217" name="217bmp" color="18" fill="1" visible="no" active="no"/>
<layer number="218" name="218bmp" color="19" fill="1" visible="no" active="no"/>
<layer number="219" name="219bmp" color="20" fill="1" visible="no" active="no"/>
<layer number="220" name="220bmp" color="21" fill="1" visible="no" active="no"/>
<layer number="221" name="221bmp" color="22" fill="1" visible="no" active="no"/>
<layer number="222" name="222bmp" color="23" fill="1" visible="no" active="no"/>
<layer number="223" name="223bmp" color="24" fill="1" visible="no" active="no"/>
<layer number="224" name="224bmp" color="25" fill="1" visible="no" active="no"/>
<layer number="225" name="225bmp" color="7" fill="1" visible="yes" active="yes"/>
<layer number="226" name="226bmp" color="7" fill="1" visible="yes" active="yes"/>
<layer number="227" name="227bmp" color="7" fill="1" visible="yes" active="yes"/>
<layer number="228" name="228bmp" color="7" fill="1" visible="yes" active="yes"/>
<layer number="229" name="229bmp" color="7" fill="1" visible="yes" active="yes"/>
<layer number="230" name="230bmp" color="7" fill="1" visible="yes" active="yes"/>
<layer number="231" name="231bmp" color="7" fill="1" visible="yes" active="yes"/>
<layer number="248" name="Housing" color="7" fill="1" visible="yes" active="yes"/>
<layer number="249" name="Edge" color="7" fill="1" visible="yes" active="yes"/>
<layer number="250" name="Descript" color="3" fill="1" visible="no" active="no"/>
<layer number="251" name="SMDround" color="12" fill="11" visible="no" active="no"/>
<layer number="254" name="cooling" color="7" fill="1" visible="yes" active="yes"/>
<layer number="255" name="routoute" color="7" fill="1" visible="yes" active="yes"/>
</layers>
<schematic xreflabel="%F%N/%S.%C%R" xrefpart="/%S.%C%R">
<libraries>
<library name="SparkFun-Boards" urn="urn:adsk.eagle:library:509">
<description>&lt;h3&gt;SparkFun Electronics' preferred foot prints&lt;/h3&gt;
This library contains footprints for SparkFun breakout boards, microcontrollers (Arduino, Particle, Teensy, etc.),  breadboards, non-RF modules, etc.
&lt;br&gt;
&lt;br&gt;
We've spent an enormous amount of time creating and checking these footprints and parts, but it is &lt;b&gt; the end user's responsibility&lt;/b&gt; to ensure correctness and suitablity for a given componet or application. 
&lt;br&gt;
&lt;br&gt;If you enjoy using this library, please buy one of our products at &lt;a href=" www.sparkfun.com"&gt;SparkFun.com&lt;/a&gt;.
&lt;br&gt;
&lt;br&gt;
&lt;b&gt;Licensing:&lt;/b&gt; Creative Commons ShareAlike 4.0 International - https://creativecommons.org/licenses/by-sa/4.0/ 
&lt;br&gt;
&lt;br&gt;
You are welcome to use this library for commercial purposes. For attribution, we ask that when you begin to sell your device using our footprint, you email us with a link to the product being sold. We want bragging rights that we helped (in a very small part) to create your 8th world wonder. We would like the opportunity to feature your device on our homepage.</description>
<packages>
<package name="ARDUINO_MEGA" urn="urn:adsk.eagle:footprint:37231/1" library_version="1">
<description>&lt;h3&gt; Arduino MEGA R3 footprint&lt;/h3&gt;
&lt;p&gt;Specifications:
&lt;ul&gt;&lt;li&gt;Pin count:82&lt;/li&gt;
&lt;li&gt;Area:4x2.15 in&lt;/li&gt;
&lt;/ul&gt;&lt;/p&gt;

&lt;p&gt;Example device(s):
&lt;ul&gt;&lt;li&gt;Arduino Mega R3&lt;/li&gt;
&lt;/ul&gt;&lt;/p&gt;</description>
<wire x1="-49.53" y1="26.67" x2="46.99" y2="26.67" width="0.2032" layer="51"/>
<wire x1="46.99" y1="26.67" x2="49.53" y2="24.13" width="0.2032" layer="51"/>
<wire x1="49.53" y1="13.97" x2="52.07" y2="11.43" width="0.2032" layer="51"/>
<wire x1="52.07" y1="11.43" x2="52.07" y2="-22.86" width="0.2032" layer="51"/>
<wire x1="52.07" y1="-22.86" x2="49.53" y2="-25.4" width="0.2032" layer="51"/>
<wire x1="49.53" y1="-25.4" x2="49.53" y2="-26.67" width="0.2032" layer="51"/>
<wire x1="49.53" y1="-26.67" x2="-49.53" y2="-26.67" width="0.2032" layer="51"/>
<wire x1="-49.53" y1="-26.67" x2="-49.53" y2="26.67" width="0.2032" layer="51"/>
<wire x1="49.53" y1="24.13" x2="49.53" y2="13.97" width="0.2032" layer="51"/>
<wire x1="38.735" y1="-22.86" x2="40.005" y2="-22.86" width="0.2032" layer="21"/>
<wire x1="40.005" y1="-22.86" x2="40.64" y2="-23.495" width="0.2032" layer="21"/>
<wire x1="40.64" y1="-24.765" x2="40.005" y2="-25.4" width="0.2032" layer="21"/>
<wire x1="35.56" y1="-23.495" x2="36.195" y2="-22.86" width="0.2032" layer="21"/>
<wire x1="36.195" y1="-22.86" x2="37.465" y2="-22.86" width="0.2032" layer="21"/>
<wire x1="37.465" y1="-22.86" x2="38.1" y2="-23.495" width="0.2032" layer="21"/>
<wire x1="38.1" y1="-24.765" x2="37.465" y2="-25.4" width="0.2032" layer="21"/>
<wire x1="37.465" y1="-25.4" x2="36.195" y2="-25.4" width="0.2032" layer="21"/>
<wire x1="36.195" y1="-25.4" x2="35.56" y2="-24.765" width="0.2032" layer="21"/>
<wire x1="38.735" y1="-22.86" x2="38.1" y2="-23.495" width="0.2032" layer="21"/>
<wire x1="38.1" y1="-24.765" x2="38.735" y2="-25.4" width="0.2032" layer="21"/>
<wire x1="40.005" y1="-25.4" x2="38.735" y2="-25.4" width="0.2032" layer="21"/>
<wire x1="31.115" y1="-22.86" x2="32.385" y2="-22.86" width="0.2032" layer="21"/>
<wire x1="32.385" y1="-22.86" x2="33.02" y2="-23.495" width="0.2032" layer="21"/>
<wire x1="33.02" y1="-24.765" x2="32.385" y2="-25.4" width="0.2032" layer="21"/>
<wire x1="33.02" y1="-23.495" x2="33.655" y2="-22.86" width="0.2032" layer="21"/>
<wire x1="33.655" y1="-22.86" x2="34.925" y2="-22.86" width="0.2032" layer="21"/>
<wire x1="34.925" y1="-22.86" x2="35.56" y2="-23.495" width="0.2032" layer="21"/>
<wire x1="35.56" y1="-24.765" x2="34.925" y2="-25.4" width="0.2032" layer="21"/>
<wire x1="34.925" y1="-25.4" x2="33.655" y2="-25.4" width="0.2032" layer="21"/>
<wire x1="33.655" y1="-25.4" x2="33.02" y2="-24.765" width="0.2032" layer="21"/>
<wire x1="27.94" y1="-23.495" x2="28.575" y2="-22.86" width="0.2032" layer="21"/>
<wire x1="28.575" y1="-22.86" x2="29.845" y2="-22.86" width="0.2032" layer="21"/>
<wire x1="29.845" y1="-22.86" x2="30.48" y2="-23.495" width="0.2032" layer="21"/>
<wire x1="30.48" y1="-24.765" x2="29.845" y2="-25.4" width="0.2032" layer="21"/>
<wire x1="29.845" y1="-25.4" x2="28.575" y2="-25.4" width="0.2032" layer="21"/>
<wire x1="28.575" y1="-25.4" x2="27.94" y2="-24.765" width="0.2032" layer="21"/>
<wire x1="31.115" y1="-22.86" x2="30.48" y2="-23.495" width="0.2032" layer="21"/>
<wire x1="30.48" y1="-24.765" x2="31.115" y2="-25.4" width="0.2032" layer="21"/>
<wire x1="32.385" y1="-25.4" x2="31.115" y2="-25.4" width="0.2032" layer="21"/>
<wire x1="23.495" y1="-22.86" x2="24.765" y2="-22.86" width="0.2032" layer="21"/>
<wire x1="24.765" y1="-22.86" x2="25.4" y2="-23.495" width="0.2032" layer="21"/>
<wire x1="25.4" y1="-24.765" x2="24.765" y2="-25.4" width="0.2032" layer="21"/>
<wire x1="25.4" y1="-23.495" x2="26.035" y2="-22.86" width="0.2032" layer="21"/>
<wire x1="26.035" y1="-22.86" x2="27.305" y2="-22.86" width="0.2032" layer="21"/>
<wire x1="27.305" y1="-22.86" x2="27.94" y2="-23.495" width="0.2032" layer="21"/>
<wire x1="27.94" y1="-24.765" x2="27.305" y2="-25.4" width="0.2032" layer="21"/>
<wire x1="27.305" y1="-25.4" x2="26.035" y2="-25.4" width="0.2032" layer="21"/>
<wire x1="26.035" y1="-25.4" x2="25.4" y2="-24.765" width="0.2032" layer="21"/>
<wire x1="22.86" y1="-23.495" x2="22.86" y2="-24.765" width="0.2032" layer="21"/>
<wire x1="23.495" y1="-22.86" x2="22.86" y2="-23.495" width="0.2032" layer="21"/>
<wire x1="22.86" y1="-24.765" x2="23.495" y2="-25.4" width="0.2032" layer="21"/>
<wire x1="24.765" y1="-25.4" x2="23.495" y2="-25.4" width="0.2032" layer="21"/>
<wire x1="41.275" y1="-22.86" x2="42.545" y2="-22.86" width="0.2032" layer="21"/>
<wire x1="42.545" y1="-22.86" x2="43.18" y2="-23.495" width="0.2032" layer="21"/>
<wire x1="43.18" y1="-23.495" x2="43.18" y2="-24.765" width="0.2032" layer="21"/>
<wire x1="43.18" y1="-24.765" x2="42.545" y2="-25.4" width="0.2032" layer="21"/>
<wire x1="41.275" y1="-22.86" x2="40.64" y2="-23.495" width="0.2032" layer="21"/>
<wire x1="40.64" y1="-24.765" x2="41.275" y2="-25.4" width="0.2032" layer="21"/>
<wire x1="42.545" y1="-25.4" x2="41.275" y2="-25.4" width="0.2032" layer="21"/>
<wire x1="33.655" y1="25.4" x2="34.925" y2="25.4" width="0.2032" layer="21"/>
<wire x1="34.925" y1="25.4" x2="35.56" y2="24.765" width="0.2032" layer="21"/>
<wire x1="35.56" y1="23.495" x2="34.925" y2="22.86" width="0.2032" layer="21"/>
<wire x1="30.48" y1="24.765" x2="31.115" y2="25.4" width="0.2032" layer="21"/>
<wire x1="31.115" y1="25.4" x2="32.385" y2="25.4" width="0.2032" layer="21"/>
<wire x1="32.385" y1="25.4" x2="33.02" y2="24.765" width="0.2032" layer="21"/>
<wire x1="33.02" y1="23.495" x2="32.385" y2="22.86" width="0.2032" layer="21"/>
<wire x1="32.385" y1="22.86" x2="31.115" y2="22.86" width="0.2032" layer="21"/>
<wire x1="31.115" y1="22.86" x2="30.48" y2="23.495" width="0.2032" layer="21"/>
<wire x1="33.655" y1="25.4" x2="33.02" y2="24.765" width="0.2032" layer="21"/>
<wire x1="33.02" y1="23.495" x2="33.655" y2="22.86" width="0.2032" layer="21"/>
<wire x1="34.925" y1="22.86" x2="33.655" y2="22.86" width="0.2032" layer="21"/>
<wire x1="26.035" y1="25.4" x2="27.305" y2="25.4" width="0.2032" layer="21"/>
<wire x1="27.305" y1="25.4" x2="27.94" y2="24.765" width="0.2032" layer="21"/>
<wire x1="27.94" y1="23.495" x2="27.305" y2="22.86" width="0.2032" layer="21"/>
<wire x1="27.94" y1="24.765" x2="28.575" y2="25.4" width="0.2032" layer="21"/>
<wire x1="28.575" y1="25.4" x2="29.845" y2="25.4" width="0.2032" layer="21"/>
<wire x1="29.845" y1="25.4" x2="30.48" y2="24.765" width="0.2032" layer="21"/>
<wire x1="30.48" y1="23.495" x2="29.845" y2="22.86" width="0.2032" layer="21"/>
<wire x1="29.845" y1="22.86" x2="28.575" y2="22.86" width="0.2032" layer="21"/>
<wire x1="28.575" y1="22.86" x2="27.94" y2="23.495" width="0.2032" layer="21"/>
<wire x1="22.86" y1="24.765" x2="23.495" y2="25.4" width="0.2032" layer="21"/>
<wire x1="23.495" y1="25.4" x2="24.765" y2="25.4" width="0.2032" layer="21"/>
<wire x1="24.765" y1="25.4" x2="25.4" y2="24.765" width="0.2032" layer="21"/>
<wire x1="25.4" y1="23.495" x2="24.765" y2="22.86" width="0.2032" layer="21"/>
<wire x1="24.765" y1="22.86" x2="23.495" y2="22.86" width="0.2032" layer="21"/>
<wire x1="23.495" y1="22.86" x2="22.86" y2="23.495" width="0.2032" layer="21"/>
<wire x1="26.035" y1="25.4" x2="25.4" y2="24.765" width="0.2032" layer="21"/>
<wire x1="25.4" y1="23.495" x2="26.035" y2="22.86" width="0.2032" layer="21"/>
<wire x1="27.305" y1="22.86" x2="26.035" y2="22.86" width="0.2032" layer="21"/>
<wire x1="18.415" y1="25.4" x2="19.685" y2="25.4" width="0.2032" layer="21"/>
<wire x1="19.685" y1="25.4" x2="20.32" y2="24.765" width="0.2032" layer="21"/>
<wire x1="20.32" y1="23.495" x2="19.685" y2="22.86" width="0.2032" layer="21"/>
<wire x1="20.32" y1="24.765" x2="20.955" y2="25.4" width="0.2032" layer="21"/>
<wire x1="20.955" y1="25.4" x2="22.225" y2="25.4" width="0.2032" layer="21"/>
<wire x1="22.225" y1="25.4" x2="22.86" y2="24.765" width="0.2032" layer="21"/>
<wire x1="22.86" y1="23.495" x2="22.225" y2="22.86" width="0.2032" layer="21"/>
<wire x1="22.225" y1="22.86" x2="20.955" y2="22.86" width="0.2032" layer="21"/>
<wire x1="20.955" y1="22.86" x2="20.32" y2="23.495" width="0.2032" layer="21"/>
<wire x1="17.78" y1="24.765" x2="17.78" y2="23.495" width="0.2032" layer="21"/>
<wire x1="18.415" y1="25.4" x2="17.78" y2="24.765" width="0.2032" layer="21"/>
<wire x1="17.78" y1="23.495" x2="18.415" y2="22.86" width="0.2032" layer="21"/>
<wire x1="19.685" y1="22.86" x2="18.415" y2="22.86" width="0.2032" layer="21"/>
<wire x1="36.195" y1="25.4" x2="37.465" y2="25.4" width="0.2032" layer="21"/>
<wire x1="37.465" y1="25.4" x2="38.1" y2="24.765" width="0.2032" layer="21"/>
<wire x1="38.1" y1="24.765" x2="38.1" y2="23.495" width="0.2032" layer="21"/>
<wire x1="38.1" y1="23.495" x2="37.465" y2="22.86" width="0.2032" layer="21"/>
<wire x1="36.195" y1="25.4" x2="35.56" y2="24.765" width="0.2032" layer="21"/>
<wire x1="35.56" y1="23.495" x2="36.195" y2="22.86" width="0.2032" layer="21"/>
<wire x1="37.465" y1="22.86" x2="36.195" y2="22.86" width="0.2032" layer="21"/>
<wire x1="15.875" y1="-22.86" x2="17.145" y2="-22.86" width="0.2032" layer="21"/>
<wire x1="17.145" y1="-22.86" x2="17.78" y2="-23.495" width="0.2032" layer="21"/>
<wire x1="17.78" y1="-24.765" x2="17.145" y2="-25.4" width="0.2032" layer="21"/>
<wire x1="12.7" y1="-23.495" x2="13.335" y2="-22.86" width="0.2032" layer="21"/>
<wire x1="13.335" y1="-22.86" x2="14.605" y2="-22.86" width="0.2032" layer="21"/>
<wire x1="14.605" y1="-22.86" x2="15.24" y2="-23.495" width="0.2032" layer="21"/>
<wire x1="15.24" y1="-24.765" x2="14.605" y2="-25.4" width="0.2032" layer="21"/>
<wire x1="14.605" y1="-25.4" x2="13.335" y2="-25.4" width="0.2032" layer="21"/>
<wire x1="13.335" y1="-25.4" x2="12.7" y2="-24.765" width="0.2032" layer="21"/>
<wire x1="15.875" y1="-22.86" x2="15.24" y2="-23.495" width="0.2032" layer="21"/>
<wire x1="15.24" y1="-24.765" x2="15.875" y2="-25.4" width="0.2032" layer="21"/>
<wire x1="17.145" y1="-25.4" x2="15.875" y2="-25.4" width="0.2032" layer="21"/>
<wire x1="8.255" y1="-22.86" x2="9.525" y2="-22.86" width="0.2032" layer="21"/>
<wire x1="9.525" y1="-22.86" x2="10.16" y2="-23.495" width="0.2032" layer="21"/>
<wire x1="10.16" y1="-24.765" x2="9.525" y2="-25.4" width="0.2032" layer="21"/>
<wire x1="10.16" y1="-23.495" x2="10.795" y2="-22.86" width="0.2032" layer="21"/>
<wire x1="10.795" y1="-22.86" x2="12.065" y2="-22.86" width="0.2032" layer="21"/>
<wire x1="12.065" y1="-22.86" x2="12.7" y2="-23.495" width="0.2032" layer="21"/>
<wire x1="12.7" y1="-24.765" x2="12.065" y2="-25.4" width="0.2032" layer="21"/>
<wire x1="12.065" y1="-25.4" x2="10.795" y2="-25.4" width="0.2032" layer="21"/>
<wire x1="10.795" y1="-25.4" x2="10.16" y2="-24.765" width="0.2032" layer="21"/>
<wire x1="5.08" y1="-23.495" x2="5.715" y2="-22.86" width="0.2032" layer="21"/>
<wire x1="5.715" y1="-22.86" x2="6.985" y2="-22.86" width="0.2032" layer="21"/>
<wire x1="6.985" y1="-22.86" x2="7.62" y2="-23.495" width="0.2032" layer="21"/>
<wire x1="7.62" y1="-24.765" x2="6.985" y2="-25.4" width="0.2032" layer="21"/>
<wire x1="6.985" y1="-25.4" x2="5.715" y2="-25.4" width="0.2032" layer="21"/>
<wire x1="5.715" y1="-25.4" x2="5.08" y2="-24.765" width="0.2032" layer="21"/>
<wire x1="8.255" y1="-22.86" x2="7.62" y2="-23.495" width="0.2032" layer="21"/>
<wire x1="7.62" y1="-24.765" x2="8.255" y2="-25.4" width="0.2032" layer="21"/>
<wire x1="9.525" y1="-25.4" x2="8.255" y2="-25.4" width="0.2032" layer="21"/>
<wire x1="0.635" y1="-22.86" x2="1.905" y2="-22.86" width="0.2032" layer="21"/>
<wire x1="1.905" y1="-22.86" x2="2.54" y2="-23.495" width="0.2032" layer="21"/>
<wire x1="2.54" y1="-24.765" x2="1.905" y2="-25.4" width="0.2032" layer="21"/>
<wire x1="2.54" y1="-23.495" x2="3.175" y2="-22.86" width="0.2032" layer="21"/>
<wire x1="3.175" y1="-22.86" x2="4.445" y2="-22.86" width="0.2032" layer="21"/>
<wire x1="4.445" y1="-22.86" x2="5.08" y2="-23.495" width="0.2032" layer="21"/>
<wire x1="5.08" y1="-24.765" x2="4.445" y2="-25.4" width="0.2032" layer="21"/>
<wire x1="4.445" y1="-25.4" x2="3.175" y2="-25.4" width="0.2032" layer="21"/>
<wire x1="3.175" y1="-25.4" x2="2.54" y2="-24.765" width="0.2032" layer="21"/>
<wire x1="0" y1="-23.495" x2="0" y2="-24.765" width="0.2032" layer="21"/>
<wire x1="0.635" y1="-22.86" x2="0" y2="-23.495" width="0.2032" layer="21"/>
<wire x1="0" y1="-24.765" x2="0.635" y2="-25.4" width="0.2032" layer="21"/>
<wire x1="1.905" y1="-25.4" x2="0.635" y2="-25.4" width="0.2032" layer="21"/>
<wire x1="18.415" y1="-22.86" x2="19.685" y2="-22.86" width="0.2032" layer="21"/>
<wire x1="19.685" y1="-22.86" x2="20.32" y2="-23.495" width="0.2032" layer="21"/>
<wire x1="20.32" y1="-23.495" x2="20.32" y2="-24.765" width="0.2032" layer="21"/>
<wire x1="20.32" y1="-24.765" x2="19.685" y2="-25.4" width="0.2032" layer="21"/>
<wire x1="18.415" y1="-22.86" x2="17.78" y2="-23.495" width="0.2032" layer="21"/>
<wire x1="17.78" y1="-24.765" x2="18.415" y2="-25.4" width="0.2032" layer="21"/>
<wire x1="19.685" y1="-25.4" x2="18.415" y2="-25.4" width="0.2032" layer="21"/>
<wire x1="10.795" y1="25.4" x2="12.065" y2="25.4" width="0.2032" layer="21"/>
<wire x1="12.065" y1="25.4" x2="12.7" y2="24.765" width="0.2032" layer="21"/>
<wire x1="12.7" y1="23.495" x2="12.065" y2="22.86" width="0.2032" layer="21"/>
<wire x1="7.62" y1="24.765" x2="8.255" y2="25.4" width="0.2032" layer="21"/>
<wire x1="8.255" y1="25.4" x2="9.525" y2="25.4" width="0.2032" layer="21"/>
<wire x1="9.525" y1="25.4" x2="10.16" y2="24.765" width="0.2032" layer="21"/>
<wire x1="10.16" y1="23.495" x2="9.525" y2="22.86" width="0.2032" layer="21"/>
<wire x1="9.525" y1="22.86" x2="8.255" y2="22.86" width="0.2032" layer="21"/>
<wire x1="8.255" y1="22.86" x2="7.62" y2="23.495" width="0.2032" layer="21"/>
<wire x1="10.795" y1="25.4" x2="10.16" y2="24.765" width="0.2032" layer="21"/>
<wire x1="10.16" y1="23.495" x2="10.795" y2="22.86" width="0.2032" layer="21"/>
<wire x1="12.065" y1="22.86" x2="10.795" y2="22.86" width="0.2032" layer="21"/>
<wire x1="3.175" y1="25.4" x2="4.445" y2="25.4" width="0.2032" layer="21"/>
<wire x1="4.445" y1="25.4" x2="5.08" y2="24.765" width="0.2032" layer="21"/>
<wire x1="5.08" y1="23.495" x2="4.445" y2="22.86" width="0.2032" layer="21"/>
<wire x1="5.08" y1="24.765" x2="5.715" y2="25.4" width="0.2032" layer="21"/>
<wire x1="5.715" y1="25.4" x2="6.985" y2="25.4" width="0.2032" layer="21"/>
<wire x1="6.985" y1="25.4" x2="7.62" y2="24.765" width="0.2032" layer="21"/>
<wire x1="7.62" y1="23.495" x2="6.985" y2="22.86" width="0.2032" layer="21"/>
<wire x1="6.985" y1="22.86" x2="5.715" y2="22.86" width="0.2032" layer="21"/>
<wire x1="5.715" y1="22.86" x2="5.08" y2="23.495" width="0.2032" layer="21"/>
<wire x1="0" y1="24.765" x2="0.635" y2="25.4" width="0.2032" layer="21"/>
<wire x1="0.635" y1="25.4" x2="1.905" y2="25.4" width="0.2032" layer="21"/>
<wire x1="1.905" y1="25.4" x2="2.54" y2="24.765" width="0.2032" layer="21"/>
<wire x1="2.54" y1="23.495" x2="1.905" y2="22.86" width="0.2032" layer="21"/>
<wire x1="1.905" y1="22.86" x2="0.635" y2="22.86" width="0.2032" layer="21"/>
<wire x1="0.635" y1="22.86" x2="0" y2="23.495" width="0.2032" layer="21"/>
<wire x1="3.175" y1="25.4" x2="2.54" y2="24.765" width="0.2032" layer="21"/>
<wire x1="2.54" y1="23.495" x2="3.175" y2="22.86" width="0.2032" layer="21"/>
<wire x1="4.445" y1="22.86" x2="3.175" y2="22.86" width="0.2032" layer="21"/>
<wire x1="-4.445" y1="25.4" x2="-3.175" y2="25.4" width="0.2032" layer="21"/>
<wire x1="-3.175" y1="25.4" x2="-2.54" y2="24.765" width="0.2032" layer="21"/>
<wire x1="-2.54" y1="23.495" x2="-3.175" y2="22.86" width="0.2032" layer="21"/>
<wire x1="-2.54" y1="24.765" x2="-1.905" y2="25.4" width="0.2032" layer="21"/>
<wire x1="-1.905" y1="25.4" x2="-0.635" y2="25.4" width="0.2032" layer="21"/>
<wire x1="-0.635" y1="25.4" x2="0" y2="24.765" width="0.2032" layer="21"/>
<wire x1="0" y1="23.495" x2="-0.635" y2="22.86" width="0.2032" layer="21"/>
<wire x1="-0.635" y1="22.86" x2="-1.905" y2="22.86" width="0.2032" layer="21"/>
<wire x1="-1.905" y1="22.86" x2="-2.54" y2="23.495" width="0.2032" layer="21"/>
<wire x1="-5.08" y1="24.765" x2="-5.08" y2="23.495" width="0.2032" layer="21"/>
<wire x1="-4.445" y1="25.4" x2="-5.08" y2="24.765" width="0.2032" layer="21"/>
<wire x1="-5.08" y1="23.495" x2="-4.445" y2="22.86" width="0.2032" layer="21"/>
<wire x1="-3.175" y1="22.86" x2="-4.445" y2="22.86" width="0.2032" layer="21"/>
<wire x1="13.335" y1="25.4" x2="14.605" y2="25.4" width="0.2032" layer="21"/>
<wire x1="14.605" y1="25.4" x2="15.24" y2="24.765" width="0.2032" layer="21"/>
<wire x1="15.24" y1="24.765" x2="15.24" y2="23.495" width="0.2032" layer="21"/>
<wire x1="15.24" y1="23.495" x2="14.605" y2="22.86" width="0.2032" layer="21"/>
<wire x1="13.335" y1="25.4" x2="12.7" y2="24.765" width="0.2032" layer="21"/>
<wire x1="12.7" y1="23.495" x2="13.335" y2="22.86" width="0.2032" layer="21"/>
<wire x1="14.605" y1="22.86" x2="13.335" y2="22.86" width="0.2032" layer="21"/>
<wire x1="-11.049" y1="25.4" x2="-9.779" y2="25.4" width="0.2032" layer="21"/>
<wire x1="-9.779" y1="25.4" x2="-9.144" y2="24.765" width="0.2032" layer="21"/>
<wire x1="-9.144" y1="23.495" x2="-9.779" y2="22.86" width="0.2032" layer="21"/>
<wire x1="-14.224" y1="24.765" x2="-13.589" y2="25.4" width="0.2032" layer="21"/>
<wire x1="-13.589" y1="25.4" x2="-12.319" y2="25.4" width="0.2032" layer="21"/>
<wire x1="-12.319" y1="25.4" x2="-11.684" y2="24.765" width="0.2032" layer="21"/>
<wire x1="-11.684" y1="23.495" x2="-12.319" y2="22.86" width="0.2032" layer="21"/>
<wire x1="-12.319" y1="22.86" x2="-13.589" y2="22.86" width="0.2032" layer="21"/>
<wire x1="-13.589" y1="22.86" x2="-14.224" y2="23.495" width="0.2032" layer="21"/>
<wire x1="-11.049" y1="25.4" x2="-11.684" y2="24.765" width="0.2032" layer="21"/>
<wire x1="-11.684" y1="23.495" x2="-11.049" y2="22.86" width="0.2032" layer="21"/>
<wire x1="-9.779" y1="22.86" x2="-11.049" y2="22.86" width="0.2032" layer="21"/>
<wire x1="-18.669" y1="25.4" x2="-17.399" y2="25.4" width="0.2032" layer="21"/>
<wire x1="-17.399" y1="25.4" x2="-16.764" y2="24.765" width="0.2032" layer="21"/>
<wire x1="-16.764" y1="23.495" x2="-17.399" y2="22.86" width="0.2032" layer="21"/>
<wire x1="-16.764" y1="24.765" x2="-16.129" y2="25.4" width="0.2032" layer="21"/>
<wire x1="-16.129" y1="25.4" x2="-14.859" y2="25.4" width="0.2032" layer="21"/>
<wire x1="-14.859" y1="25.4" x2="-14.224" y2="24.765" width="0.2032" layer="21"/>
<wire x1="-14.224" y1="23.495" x2="-14.859" y2="22.86" width="0.2032" layer="21"/>
<wire x1="-14.859" y1="22.86" x2="-16.129" y2="22.86" width="0.2032" layer="21"/>
<wire x1="-16.129" y1="22.86" x2="-16.764" y2="23.495" width="0.2032" layer="21"/>
<wire x1="-21.844" y1="24.765" x2="-21.209" y2="25.4" width="0.2032" layer="21"/>
<wire x1="-21.209" y1="25.4" x2="-19.939" y2="25.4" width="0.2032" layer="21"/>
<wire x1="-19.939" y1="25.4" x2="-19.304" y2="24.765" width="0.2032" layer="21"/>
<wire x1="-19.304" y1="23.495" x2="-19.939" y2="22.86" width="0.2032" layer="21"/>
<wire x1="-19.939" y1="22.86" x2="-21.209" y2="22.86" width="0.2032" layer="21"/>
<wire x1="-21.209" y1="22.86" x2="-21.844" y2="23.495" width="0.2032" layer="21"/>
<wire x1="-18.669" y1="25.4" x2="-19.304" y2="24.765" width="0.2032" layer="21"/>
<wire x1="-19.304" y1="23.495" x2="-18.669" y2="22.86" width="0.2032" layer="21"/>
<wire x1="-17.399" y1="22.86" x2="-18.669" y2="22.86" width="0.2032" layer="21"/>
<wire x1="-26.289" y1="25.4" x2="-25.019" y2="25.4" width="0.2032" layer="21"/>
<wire x1="-25.019" y1="25.4" x2="-24.384" y2="24.765" width="0.2032" layer="21"/>
<wire x1="-24.384" y1="23.495" x2="-25.019" y2="22.86" width="0.2032" layer="21"/>
<wire x1="-24.384" y1="24.765" x2="-23.749" y2="25.4" width="0.2032" layer="21"/>
<wire x1="-23.749" y1="25.4" x2="-22.479" y2="25.4" width="0.2032" layer="21"/>
<wire x1="-22.479" y1="25.4" x2="-21.844" y2="24.765" width="0.2032" layer="21"/>
<wire x1="-21.844" y1="23.495" x2="-22.479" y2="22.86" width="0.2032" layer="21"/>
<wire x1="-22.479" y1="22.86" x2="-23.749" y2="22.86" width="0.2032" layer="21"/>
<wire x1="-23.749" y1="22.86" x2="-24.384" y2="23.495" width="0.2032" layer="21"/>
<wire x1="-26.924" y1="24.765" x2="-26.924" y2="23.495" width="0.2032" layer="21"/>
<wire x1="-26.289" y1="25.4" x2="-26.924" y2="24.765" width="0.2032" layer="21"/>
<wire x1="-26.924" y1="23.495" x2="-26.289" y2="22.86" width="0.2032" layer="21"/>
<wire x1="-25.019" y1="22.86" x2="-26.289" y2="22.86" width="0.2032" layer="21"/>
<wire x1="-8.509" y1="25.4" x2="-7.239" y2="25.4" width="0.2032" layer="21"/>
<wire x1="-7.239" y1="25.4" x2="-6.604" y2="24.765" width="0.2032" layer="21"/>
<wire x1="-6.604" y1="24.765" x2="-6.604" y2="23.495" width="0.2032" layer="21"/>
<wire x1="-6.604" y1="23.495" x2="-7.239" y2="22.86" width="0.2032" layer="21"/>
<wire x1="-8.509" y1="25.4" x2="-9.144" y2="24.765" width="0.2032" layer="21"/>
<wire x1="-9.144" y1="23.495" x2="-8.509" y2="22.86" width="0.2032" layer="21"/>
<wire x1="-7.239" y1="22.86" x2="-8.509" y2="22.86" width="0.2032" layer="21"/>
<wire x1="13.462" y1="5.08" x2="12.827" y2="4.445" width="0.2032" layer="51"/>
<wire x1="12.827" y1="3.175" x2="13.462" y2="2.54" width="0.2032" layer="51"/>
<wire x1="13.462" y1="2.54" x2="12.827" y2="1.905" width="0.2032" layer="51"/>
<wire x1="12.827" y1="0.635" x2="13.462" y2="0" width="0.2032" layer="51"/>
<wire x1="13.462" y1="0" x2="12.827" y2="-0.635" width="0.2032" layer="51"/>
<wire x1="12.827" y1="-1.905" x2="13.462" y2="-2.54" width="0.2032" layer="51"/>
<wire x1="13.462" y1="5.08" x2="17.272" y2="5.08" width="0.2032" layer="51"/>
<wire x1="17.272" y1="5.08" x2="17.907" y2="4.445" width="0.2032" layer="51"/>
<wire x1="17.907" y1="4.445" x2="17.907" y2="3.175" width="0.2032" layer="51"/>
<wire x1="17.907" y1="3.175" x2="17.272" y2="2.54" width="0.2032" layer="51"/>
<wire x1="17.272" y1="2.54" x2="17.907" y2="1.905" width="0.2032" layer="51"/>
<wire x1="17.907" y1="1.905" x2="17.907" y2="0.635" width="0.2032" layer="51"/>
<wire x1="17.907" y1="0.635" x2="17.272" y2="0" width="0.2032" layer="51"/>
<wire x1="17.272" y1="0" x2="17.907" y2="-0.635" width="0.2032" layer="51"/>
<wire x1="17.907" y1="-0.635" x2="17.907" y2="-1.905" width="0.2032" layer="51"/>
<wire x1="17.907" y1="-1.905" x2="17.272" y2="-2.54" width="0.2032" layer="51"/>
<wire x1="17.272" y1="2.54" x2="13.462" y2="2.54" width="0.2032" layer="51"/>
<wire x1="17.272" y1="0" x2="13.462" y2="0" width="0.2032" layer="51"/>
<wire x1="17.272" y1="-2.54" x2="13.462" y2="-2.54" width="0.2032" layer="51"/>
<wire x1="12.827" y1="-0.635" x2="12.827" y2="-1.905" width="0.2032" layer="51"/>
<wire x1="12.827" y1="1.905" x2="12.827" y2="0.635" width="0.2032" layer="51"/>
<wire x1="12.827" y1="4.445" x2="12.827" y2="3.175" width="0.2032" layer="51"/>
<wire x1="12.492" y1="3.175" x2="12.492" y2="4.445" width="0.2032" layer="51"/>
<wire x1="47.625" y1="2.54" x2="48.26" y2="3.175" width="0.1524" layer="21"/>
<wire x1="48.26" y1="4.445" x2="47.625" y2="5.08" width="0.1524" layer="21"/>
<wire x1="47.625" y1="5.08" x2="48.26" y2="5.715" width="0.1524" layer="21"/>
<wire x1="48.26" y1="6.985" x2="47.625" y2="7.62" width="0.1524" layer="21"/>
<wire x1="47.625" y1="7.62" x2="48.26" y2="8.255" width="0.1524" layer="21"/>
<wire x1="48.26" y1="9.525" x2="47.625" y2="10.16" width="0.1524" layer="21"/>
<wire x1="47.625" y1="10.16" x2="48.26" y2="10.795" width="0.1524" layer="21"/>
<wire x1="48.26" y1="12.065" x2="47.625" y2="12.7" width="0.1524" layer="21"/>
<wire x1="47.625" y1="12.7" x2="48.26" y2="13.335" width="0.1524" layer="21"/>
<wire x1="48.26" y1="14.605" x2="47.625" y2="15.24" width="0.1524" layer="21"/>
<wire x1="47.625" y1="15.24" x2="48.26" y2="15.875" width="0.1524" layer="21"/>
<wire x1="48.26" y1="17.145" x2="47.625" y2="17.78" width="0.1524" layer="21"/>
<wire x1="43.815" y1="2.54" x2="43.18" y2="3.175" width="0.1524" layer="21"/>
<wire x1="43.18" y1="3.175" x2="43.18" y2="4.445" width="0.1524" layer="21"/>
<wire x1="43.18" y1="4.445" x2="43.815" y2="5.08" width="0.1524" layer="21"/>
<wire x1="43.815" y1="5.08" x2="43.18" y2="5.715" width="0.1524" layer="21"/>
<wire x1="43.18" y1="5.715" x2="43.18" y2="6.985" width="0.1524" layer="21"/>
<wire x1="43.18" y1="6.985" x2="43.815" y2="7.62" width="0.1524" layer="21"/>
<wire x1="43.815" y1="7.62" x2="43.18" y2="8.255" width="0.1524" layer="21"/>
<wire x1="43.18" y1="8.255" x2="43.18" y2="9.525" width="0.1524" layer="21"/>
<wire x1="43.18" y1="9.525" x2="43.815" y2="10.16" width="0.1524" layer="21"/>
<wire x1="43.815" y1="10.16" x2="43.18" y2="10.795" width="0.1524" layer="21"/>
<wire x1="43.18" y1="10.795" x2="43.18" y2="12.065" width="0.1524" layer="21"/>
<wire x1="43.18" y1="12.065" x2="43.815" y2="12.7" width="0.1524" layer="21"/>
<wire x1="43.815" y1="12.7" x2="43.18" y2="13.335" width="0.1524" layer="21"/>
<wire x1="43.18" y1="13.335" x2="43.18" y2="14.605" width="0.1524" layer="21"/>
<wire x1="43.18" y1="14.605" x2="43.815" y2="15.24" width="0.1524" layer="21"/>
<wire x1="43.815" y1="15.24" x2="43.18" y2="15.875" width="0.1524" layer="21"/>
<wire x1="43.18" y1="15.875" x2="43.18" y2="17.145" width="0.1524" layer="21"/>
<wire x1="43.18" y1="17.145" x2="43.815" y2="17.78" width="0.1524" layer="21"/>
<wire x1="43.815" y1="17.78" x2="43.18" y2="18.415" width="0.1524" layer="21"/>
<wire x1="43.18" y1="18.415" x2="43.18" y2="19.685" width="0.1524" layer="21"/>
<wire x1="43.18" y1="19.685" x2="43.815" y2="20.32" width="0.1524" layer="21"/>
<wire x1="43.815" y1="20.32" x2="43.18" y2="20.955" width="0.1524" layer="21"/>
<wire x1="43.18" y1="20.955" x2="43.18" y2="22.225" width="0.1524" layer="21"/>
<wire x1="43.18" y1="22.225" x2="43.815" y2="22.86" width="0.1524" layer="21"/>
<wire x1="47.625" y1="22.86" x2="48.26" y2="22.225" width="0.1524" layer="21"/>
<wire x1="47.625" y1="20.32" x2="48.26" y2="20.955" width="0.1524" layer="21"/>
<wire x1="47.625" y1="20.32" x2="48.26" y2="19.685" width="0.1524" layer="21"/>
<wire x1="47.625" y1="17.78" x2="48.26" y2="18.415" width="0.1524" layer="21"/>
<wire x1="43.815" y1="5.08" x2="47.625" y2="5.08" width="0.1524" layer="21"/>
<wire x1="43.815" y1="7.62" x2="47.625" y2="7.62" width="0.1524" layer="21"/>
<wire x1="43.815" y1="10.16" x2="47.625" y2="10.16" width="0.1524" layer="21"/>
<wire x1="43.815" y1="12.7" x2="47.625" y2="12.7" width="0.1524" layer="21"/>
<wire x1="43.815" y1="15.24" x2="47.625" y2="15.24" width="0.1524" layer="21"/>
<wire x1="43.815" y1="17.78" x2="47.625" y2="17.78" width="0.1524" layer="21"/>
<wire x1="43.815" y1="20.32" x2="47.625" y2="20.32" width="0.1524" layer="21"/>
<wire x1="48.26" y1="20.955" x2="48.26" y2="22.225" width="0.1524" layer="21"/>
<wire x1="48.26" y1="18.415" x2="48.26" y2="19.685" width="0.1524" layer="21"/>
<wire x1="48.26" y1="15.875" x2="48.26" y2="17.145" width="0.1524" layer="21"/>
<wire x1="48.26" y1="13.335" x2="48.26" y2="14.605" width="0.1524" layer="21"/>
<wire x1="48.26" y1="10.795" x2="48.26" y2="12.065" width="0.1524" layer="21"/>
<wire x1="48.26" y1="8.255" x2="48.26" y2="9.525" width="0.1524" layer="21"/>
<wire x1="48.26" y1="5.715" x2="48.26" y2="6.985" width="0.1524" layer="21"/>
<wire x1="48.26" y1="3.175" x2="48.26" y2="4.445" width="0.1524" layer="21"/>
<wire x1="47.625" y1="-17.78" x2="48.26" y2="-17.145" width="0.1524" layer="21"/>
<wire x1="48.26" y1="-15.875" x2="47.625" y2="-15.24" width="0.1524" layer="21"/>
<wire x1="47.625" y1="-15.24" x2="48.26" y2="-14.605" width="0.1524" layer="21"/>
<wire x1="48.26" y1="-13.335" x2="47.625" y2="-12.7" width="0.1524" layer="21"/>
<wire x1="47.625" y1="-12.7" x2="48.26" y2="-12.065" width="0.1524" layer="21"/>
<wire x1="48.26" y1="-10.795" x2="47.625" y2="-10.16" width="0.1524" layer="21"/>
<wire x1="47.625" y1="-10.16" x2="48.26" y2="-9.525" width="0.1524" layer="21"/>
<wire x1="48.26" y1="-8.255" x2="47.625" y2="-7.62" width="0.1524" layer="21"/>
<wire x1="47.625" y1="-7.62" x2="48.26" y2="-6.985" width="0.1524" layer="21"/>
<wire x1="48.26" y1="-5.715" x2="47.625" y2="-5.08" width="0.1524" layer="21"/>
<wire x1="47.625" y1="-5.08" x2="48.26" y2="-4.445" width="0.1524" layer="21"/>
<wire x1="48.26" y1="-3.175" x2="47.625" y2="-2.54" width="0.1524" layer="21"/>
<wire x1="43.815" y1="-17.78" x2="43.18" y2="-17.145" width="0.1524" layer="21"/>
<wire x1="43.18" y1="-17.145" x2="43.18" y2="-15.875" width="0.1524" layer="21"/>
<wire x1="43.18" y1="-15.875" x2="43.815" y2="-15.24" width="0.1524" layer="21"/>
<wire x1="43.815" y1="-15.24" x2="43.18" y2="-14.605" width="0.1524" layer="21"/>
<wire x1="43.18" y1="-14.605" x2="43.18" y2="-13.335" width="0.1524" layer="21"/>
<wire x1="43.18" y1="-13.335" x2="43.815" y2="-12.7" width="0.1524" layer="21"/>
<wire x1="43.815" y1="-12.7" x2="43.18" y2="-12.065" width="0.1524" layer="21"/>
<wire x1="43.18" y1="-12.065" x2="43.18" y2="-10.795" width="0.1524" layer="21"/>
<wire x1="43.18" y1="-10.795" x2="43.815" y2="-10.16" width="0.1524" layer="21"/>
<wire x1="43.815" y1="-10.16" x2="43.18" y2="-9.525" width="0.1524" layer="21"/>
<wire x1="43.18" y1="-9.525" x2="43.18" y2="-8.255" width="0.1524" layer="21"/>
<wire x1="43.18" y1="-8.255" x2="43.815" y2="-7.62" width="0.1524" layer="21"/>
<wire x1="43.815" y1="-7.62" x2="43.18" y2="-6.985" width="0.1524" layer="21"/>
<wire x1="43.18" y1="-6.985" x2="43.18" y2="-5.715" width="0.1524" layer="21"/>
<wire x1="43.18" y1="-5.715" x2="43.815" y2="-5.08" width="0.1524" layer="21"/>
<wire x1="43.815" y1="-5.08" x2="43.18" y2="-4.445" width="0.1524" layer="21"/>
<wire x1="43.18" y1="-4.445" x2="43.18" y2="-3.175" width="0.1524" layer="21"/>
<wire x1="43.18" y1="-3.175" x2="43.815" y2="-2.54" width="0.1524" layer="21"/>
<wire x1="43.815" y1="-2.54" x2="43.18" y2="-1.905" width="0.1524" layer="21"/>
<wire x1="43.18" y1="-1.905" x2="43.18" y2="-0.635" width="0.1524" layer="21"/>
<wire x1="43.18" y1="-0.635" x2="43.815" y2="0" width="0.1524" layer="21"/>
<wire x1="43.815" y1="0" x2="43.18" y2="0.635" width="0.1524" layer="21"/>
<wire x1="43.18" y1="0.635" x2="43.18" y2="1.905" width="0.1524" layer="21"/>
<wire x1="43.18" y1="1.905" x2="43.815" y2="2.54" width="0.1524" layer="21"/>
<wire x1="47.625" y1="2.54" x2="48.26" y2="1.905" width="0.1524" layer="21"/>
<wire x1="47.625" y1="0" x2="48.26" y2="0.635" width="0.1524" layer="21"/>
<wire x1="47.625" y1="0" x2="48.26" y2="-0.635" width="0.1524" layer="21"/>
<wire x1="47.625" y1="-2.54" x2="48.26" y2="-1.905" width="0.1524" layer="21"/>
<wire x1="43.815" y1="-15.24" x2="47.625" y2="-15.24" width="0.1524" layer="21"/>
<wire x1="43.815" y1="-12.7" x2="47.625" y2="-12.7" width="0.1524" layer="21"/>
<wire x1="43.815" y1="-10.16" x2="47.625" y2="-10.16" width="0.1524" layer="21"/>
<wire x1="43.815" y1="-7.62" x2="47.625" y2="-7.62" width="0.1524" layer="21"/>
<wire x1="43.815" y1="-5.08" x2="47.625" y2="-5.08" width="0.1524" layer="21"/>
<wire x1="43.815" y1="-2.54" x2="47.625" y2="-2.54" width="0.1524" layer="21"/>
<wire x1="43.815" y1="0" x2="47.625" y2="0" width="0.1524" layer="21"/>
<wire x1="43.815" y1="2.54" x2="47.625" y2="2.54" width="0.1524" layer="21"/>
<wire x1="48.26" y1="0.635" x2="48.26" y2="1.905" width="0.1524" layer="21"/>
<wire x1="48.26" y1="-1.905" x2="48.26" y2="-0.635" width="0.1524" layer="21"/>
<wire x1="48.26" y1="-4.445" x2="48.26" y2="-3.175" width="0.1524" layer="21"/>
<wire x1="48.26" y1="-6.985" x2="48.26" y2="-5.715" width="0.1524" layer="21"/>
<wire x1="48.26" y1="-9.525" x2="48.26" y2="-8.255" width="0.1524" layer="21"/>
<wire x1="48.26" y1="-12.065" x2="48.26" y2="-10.795" width="0.1524" layer="21"/>
<wire x1="48.26" y1="-14.605" x2="48.26" y2="-13.335" width="0.1524" layer="21"/>
<wire x1="48.26" y1="-17.145" x2="48.26" y2="-15.875" width="0.1524" layer="21"/>
<wire x1="47.625" y1="-17.78" x2="48.26" y2="-18.415" width="0.2032" layer="21"/>
<wire x1="48.26" y1="-19.685" x2="47.625" y2="-20.32" width="0.2032" layer="21"/>
<wire x1="43.18" y1="-18.415" x2="43.18" y2="-19.685" width="0.2032" layer="21"/>
<wire x1="43.815" y1="-17.78" x2="43.18" y2="-18.415" width="0.2032" layer="21"/>
<wire x1="43.18" y1="-19.685" x2="43.815" y2="-20.32" width="0.2032" layer="21"/>
<wire x1="48.26" y1="-18.415" x2="48.26" y2="-19.685" width="0.2032" layer="21"/>
<wire x1="43.815" y1="-17.78" x2="47.625" y2="-17.78" width="0.2032" layer="21"/>
<wire x1="47.625" y1="-20.32" x2="43.815" y2="-20.32" width="0.2032" layer="21"/>
<wire x1="47.625" y1="25.4" x2="48.26" y2="24.765" width="0.2032" layer="21"/>
<wire x1="48.26" y1="23.495" x2="47.625" y2="22.86" width="0.2032" layer="21"/>
<wire x1="43.18" y1="24.765" x2="43.18" y2="23.495" width="0.2032" layer="21"/>
<wire x1="43.815" y1="25.4" x2="43.18" y2="24.765" width="0.2032" layer="21"/>
<wire x1="43.18" y1="23.495" x2="43.815" y2="22.86" width="0.2032" layer="21"/>
<wire x1="48.26" y1="24.765" x2="48.26" y2="23.495" width="0.2032" layer="21"/>
<wire x1="43.815" y1="25.4" x2="47.625" y2="25.4" width="0.2032" layer="21"/>
<wire x1="47.625" y1="22.86" x2="43.815" y2="22.86" width="0.2032" layer="21"/>
<wire x1="9.906" y1="16.383" x2="-21.463" y2="16.383" width="0.3048" layer="21"/>
<wire x1="10.414" y1="13.081" x2="35.941" y2="13.081" width="0.3048" layer="21"/>
<wire x1="36.7284" y1="12.8778" x2="36.7284" y2="-15.24" width="0.3048" layer="21"/>
<wire x1="38.7604" y1="14.9098" x2="38.7604" y2="21.971" width="0.3048" layer="21"/>
<wire x1="44.45" y1="25.4762" x2="44.45" y2="26.1112" width="0.3048" layer="21"/>
<wire x1="44.45" y1="26.1112" x2="46.99" y2="26.1112" width="0.3048" layer="21"/>
<wire x1="46.99" y1="26.1112" x2="46.99" y2="25.4508" width="0.3048" layer="21"/>
<wire x1="44.45" y1="-20.3962" x2="44.45" y2="-21.1328" width="0.3048" layer="21"/>
<wire x1="44.45" y1="-21.1328" x2="46.99" y2="-21.1328" width="0.3048" layer="21"/>
<wire x1="46.99" y1="-21.1328" x2="46.99" y2="-20.3708" width="0.3048" layer="21"/>
<wire x1="36.703" y1="-16.1036" x2="0.381" y2="-16.1036" width="0.3048" layer="21"/>
<wire x1="36.703" y1="-16.1036" x2="38.4048" y2="-17.8054" width="0.3048" layer="21"/>
<wire x1="38.4048" y1="-17.8054" x2="51.2826" y2="-17.8054" width="0.3048" layer="21"/>
<wire x1="36.7284" y1="12.8778" x2="38.7604" y2="14.9098" width="0.3048" layer="21"/>
<wire x1="48.26" y1="-20.32" x2="51.2572" y2="-20.32" width="0.3048" layer="21"/>
<wire x1="11.303" y1="19.05" x2="11.303" y2="20.32" width="0.2032" layer="21"/>
<wire x1="10.795" y1="19.812" x2="11.303" y2="20.32" width="0.2032" layer="21"/>
<wire x1="11.303" y1="20.32" x2="11.811" y2="19.812" width="0.2032" layer="21"/>
<wire x1="13.843" y1="20.32" x2="13.843" y2="19.05" width="0.2032" layer="21"/>
<wire x1="14.351" y1="19.558" x2="13.843" y2="19.05" width="0.2032" layer="21"/>
<wire x1="13.843" y1="19.05" x2="13.335" y2="19.558" width="0.2032" layer="21"/>
<wire x1="-2.921" y1="-16.1036" x2="-17.399" y2="-16.1036" width="0.3048" layer="21"/>
<wire x1="-5.08" y1="-23.495" x2="-4.445" y2="-22.86" width="0.2032" layer="21"/>
<wire x1="-4.445" y1="-22.86" x2="-3.175" y2="-22.86" width="0.2032" layer="21"/>
<wire x1="-3.175" y1="-22.86" x2="-2.54" y2="-23.495" width="0.2032" layer="21"/>
<wire x1="-2.54" y1="-24.765" x2="-3.175" y2="-25.4" width="0.2032" layer="21"/>
<wire x1="-3.175" y1="-25.4" x2="-4.445" y2="-25.4" width="0.2032" layer="21"/>
<wire x1="-4.445" y1="-25.4" x2="-5.08" y2="-24.765" width="0.2032" layer="21"/>
<wire x1="-9.525" y1="-22.86" x2="-8.255" y2="-22.86" width="0.2032" layer="21"/>
<wire x1="-8.255" y1="-22.86" x2="-7.62" y2="-23.495" width="0.2032" layer="21"/>
<wire x1="-7.62" y1="-24.765" x2="-8.255" y2="-25.4" width="0.2032" layer="21"/>
<wire x1="-7.62" y1="-23.495" x2="-6.985" y2="-22.86" width="0.2032" layer="21"/>
<wire x1="-6.985" y1="-22.86" x2="-5.715" y2="-22.86" width="0.2032" layer="21"/>
<wire x1="-5.715" y1="-22.86" x2="-5.08" y2="-23.495" width="0.2032" layer="21"/>
<wire x1="-5.08" y1="-24.765" x2="-5.715" y2="-25.4" width="0.2032" layer="21"/>
<wire x1="-5.715" y1="-25.4" x2="-6.985" y2="-25.4" width="0.2032" layer="21"/>
<wire x1="-6.985" y1="-25.4" x2="-7.62" y2="-24.765" width="0.2032" layer="21"/>
<wire x1="-12.7" y1="-23.495" x2="-12.065" y2="-22.86" width="0.2032" layer="21"/>
<wire x1="-12.065" y1="-22.86" x2="-10.795" y2="-22.86" width="0.2032" layer="21"/>
<wire x1="-10.795" y1="-22.86" x2="-10.16" y2="-23.495" width="0.2032" layer="21"/>
<wire x1="-10.16" y1="-24.765" x2="-10.795" y2="-25.4" width="0.2032" layer="21"/>
<wire x1="-10.795" y1="-25.4" x2="-12.065" y2="-25.4" width="0.2032" layer="21"/>
<wire x1="-12.065" y1="-25.4" x2="-12.7" y2="-24.765" width="0.2032" layer="21"/>
<wire x1="-9.525" y1="-22.86" x2="-10.16" y2="-23.495" width="0.2032" layer="21"/>
<wire x1="-10.16" y1="-24.765" x2="-9.525" y2="-25.4" width="0.2032" layer="21"/>
<wire x1="-8.255" y1="-25.4" x2="-9.525" y2="-25.4" width="0.2032" layer="21"/>
<wire x1="-17.145" y1="-22.86" x2="-15.875" y2="-22.86" width="0.2032" layer="21"/>
<wire x1="-15.875" y1="-22.86" x2="-15.24" y2="-23.495" width="0.2032" layer="21"/>
<wire x1="-15.24" y1="-24.765" x2="-15.875" y2="-25.4" width="0.2032" layer="21"/>
<wire x1="-15.24" y1="-23.495" x2="-14.605" y2="-22.86" width="0.2032" layer="21"/>
<wire x1="-14.605" y1="-22.86" x2="-13.335" y2="-22.86" width="0.2032" layer="21"/>
<wire x1="-13.335" y1="-22.86" x2="-12.7" y2="-23.495" width="0.2032" layer="21"/>
<wire x1="-12.7" y1="-24.765" x2="-13.335" y2="-25.4" width="0.2032" layer="21"/>
<wire x1="-13.335" y1="-25.4" x2="-14.605" y2="-25.4" width="0.2032" layer="21"/>
<wire x1="-14.605" y1="-25.4" x2="-15.24" y2="-24.765" width="0.2032" layer="21"/>
<wire x1="-17.78" y1="-23.495" x2="-17.78" y2="-24.765" width="0.2032" layer="21"/>
<wire x1="-17.145" y1="-22.86" x2="-17.78" y2="-23.495" width="0.2032" layer="21"/>
<wire x1="-17.78" y1="-24.765" x2="-17.145" y2="-25.4" width="0.2032" layer="21"/>
<wire x1="-15.875" y1="-25.4" x2="-17.145" y2="-25.4" width="0.2032" layer="21"/>
<wire x1="-2.54" y1="-23.495" x2="-2.54" y2="-24.765" width="0.2032" layer="21"/>
<wire x1="43.688" y1="26.1112" x2="44.45" y2="26.1112" width="0.3048" layer="21"/>
<wire x1="-51.435" y1="-23.495" x2="-38.1" y2="-23.495" width="0.127" layer="51"/>
<wire x1="-38.1" y1="-23.495" x2="-38.1" y2="-14.605" width="0.127" layer="51"/>
<wire x1="-38.1" y1="-14.605" x2="-51.435" y2="-14.605" width="0.127" layer="51"/>
<wire x1="-51.435" y1="-14.605" x2="-51.435" y2="-23.495" width="0.127" layer="51"/>
<wire x1="-40.005" y1="5.715" x2="-40.005" y2="17.145" width="0.127" layer="51"/>
<wire x1="-40.005" y1="17.145" x2="-55.88" y2="17.145" width="0.127" layer="51"/>
<wire x1="-55.88" y1="17.145" x2="-55.88" y2="5.715" width="0.127" layer="51"/>
<wire x1="-55.88" y1="5.715" x2="-40.005" y2="5.715" width="0.127" layer="51"/>
<pad name="A9" x="26.67" y="-24.13" drill="1.016" diameter="1.8796" rot="R90"/>
<pad name="A10" x="29.21" y="-24.13" drill="1.016" diameter="1.8796" rot="R90"/>
<pad name="A11" x="31.75" y="-24.13" drill="1.016" diameter="1.8796" rot="R90"/>
<pad name="A12" x="34.29" y="-24.13" drill="1.016" diameter="1.8796" rot="R90"/>
<pad name="A13" x="36.83" y="-24.13" drill="1.016" diameter="1.8796" rot="R90"/>
<pad name="A14" x="39.37" y="-24.13" drill="1.016" diameter="1.8796" rot="R90"/>
<pad name="A15" x="41.91" y="-24.13" drill="1.016" diameter="1.8796" rot="R90"/>
<pad name="A8" x="24.13" y="-24.13" drill="1.016" diameter="1.8796" rot="R90"/>
<pad name="15" x="21.59" y="24.13" drill="1.016" diameter="1.8796" rot="R90"/>
<pad name="16" x="24.13" y="24.13" drill="1.016" diameter="1.8796" rot="R90"/>
<pad name="17" x="26.67" y="24.13" drill="1.016" diameter="1.8796" rot="R90"/>
<pad name="18" x="29.21" y="24.13" drill="1.016" diameter="1.8796" rot="R90"/>
<pad name="19" x="31.75" y="24.13" drill="1.016" diameter="1.8796" rot="R90"/>
<pad name="20" x="34.29" y="24.13" drill="1.016" diameter="1.8796" rot="R90"/>
<pad name="21" x="36.83" y="24.13" drill="1.016" diameter="1.8796" rot="R90"/>
<pad name="14" x="19.05" y="24.13" drill="1.016" diameter="1.8796" rot="R90"/>
<pad name="A1" x="3.81" y="-24.13" drill="1.016" diameter="1.8796" rot="R90"/>
<pad name="A2" x="6.35" y="-24.13" drill="1.016" diameter="1.8796" rot="R90"/>
<pad name="A3" x="8.89" y="-24.13" drill="1.016" diameter="1.8796" rot="R90"/>
<pad name="A4" x="11.43" y="-24.13" drill="1.016" diameter="1.8796" rot="R90"/>
<pad name="A5" x="13.97" y="-24.13" drill="1.016" diameter="1.8796" rot="R90"/>
<pad name="A6" x="16.51" y="-24.13" drill="1.016" diameter="1.8796" rot="R90"/>
<pad name="A7" x="19.05" y="-24.13" drill="1.016" diameter="1.8796" rot="R90"/>
<pad name="A0" x="1.27" y="-24.13" drill="1.016" diameter="1.8796" rot="R90"/>
<pad name="6" x="-1.27" y="24.13" drill="1.016" diameter="1.8796" rot="R90"/>
<pad name="5" x="1.27" y="24.13" drill="1.016" diameter="1.8796" rot="R90"/>
<pad name="4" x="3.81" y="24.13" drill="1.016" diameter="1.8796" rot="R90"/>
<pad name="3" x="6.35" y="24.13" drill="1.016" diameter="1.8796" rot="R90"/>
<pad name="2" x="8.89" y="24.13" drill="1.016" diameter="1.8796" rot="R90"/>
<pad name="1" x="11.43" y="24.13" drill="1.016" diameter="1.8796" rot="R90"/>
<pad name="0" x="13.97" y="24.13" drill="1.016" diameter="1.8796" rot="R90"/>
<pad name="7" x="-3.81" y="24.13" drill="1.016" diameter="1.8796" rot="R90"/>
<pad name="GND@4" x="-23.114" y="24.13" drill="1.016" diameter="1.8796" rot="R90"/>
<pad name="13" x="-20.574" y="24.13" drill="1.016" diameter="1.8796" rot="R90"/>
<pad name="12" x="-18.034" y="24.13" drill="1.016" diameter="1.8796" rot="R90"/>
<pad name="11" x="-15.494" y="24.13" drill="1.016" diameter="1.8796" rot="R90"/>
<pad name="10" x="-12.954" y="24.13" drill="1.016" diameter="1.8796" rot="R90"/>
<pad name="9" x="-10.414" y="24.13" drill="1.016" diameter="1.8796" rot="R90"/>
<pad name="8" x="-7.874" y="24.13" drill="1.016" diameter="1.8796" rot="R90"/>
<pad name="AREF" x="-25.654" y="24.13" drill="1.016" diameter="1.8796" rot="R90"/>
<pad name="37" x="46.99" y="3.81" drill="1.016" diameter="1.8796" shape="octagon" rot="R90"/>
<pad name="36" x="44.45" y="3.81" drill="1.016" diameter="1.8796" shape="octagon" rot="R90"/>
<pad name="35" x="46.99" y="6.35" drill="1.016" diameter="1.8796" shape="octagon" rot="R90"/>
<pad name="34" x="44.45" y="6.35" drill="1.016" diameter="1.8796" shape="octagon" rot="R90"/>
<pad name="33" x="46.99" y="8.89" drill="1.016" diameter="1.8796" shape="octagon" rot="R90"/>
<pad name="32" x="44.45" y="8.89" drill="1.016" diameter="1.8796" shape="octagon" rot="R90"/>
<pad name="31" x="46.99" y="11.43" drill="1.016" diameter="1.8796" shape="octagon" rot="R90"/>
<pad name="30" x="44.45" y="11.43" drill="1.016" diameter="1.8796" shape="octagon" rot="R90"/>
<pad name="29" x="46.99" y="13.97" drill="1.016" diameter="1.8796" shape="octagon" rot="R90"/>
<pad name="28" x="44.45" y="13.97" drill="1.016" diameter="1.8796" shape="octagon" rot="R90"/>
<pad name="27" x="46.99" y="16.51" drill="1.016" diameter="1.8796" shape="octagon" rot="R90"/>
<pad name="26" x="44.45" y="16.51" drill="1.016" diameter="1.8796" shape="octagon" rot="R90"/>
<pad name="25" x="46.99" y="19.05" drill="1.016" diameter="1.8796" shape="octagon" rot="R90"/>
<pad name="24" x="44.45" y="19.05" drill="1.016" diameter="1.8796" shape="octagon" rot="R90"/>
<pad name="23" x="46.99" y="21.59" drill="1.016" diameter="1.8796" shape="octagon" rot="R90"/>
<pad name="22" x="44.45" y="21.59" drill="1.016" diameter="1.8796" shape="octagon" rot="R90"/>
<pad name="53" x="46.99" y="-16.51" drill="1.016" diameter="1.8796" shape="octagon" rot="R90"/>
<pad name="52" x="44.45" y="-16.51" drill="1.016" diameter="1.8796" shape="octagon" rot="R90"/>
<pad name="51" x="46.99" y="-13.97" drill="1.016" diameter="1.8796" shape="octagon" rot="R90"/>
<pad name="50" x="44.45" y="-13.97" drill="1.016" diameter="1.8796" shape="octagon" rot="R90"/>
<pad name="49" x="46.99" y="-11.43" drill="1.016" diameter="1.8796" shape="octagon" rot="R90"/>
<pad name="48" x="44.45" y="-11.43" drill="1.016" diameter="1.8796" shape="octagon" rot="R90"/>
<pad name="47" x="46.99" y="-8.89" drill="1.016" diameter="1.8796" shape="octagon" rot="R90"/>
<pad name="46" x="44.45" y="-8.89" drill="1.016" diameter="1.8796" shape="octagon" rot="R90"/>
<pad name="45" x="46.99" y="-6.35" drill="1.016" diameter="1.8796" shape="octagon" rot="R90"/>
<pad name="44" x="44.45" y="-6.35" drill="1.016" diameter="1.8796" shape="octagon" rot="R90"/>
<pad name="43" x="46.99" y="-3.81" drill="1.016" diameter="1.8796" shape="octagon" rot="R90"/>
<pad name="42" x="44.45" y="-3.81" drill="1.016" diameter="1.8796" shape="octagon" rot="R90"/>
<pad name="41" x="46.99" y="-1.27" drill="1.016" diameter="1.8796" shape="octagon" rot="R90"/>
<pad name="40" x="44.45" y="-1.27" drill="1.016" diameter="1.8796" shape="octagon" rot="R90"/>
<pad name="39" x="46.99" y="1.27" drill="1.016" diameter="1.8796" shape="octagon" rot="R90"/>
<pad name="38" x="44.45" y="1.27" drill="1.016" diameter="1.8796" shape="octagon" rot="R90"/>
<pad name="GND@2" x="44.45" y="-19.05" drill="1.016" diameter="1.8796" rot="R90"/>
<pad name="GND@3" x="46.99" y="-19.05" drill="1.016" diameter="1.8796" rot="R90"/>
<pad name="5V@1" x="44.45" y="24.13" drill="1.016" diameter="1.8796" rot="R90"/>
<pad name="5V@2" x="46.99" y="24.13" drill="1.016" diameter="1.8796" rot="R90"/>
<pad name="RESET" x="-16.51" y="-24.13" drill="1.016" diameter="1.8796" rot="R90"/>
<pad name="3.3V" x="-13.97" y="-24.13" drill="1.016" diameter="1.8796" rot="R90"/>
<pad name="5V@0" x="-11.43" y="-24.13" drill="1.016" diameter="1.8796" rot="R90"/>
<pad name="GND@0" x="-8.89" y="-24.13" drill="1.016" diameter="1.8796" rot="R90"/>
<pad name="GND@1" x="-6.35" y="-24.13" drill="1.016" diameter="1.8796" rot="R90"/>
<pad name="VIN" x="-3.81" y="-24.13" drill="1.016" diameter="1.8796" rot="R90"/>
<text x="14.351" y="21.082" size="1.4224" layer="21" font="vector" ratio="15" rot="R90">0</text>
<text x="11.811" y="21.082" size="1.4224" layer="21" font="vector" ratio="15" rot="R90">1</text>
<text x="9.271" y="21.082" size="1.4224" layer="21" font="vector" ratio="15" rot="R90">2</text>
<text x="6.731" y="21.082" size="1.4224" layer="21" font="vector" ratio="15" rot="R90">3</text>
<text x="4.191" y="21.082" size="1.4224" layer="21" font="vector" ratio="15" rot="R90">4</text>
<text x="1.651" y="21.082" size="1.4224" layer="21" font="vector" ratio="15" rot="R90">5</text>
<text x="-0.889" y="21.082" size="1.4224" layer="21" font="vector" ratio="15" rot="R90">6</text>
<text x="-3.429" y="21.082" size="1.4224" layer="21" font="vector" ratio="15" rot="R90">7</text>
<text x="-7.239" y="21.082" size="1.4224" layer="21" font="vector" ratio="15" rot="R90">8</text>
<text x="-9.779" y="21.082" size="1.4224" layer="21" font="vector" ratio="15" rot="R90">9</text>
<text x="-12.319" y="19.812" size="1.4224" layer="21" font="vector" ratio="15" rot="R90">10</text>
<text x="-14.859" y="19.812" size="1.4224" layer="21" font="vector" ratio="15" rot="R90">11</text>
<text x="-17.399" y="19.812" size="1.4224" layer="21" font="vector" ratio="15" rot="R90">12</text>
<text x="-19.939" y="19.812" size="1.4224" layer="21" font="vector" ratio="15" rot="R90">13</text>
<text x="19.431" y="20.193" size="1.4224" layer="21" font="vector" ratio="15" rot="R90">14</text>
<text x="21.971" y="20.193" size="1.4224" layer="21" font="vector" ratio="15" rot="R90">15</text>
<text x="24.511" y="20.193" size="1.4224" layer="21" font="vector" ratio="15" rot="R90">16</text>
<text x="27.051" y="20.193" size="1.4224" layer="21" font="vector" ratio="15" rot="R90">17</text>
<text x="29.591" y="20.193" size="1.4224" layer="21" font="vector" ratio="15" rot="R90">18</text>
<text x="32.131" y="20.193" size="1.4224" layer="21" font="vector" ratio="15" rot="R90">19</text>
<text x="34.671" y="20.193" size="1.4224" layer="21" font="vector" ratio="15" rot="R90">20</text>
<text x="37.211" y="20.193" size="1.4224" layer="21" font="vector" ratio="15" rot="R90">21</text>
<text x="40.1574" y="20.828" size="1.4224" layer="21" font="vector" ratio="15">22</text>
<text x="40.1574" y="18.288" size="1.4224" layer="21" font="vector" ratio="15">24</text>
<text x="40.1574" y="15.748" size="1.4224" layer="21" font="vector" ratio="15">26</text>
<text x="40.1574" y="13.208" size="1.4224" layer="21" font="vector" ratio="15">28</text>
<text x="40.1574" y="10.668" size="1.4224" layer="21" font="vector" ratio="15">30</text>
<text x="40.1574" y="8.128" size="1.4224" layer="21" font="vector" ratio="15">32</text>
<text x="40.1574" y="5.588" size="1.4224" layer="21" font="vector" ratio="15">34</text>
<text x="40.1574" y="3.048" size="1.4224" layer="21" font="vector" ratio="15">36</text>
<text x="40.1574" y="0.508" size="1.4224" layer="21" font="vector" ratio="15">38</text>
<text x="40.1574" y="-2.032" size="1.4224" layer="21" font="vector" ratio="15">40</text>
<text x="40.1574" y="-4.572" size="1.4224" layer="21" font="vector" ratio="15">42</text>
<text x="40.1574" y="-7.112" size="1.4224" layer="21" font="vector" ratio="15">44</text>
<text x="40.1574" y="-9.652" size="1.4224" layer="21" font="vector" ratio="15">46</text>
<text x="40.1574" y="-14.732" size="1.4224" layer="21" font="vector" ratio="15">50</text>
<text x="40.1574" y="-12.192" size="1.4224" layer="21" font="vector" ratio="15">48</text>
<text x="40.1574" y="-17.272" size="1.4224" layer="21" font="vector" ratio="15">52</text>
<text x="48.895" y="10.6934" size="1.4224" layer="21" font="vector" ratio="15">31</text>
<text x="48.895" y="8.1534" size="1.4224" layer="21" font="vector" ratio="15">33</text>
<text x="48.895" y="5.6134" size="1.4224" layer="21" font="vector" ratio="15">35</text>
<text x="48.895" y="3.0734" size="1.4224" layer="21" font="vector" ratio="15">37</text>
<text x="48.895" y="0.5334" size="1.4224" layer="21" font="vector" ratio="15">39</text>
<text x="48.895" y="-2.0066" size="1.4224" layer="21" font="vector" ratio="15">41</text>
<text x="48.895" y="-4.5466" size="1.4224" layer="21" font="vector" ratio="15">43</text>
<text x="48.895" y="-7.0866" size="1.4224" layer="21" font="vector" ratio="15">45</text>
<text x="48.895" y="-9.6266" size="1.4224" layer="21" font="vector" ratio="15">47</text>
<text x="48.895" y="-12.1666" size="1.4224" layer="21" font="vector" ratio="15">49</text>
<text x="48.895" y="-14.7066" size="1.4224" layer="21" font="vector" ratio="15">51</text>
<text x="48.895" y="-17.2466" size="1.4224" layer="21" font="vector" ratio="15">53</text>
<text x="2.032" y="-22.0726" size="1.4224" layer="21" font="vector" ratio="15" rot="R90">A0</text>
<text x="4.318" y="-22.0726" size="1.4224" layer="21" font="vector" ratio="15" rot="R90">A1</text>
<text x="7.112" y="-22.0726" size="1.4224" layer="21" font="vector" ratio="15" rot="R90">A2</text>
<text x="9.652" y="-22.0726" size="1.4224" layer="21" font="vector" ratio="15" rot="R90">A3</text>
<text x="12.192" y="-22.0726" size="1.4224" layer="21" font="vector" ratio="15" rot="R90">A4</text>
<text x="14.605" y="-22.0726" size="1.4224" layer="21" font="vector" ratio="15" rot="R90">A5</text>
<text x="17.145" y="-22.0726" size="1.4224" layer="21" font="vector" ratio="15" rot="R90">6</text>
<text x="19.812" y="-22.0726" size="1.4224" layer="21" font="vector" ratio="15" rot="R90">A7</text>
<text x="24.892" y="-22.0726" size="1.4224" layer="21" font="vector" ratio="15" rot="R90">A8</text>
<text x="27.432" y="-22.0726" size="1.4224" layer="21" font="vector" ratio="15" rot="R90">A9</text>
<text x="29.972" y="-22.0726" size="1.4224" layer="21" font="vector" ratio="15" rot="R90">A10</text>
<text x="32.512" y="-22.0726" size="1.4224" layer="21" font="vector" ratio="15" rot="R90">A11</text>
<text x="35.052" y="-22.0726" size="1.4224" layer="21" font="vector" ratio="15" rot="R90">A12</text>
<text x="37.592" y="-22.0726" size="1.4224" layer="21" font="vector" ratio="15" rot="R90">A13</text>
<text x="40.132" y="-22.0726" size="1.4224" layer="21" font="vector" ratio="15" rot="R90">A14</text>
<text x="42.545" y="-22.0726" size="1.4224" layer="21" font="vector" ratio="15" rot="R90">A15</text>
<text x="1.524" y="-18.542" size="1.524" layer="21" font="vector" ratio="15">ANALOG IN</text>
<text x="10.922" y="13.589" size="1.524" layer="21" font="vector" ratio="15">COMMUNICATION</text>
<text x="38.989" y="-14.986" size="1.524" layer="21" font="vector" ratio="15" rot="R90">DIGITAL</text>
<text x="48.895" y="-19.7866" size="1.016" layer="21" font="vector" ratio="15">GND</text>
<text x="11.811" y="16.002" size="1.016" layer="21" font="vector" ratio="15" rot="R90">TX0</text>
<text x="14.351" y="16.002" size="1.016" layer="21" font="vector" ratio="15" rot="R90">RX0</text>
<text x="-20.32" y="17.145" size="1.524" layer="21" font="vector" ratio="15">PWM</text>
<text x="19.431" y="16.002" size="1.016" layer="21" font="vector" ratio="15" rot="R90">TX3</text>
<text x="21.971" y="16.002" size="1.016" layer="21" font="vector" ratio="15" rot="R90">RX3</text>
<text x="24.511" y="16.002" size="1.016" layer="21" font="vector" ratio="15" rot="R90">TX2</text>
<text x="27.051" y="16.002" size="1.016" layer="21" font="vector" ratio="15" rot="R90">RX2</text>
<text x="29.591" y="16.002" size="1.016" layer="21" font="vector" ratio="15" rot="R90">TX1</text>
<text x="32.131" y="16.002" size="1.016" layer="21" font="vector" ratio="15" rot="R90">RX1</text>
<text x="34.671" y="16.002" size="1.016" layer="21" font="vector" ratio="15" rot="R90">SDA</text>
<text x="37.211" y="16.002" size="1.016" layer="21" font="vector" ratio="15" rot="R90">SCL</text>
<text x="-9.906" y="-18.542" size="1.524" layer="21" font="vector" ratio="15">POWER</text>
<text x="-16.002" y="-22.0726" size="1.016" layer="21" font="vector" ratio="15" rot="R90">RESET</text>
<text x="-13.462" y="-22.0726" size="1.016" layer="21" font="vector" ratio="15" rot="R90">5V</text>
<text x="-10.922" y="-22.0726" size="1.016" layer="21" font="vector" ratio="15" rot="R90">5V</text>
<text x="-8.382" y="-22.0726" size="1.016" layer="21" font="vector" ratio="15" rot="R90">GND</text>
<text x="-5.842" y="-22.0726" size="1.016" layer="21" font="vector" ratio="15" rot="R90">GND</text>
<text x="-3.302" y="-22.0726" size="1.016" layer="21" font="vector" ratio="15" rot="R90">Vin</text>
<text x="-23.876" y="22.352" size="1.4224" layer="21" font="vector" ratio="15" rot="R270">GND</text>
<text x="-26.289" y="22.352" size="1.4224" layer="21" font="vector" ratio="15" rot="R270">AREF</text>
<text x="41.91" y="25.4" size="0.889" layer="21" font="vector" ratio="15">5V</text>
<text x="1.27" y="27.94" size="0.6096" layer="25" font="vector" ratio="20" align="bottom-center">&gt;NAME</text>
<text x="0" y="-27.94" size="0.6096" layer="27" font="vector" ratio="20" align="top-center">&gt;VALUE</text>
<rectangle x1="39.116" y1="-24.384" x2="39.624" y2="-23.876" layer="51"/>
<rectangle x1="36.576" y1="-24.384" x2="37.084" y2="-23.876" layer="51"/>
<rectangle x1="34.036" y1="-24.384" x2="34.544" y2="-23.876" layer="51"/>
<rectangle x1="31.496" y1="-24.384" x2="32.004" y2="-23.876" layer="51"/>
<rectangle x1="28.956" y1="-24.384" x2="29.464" y2="-23.876" layer="51"/>
<rectangle x1="26.416" y1="-24.384" x2="26.924" y2="-23.876" layer="51"/>
<rectangle x1="23.876" y1="-24.384" x2="24.384" y2="-23.876" layer="51"/>
<rectangle x1="41.656" y1="-24.384" x2="42.164" y2="-23.876" layer="51"/>
<rectangle x1="34.036" y1="23.876" x2="34.544" y2="24.384" layer="51"/>
<rectangle x1="31.496" y1="23.876" x2="32.004" y2="24.384" layer="51"/>
<rectangle x1="28.956" y1="23.876" x2="29.464" y2="24.384" layer="51"/>
<rectangle x1="26.416" y1="23.876" x2="26.924" y2="24.384" layer="51"/>
<rectangle x1="23.876" y1="23.876" x2="24.384" y2="24.384" layer="51"/>
<rectangle x1="21.336" y1="23.876" x2="21.844" y2="24.384" layer="51"/>
<rectangle x1="18.796" y1="23.876" x2="19.304" y2="24.384" layer="51"/>
<rectangle x1="36.576" y1="23.876" x2="37.084" y2="24.384" layer="51"/>
<rectangle x1="16.256" y1="-24.384" x2="16.764" y2="-23.876" layer="51"/>
<rectangle x1="13.716" y1="-24.384" x2="14.224" y2="-23.876" layer="51"/>
<rectangle x1="11.176" y1="-24.384" x2="11.684" y2="-23.876" layer="51"/>
<rectangle x1="8.636" y1="-24.384" x2="9.144" y2="-23.876" layer="51"/>
<rectangle x1="6.096" y1="-24.384" x2="6.604" y2="-23.876" layer="51"/>
<rectangle x1="3.556" y1="-24.384" x2="4.064" y2="-23.876" layer="51"/>
<rectangle x1="1.016" y1="-24.384" x2="1.524" y2="-23.876" layer="51"/>
<rectangle x1="18.796" y1="-24.384" x2="19.304" y2="-23.876" layer="51"/>
<rectangle x1="11.176" y1="23.876" x2="11.684" y2="24.384" layer="51"/>
<rectangle x1="8.636" y1="23.876" x2="9.144" y2="24.384" layer="51"/>
<rectangle x1="6.096" y1="23.876" x2="6.604" y2="24.384" layer="51"/>
<rectangle x1="3.556" y1="23.876" x2="4.064" y2="24.384" layer="51"/>
<rectangle x1="1.016" y1="23.876" x2="1.524" y2="24.384" layer="51"/>
<rectangle x1="-1.524" y1="23.876" x2="-1.016" y2="24.384" layer="51"/>
<rectangle x1="-4.064" y1="23.876" x2="-3.556" y2="24.384" layer="51"/>
<rectangle x1="13.716" y1="23.876" x2="14.224" y2="24.384" layer="51"/>
<rectangle x1="-10.668" y1="23.876" x2="-10.16" y2="24.384" layer="51"/>
<rectangle x1="-13.208" y1="23.876" x2="-12.7" y2="24.384" layer="51"/>
<rectangle x1="-15.748" y1="23.876" x2="-15.24" y2="24.384" layer="51"/>
<rectangle x1="-18.288" y1="23.876" x2="-17.78" y2="24.384" layer="51"/>
<rectangle x1="-20.828" y1="23.876" x2="-20.32" y2="24.384" layer="51"/>
<rectangle x1="-23.368" y1="23.876" x2="-22.86" y2="24.384" layer="51"/>
<rectangle x1="-25.908" y1="23.876" x2="-25.4" y2="24.384" layer="51"/>
<rectangle x1="-8.128" y1="23.876" x2="-7.62" y2="24.384" layer="51"/>
<rectangle x1="13.843" y1="3.556" x2="14.351" y2="4.064" layer="51" rot="R270"/>
<rectangle x1="16.383" y1="3.556" x2="16.891" y2="4.064" layer="51" rot="R270"/>
<rectangle x1="16.383" y1="1.016" x2="16.891" y2="1.524" layer="51" rot="R270"/>
<rectangle x1="13.843" y1="1.016" x2="14.351" y2="1.524" layer="51" rot="R270"/>
<rectangle x1="16.383" y1="-1.524" x2="16.891" y2="-1.016" layer="51" rot="R270"/>
<rectangle x1="13.843" y1="-1.524" x2="14.351" y2="-1.016" layer="51" rot="R270"/>
<rectangle x1="46.736" y1="3.556" x2="47.244" y2="4.064" layer="51" rot="R90"/>
<rectangle x1="44.196" y1="3.556" x2="44.704" y2="4.064" layer="51" rot="R90"/>
<rectangle x1="44.196" y1="6.096" x2="44.704" y2="6.604" layer="51" rot="R90"/>
<rectangle x1="46.736" y1="6.096" x2="47.244" y2="6.604" layer="51" rot="R90"/>
<rectangle x1="44.196" y1="8.636" x2="44.704" y2="9.144" layer="51" rot="R90"/>
<rectangle x1="46.736" y1="8.636" x2="47.244" y2="9.144" layer="51" rot="R90"/>
<rectangle x1="44.196" y1="11.176" x2="44.704" y2="11.684" layer="51" rot="R90"/>
<rectangle x1="44.196" y1="13.716" x2="44.704" y2="14.224" layer="51" rot="R90"/>
<rectangle x1="44.196" y1="16.256" x2="44.704" y2="16.764" layer="51" rot="R90"/>
<rectangle x1="46.736" y1="11.176" x2="47.244" y2="11.684" layer="51" rot="R90"/>
<rectangle x1="46.736" y1="13.716" x2="47.244" y2="14.224" layer="51" rot="R90"/>
<rectangle x1="46.736" y1="16.256" x2="47.244" y2="16.764" layer="51" rot="R90"/>
<rectangle x1="44.196" y1="18.796" x2="44.704" y2="19.304" layer="51" rot="R90"/>
<rectangle x1="46.736" y1="18.796" x2="47.244" y2="19.304" layer="51" rot="R90"/>
<rectangle x1="44.196" y1="21.336" x2="44.704" y2="21.844" layer="51" rot="R90"/>
<rectangle x1="46.736" y1="21.336" x2="47.244" y2="21.844" layer="51" rot="R90"/>
<rectangle x1="46.736" y1="-16.764" x2="47.244" y2="-16.256" layer="51" rot="R90"/>
<rectangle x1="44.196" y1="-16.764" x2="44.704" y2="-16.256" layer="51" rot="R90"/>
<rectangle x1="44.196" y1="-14.224" x2="44.704" y2="-13.716" layer="51" rot="R90"/>
<rectangle x1="46.736" y1="-14.224" x2="47.244" y2="-13.716" layer="51" rot="R90"/>
<rectangle x1="44.196" y1="-11.684" x2="44.704" y2="-11.176" layer="51" rot="R90"/>
<rectangle x1="46.736" y1="-11.684" x2="47.244" y2="-11.176" layer="51" rot="R90"/>
<rectangle x1="44.196" y1="-9.144" x2="44.704" y2="-8.636" layer="51" rot="R90"/>
<rectangle x1="44.196" y1="-6.604" x2="44.704" y2="-6.096" layer="51" rot="R90"/>
<rectangle x1="44.196" y1="-4.064" x2="44.704" y2="-3.556" layer="51" rot="R90"/>
<rectangle x1="46.736" y1="-9.144" x2="47.244" y2="-8.636" layer="51" rot="R90"/>
<rectangle x1="46.736" y1="-6.604" x2="47.244" y2="-6.096" layer="51" rot="R90"/>
<rectangle x1="46.736" y1="-4.064" x2="47.244" y2="-3.556" layer="51" rot="R90"/>
<rectangle x1="44.196" y1="-1.524" x2="44.704" y2="-1.016" layer="51" rot="R90"/>
<rectangle x1="46.736" y1="-1.524" x2="47.244" y2="-1.016" layer="51" rot="R90"/>
<rectangle x1="44.196" y1="1.016" x2="44.704" y2="1.524" layer="51" rot="R90"/>
<rectangle x1="46.736" y1="1.016" x2="47.244" y2="1.524" layer="51" rot="R90"/>
<rectangle x1="46.736" y1="-19.304" x2="47.244" y2="-18.796" layer="51"/>
<rectangle x1="44.196" y1="-19.304" x2="44.704" y2="-18.796" layer="51"/>
<rectangle x1="46.736" y1="23.876" x2="47.244" y2="24.384" layer="51"/>
<rectangle x1="44.196" y1="23.876" x2="44.704" y2="24.384" layer="51"/>
<rectangle x1="-4.064" y1="-24.384" x2="-3.556" y2="-23.876" layer="51"/>
<rectangle x1="-6.604" y1="-24.384" x2="-6.096" y2="-23.876" layer="51"/>
<rectangle x1="-9.144" y1="-24.384" x2="-8.636" y2="-23.876" layer="51"/>
<rectangle x1="-11.684" y1="-24.384" x2="-11.176" y2="-23.876" layer="51"/>
<rectangle x1="-14.224" y1="-24.384" x2="-13.716" y2="-23.876" layer="51"/>
<rectangle x1="-16.764" y1="-24.384" x2="-16.256" y2="-23.876" layer="51"/>
<hole x="-34.29" y="24.13" drill="3.2"/>
<hole x="-35.56" y="-24.13" drill="3.2"/>
<hole x="16.51" y="8.89" drill="3.2"/>
<hole x="16.51" y="-19.05" drill="3.2"/>
<hole x="40.64" y="24.13" drill="3.2"/>
<hole x="46.99" y="-24.13" drill="3.2"/>
</package>
</packages>
<packages3d>
<package3d name="ARDUINO_MEGA" urn="urn:adsk.eagle:package:37320/1" type="box" library_version="1">
<description> Arduino MEGA R3 footprint
Specifications:
Pin count:82
Area:4x2.15 in


Example device(s):
Arduino Mega R3
</description>
<packageinstances>
<packageinstance name="ARDUINO_MEGA"/>
</packageinstances>
</package3d>
</packages3d>
<symbols>
<symbol name="ARDUINO-MEGA" urn="urn:adsk.eagle:symbol:37230/1" library_version="1">
<description>&lt;h3&gt;Arduino Mega R3&lt;/h3&gt;
&lt;p&gt;Symbol showing all pin connections for Arduino Mega R3.&lt;/p&gt;</description>
<wire x1="-15.24" y1="-53.34" x2="15.24" y2="-53.34" width="0.254" layer="94"/>
<wire x1="15.24" y1="-53.34" x2="15.24" y2="53.34" width="0.254" layer="94"/>
<wire x1="15.24" y1="53.34" x2="-15.24" y2="53.34" width="0.254" layer="94"/>
<wire x1="-15.24" y1="53.34" x2="-15.24" y2="-53.34" width="0.254" layer="94"/>
<text x="-15.24" y="54.102" size="1.778" layer="95">&gt;NAME</text>
<text x="-15.24" y="-55.88" size="1.778" layer="96">&gt;VALUE</text>
<pin name="5V@0" x="-17.78" y="48.26" length="short"/>
<pin name="RESET" x="-17.78" y="35.56" length="short"/>
<pin name="5V@1" x="-17.78" y="45.72" length="short"/>
<pin name="A0(RX0)" x="-17.78" y="33.02" length="short"/>
<pin name="A1(TX0)" x="-17.78" y="30.48" length="short"/>
<pin name="A2" x="-17.78" y="27.94" length="short"/>
<pin name="A3" x="-17.78" y="25.4" length="short"/>
<pin name="A4" x="-17.78" y="22.86" length="short"/>
<pin name="A5" x="-17.78" y="20.32" length="short"/>
<pin name="A6" x="-17.78" y="17.78" length="short"/>
<pin name="A7" x="-17.78" y="15.24" length="short"/>
<pin name="A8" x="-17.78" y="12.7" length="short"/>
<pin name="A9" x="-17.78" y="10.16" length="short"/>
<pin name="A10" x="-17.78" y="7.62" length="short"/>
<pin name="A11" x="-17.78" y="5.08" length="short"/>
<pin name="A12" x="-17.78" y="2.54" length="short"/>
<pin name="A13" x="-17.78" y="0" length="short"/>
<pin name="A14" x="-17.78" y="-2.54" length="short"/>
<pin name="A15" x="-17.78" y="-5.08" length="short"/>
<pin name="1(TX0)" x="-17.78" y="-10.16" length="short"/>
<pin name="2" x="-17.78" y="-12.7" length="short"/>
<pin name="3" x="-17.78" y="-15.24" length="short"/>
<pin name="4" x="-17.78" y="-17.78" length="short"/>
<pin name="5" x="-17.78" y="-20.32" length="short"/>
<pin name="6" x="-17.78" y="-22.86" length="short"/>
<pin name="7" x="-17.78" y="-25.4" length="short"/>
<pin name="8" x="-17.78" y="-27.94" length="short"/>
<pin name="9" x="-17.78" y="-30.48" length="short"/>
<pin name="10" x="-17.78" y="-33.02" length="short"/>
<pin name="GND@4" x="-17.78" y="-50.8" length="short"/>
<pin name="16(TX2)" x="17.78" y="43.18" length="short" rot="R180"/>
<pin name="17(RX2)" x="17.78" y="40.64" length="short" rot="R180"/>
<pin name="18(TX1)" x="17.78" y="38.1" length="short" rot="R180"/>
<pin name="22" x="17.78" y="27.94" length="short" rot="R180"/>
<pin name="23" x="17.78" y="25.4" length="short" rot="R180"/>
<pin name="24" x="17.78" y="22.86" length="short" rot="R180"/>
<pin name="25" x="17.78" y="20.32" length="short" rot="R180"/>
<pin name="26" x="17.78" y="17.78" length="short" rot="R180"/>
<pin name="27" x="17.78" y="15.24" length="short" rot="R180"/>
<pin name="28" x="17.78" y="12.7" length="short" rot="R180"/>
<pin name="29" x="17.78" y="10.16" length="short" rot="R180"/>
<pin name="30" x="17.78" y="7.62" length="short" rot="R180"/>
<pin name="31" x="17.78" y="5.08" length="short" rot="R180"/>
<pin name="32" x="17.78" y="2.54" length="short" rot="R180"/>
<pin name="33" x="17.78" y="0" length="short" rot="R180"/>
<pin name="34" x="17.78" y="-2.54" length="short" rot="R180"/>
<pin name="35" x="17.78" y="-5.08" length="short" rot="R180"/>
<pin name="36" x="17.78" y="-7.62" length="short" rot="R180"/>
<pin name="37" x="17.78" y="-10.16" length="short" rot="R180"/>
<pin name="38" x="17.78" y="-12.7" length="short" rot="R180"/>
<pin name="40" x="17.78" y="-17.78" length="short" rot="R180"/>
<pin name="39" x="17.78" y="-15.24" length="short" rot="R180"/>
<pin name="41" x="17.78" y="-20.32" length="short" rot="R180"/>
<pin name="42" x="17.78" y="-22.86" length="short" rot="R180"/>
<pin name="43" x="17.78" y="-25.4" length="short" rot="R180"/>
<pin name="44" x="17.78" y="-27.94" length="short" rot="R180"/>
<pin name="45" x="17.78" y="-30.48" length="short" rot="R180"/>
<pin name="46" x="17.78" y="-33.02" length="short" rot="R180"/>
<pin name="47" x="17.78" y="-35.56" length="short" rot="R180"/>
<pin name="48" x="17.78" y="-38.1" length="short" rot="R180"/>
<pin name="11" x="-17.78" y="-35.56" length="short"/>
<pin name="12" x="-17.78" y="-38.1" length="short"/>
<pin name="13" x="17.78" y="50.8" length="short" rot="R180"/>
<pin name="15(RX3)" x="17.78" y="45.72" length="short" rot="R180"/>
<pin name="14(TX3)" x="17.78" y="48.26" length="short" rot="R180"/>
<pin name="GND@0" x="-17.78" y="-40.64" length="short"/>
<pin name="GND@1" x="-17.78" y="-43.18" length="short"/>
<pin name="GND@2" x="-17.78" y="-45.72" length="short"/>
<pin name="GND@3" x="-17.78" y="-48.26" length="short"/>
<pin name="53" x="17.78" y="-50.8" length="short" rot="R180"/>
<pin name="52" x="17.78" y="-48.26" length="short" rot="R180"/>
<pin name="51" x="17.78" y="-45.72" length="short" rot="R180"/>
<pin name="50" x="17.78" y="-43.18" length="short" rot="R180"/>
<pin name="49" x="17.78" y="-40.64" length="short" rot="R180"/>
<pin name="5V@2" x="-17.78" y="43.18" length="short"/>
<pin name="3.3V" x="-17.78" y="40.64" length="short"/>
<pin name="AREF" x="-17.78" y="38.1" length="short"/>
<pin name="21(SCL)" x="17.78" y="30.48" length="short" rot="R180"/>
<pin name="20(SDA)" x="17.78" y="33.02" length="short" rot="R180"/>
<pin name="19(RX1)" x="17.78" y="35.56" length="short" rot="R180"/>
<pin name="VIN" x="-17.78" y="50.8" length="short"/>
<pin name="0(RX0)" x="-17.78" y="-7.62" length="short"/>
</symbol>
</symbols>
<devicesets>
<deviceset name="ARDUINO_MEGA_R3" urn="urn:adsk.eagle:component:37359/1" prefix="B" library_version="1">
<description>&lt;h3&gt;Arduino Mega R3&lt;/h3&gt;
&lt;p&gt;ATmega2560 R3 compatible footprint. &lt;/p&gt;


&lt;b&gt;&lt;p&gt;SparkFun Products:&lt;/b&gt;
&lt;ul&gt;&lt;li&gt;&lt;a href=”https://www.sparkfun.com/products/11061”&gt;Arduino Mega 2560 R3&lt;/a&gt;&lt;/li&gt;
&lt;/ul&gt;&lt;/p&gt;</description>
<gates>
<gate name="G$1" symbol="ARDUINO-MEGA" x="0" y="0"/>
</gates>
<devices>
<device name="FULL" package="ARDUINO_MEGA">
<connects>
<connect gate="G$1" pin="0(RX0)" pad="0"/>
<connect gate="G$1" pin="1(TX0)" pad="1"/>
<connect gate="G$1" pin="10" pad="10"/>
<connect gate="G$1" pin="11" pad="11"/>
<connect gate="G$1" pin="12" pad="12"/>
<connect gate="G$1" pin="13" pad="13"/>
<connect gate="G$1" pin="14(TX3)" pad="14"/>
<connect gate="G$1" pin="15(RX3)" pad="15"/>
<connect gate="G$1" pin="16(TX2)" pad="16"/>
<connect gate="G$1" pin="17(RX2)" pad="17"/>
<connect gate="G$1" pin="18(TX1)" pad="18"/>
<connect gate="G$1" pin="19(RX1)" pad="19"/>
<connect gate="G$1" pin="2" pad="2"/>
<connect gate="G$1" pin="20(SDA)" pad="20"/>
<connect gate="G$1" pin="21(SCL)" pad="21"/>
<connect gate="G$1" pin="22" pad="22"/>
<connect gate="G$1" pin="23" pad="23"/>
<connect gate="G$1" pin="24" pad="24"/>
<connect gate="G$1" pin="25" pad="25"/>
<connect gate="G$1" pin="26" pad="26"/>
<connect gate="G$1" pin="27" pad="27"/>
<connect gate="G$1" pin="28" pad="28"/>
<connect gate="G$1" pin="29" pad="29"/>
<connect gate="G$1" pin="3" pad="3"/>
<connect gate="G$1" pin="3.3V" pad="3.3V"/>
<connect gate="G$1" pin="30" pad="30"/>
<connect gate="G$1" pin="31" pad="31"/>
<connect gate="G$1" pin="32" pad="32"/>
<connect gate="G$1" pin="33" pad="33"/>
<connect gate="G$1" pin="34" pad="34"/>
<connect gate="G$1" pin="35" pad="35"/>
<connect gate="G$1" pin="36" pad="36"/>
<connect gate="G$1" pin="37" pad="37"/>
<connect gate="G$1" pin="38" pad="38"/>
<connect gate="G$1" pin="39" pad="39"/>
<connect gate="G$1" pin="4" pad="4"/>
<connect gate="G$1" pin="40" pad="40"/>
<connect gate="G$1" pin="41" pad="41"/>
<connect gate="G$1" pin="42" pad="42"/>
<connect gate="G$1" pin="43" pad="43"/>
<connect gate="G$1" pin="44" pad="44"/>
<connect gate="G$1" pin="45" pad="45"/>
<connect gate="G$1" pin="46" pad="46"/>
<connect gate="G$1" pin="47" pad="47"/>
<connect gate="G$1" pin="48" pad="48"/>
<connect gate="G$1" pin="49" pad="49"/>
<connect gate="G$1" pin="5" pad="5"/>
<connect gate="G$1" pin="50" pad="50"/>
<connect gate="G$1" pin="51" pad="51"/>
<connect gate="G$1" pin="52" pad="52"/>
<connect gate="G$1" pin="53" pad="53"/>
<connect gate="G$1" pin="5V@0" pad="5V@0"/>
<connect gate="G$1" pin="5V@1" pad="5V@1"/>
<connect gate="G$1" pin="5V@2" pad="5V@2"/>
<connect gate="G$1" pin="6" pad="6"/>
<connect gate="G$1" pin="7" pad="7"/>
<connect gate="G$1" pin="8" pad="8"/>
<connect gate="G$1" pin="9" pad="9"/>
<connect gate="G$1" pin="A0(RX0)" pad="A0"/>
<connect gate="G$1" pin="A1(TX0)" pad="A1"/>
<connect gate="G$1" pin="A10" pad="A10"/>
<connect gate="G$1" pin="A11" pad="A11"/>
<connect gate="G$1" pin="A12" pad="A12"/>
<connect gate="G$1" pin="A13" pad="A13"/>
<connect gate="G$1" pin="A14" pad="A14"/>
<connect gate="G$1" pin="A15" pad="A15"/>
<connect gate="G$1" pin="A2" pad="A2"/>
<connect gate="G$1" pin="A3" pad="A3"/>
<connect gate="G$1" pin="A4" pad="A4"/>
<connect gate="G$1" pin="A5" pad="A5"/>
<connect gate="G$1" pin="A6" pad="A6"/>
<connect gate="G$1" pin="A7" pad="A7"/>
<connect gate="G$1" pin="A8" pad="A8"/>
<connect gate="G$1" pin="A9" pad="A9"/>
<connect gate="G$1" pin="AREF" pad="AREF"/>
<connect gate="G$1" pin="GND@0" pad="GND@0"/>
<connect gate="G$1" pin="GND@1" pad="GND@1"/>
<connect gate="G$1" pin="GND@2" pad="GND@2"/>
<connect gate="G$1" pin="GND@3" pad="GND@3"/>
<connect gate="G$1" pin="GND@4" pad="GND@4"/>
<connect gate="G$1" pin="RESET" pad="RESET"/>
<connect gate="G$1" pin="VIN" pad="VIN"/>
</connects>
<package3dinstances>
<package3dinstance package3d_urn="urn:adsk.eagle:package:37320/1"/>
</package3dinstances>
<technologies>
<technology name=""/>
</technologies>
</device>
</devices>
</deviceset>
</devicesets>
</library>
<library name="con-wago-500" urn="urn:adsk.eagle:library:195">
<description>&lt;b&gt;Wago Screw Clamps&lt;/b&gt;&lt;p&gt;
Grid 5.00 mm&lt;p&gt;
&lt;author&gt;Created by librarian@cadsoft.de&lt;/author&gt;</description>
<packages>
<package name="W237-102" urn="urn:adsk.eagle:footprint:10676/1" library_version="1">
<description>&lt;b&gt;WAGO SCREW CLAMP&lt;/b&gt;</description>
<wire x1="-3.491" y1="-2.286" x2="-1.484" y2="-0.279" width="0.254" layer="51"/>
<wire x1="1.488" y1="-2.261" x2="3.469" y2="-0.254" width="0.254" layer="51"/>
<wire x1="-4.989" y1="-5.461" x2="4.993" y2="-5.461" width="0.1524" layer="21"/>
<wire x1="4.993" y1="3.734" x2="4.993" y2="3.531" width="0.1524" layer="21"/>
<wire x1="4.993" y1="3.734" x2="-4.989" y2="3.734" width="0.1524" layer="21"/>
<wire x1="-4.989" y1="-5.461" x2="-4.989" y2="-3.073" width="0.1524" layer="21"/>
<wire x1="-4.989" y1="-3.073" x2="-3.389" y2="-3.073" width="0.1524" layer="21"/>
<wire x1="-3.389" y1="-3.073" x2="-1.611" y2="-3.073" width="0.1524" layer="51"/>
<wire x1="-1.611" y1="-3.073" x2="1.615" y2="-3.073" width="0.1524" layer="21"/>
<wire x1="3.393" y1="-3.073" x2="4.993" y2="-3.073" width="0.1524" layer="21"/>
<wire x1="-4.989" y1="-3.073" x2="-4.989" y2="3.531" width="0.1524" layer="21"/>
<wire x1="4.993" y1="-3.073" x2="4.993" y2="-5.461" width="0.1524" layer="21"/>
<wire x1="-4.989" y1="3.531" x2="4.993" y2="3.531" width="0.1524" layer="21"/>
<wire x1="-4.989" y1="3.531" x2="-4.989" y2="3.734" width="0.1524" layer="21"/>
<wire x1="4.993" y1="3.531" x2="4.993" y2="-3.073" width="0.1524" layer="21"/>
<wire x1="1.615" y1="-3.073" x2="3.393" y2="-3.073" width="0.1524" layer="51"/>
<circle x="-2.5" y="-1.27" radius="1.4986" width="0.1524" layer="51"/>
<circle x="-2.5" y="2.2098" radius="0.508" width="0.1524" layer="21"/>
<circle x="2.5038" y="-1.27" radius="1.4986" width="0.1524" layer="51"/>
<circle x="2.5038" y="2.2098" radius="0.508" width="0.1524" layer="21"/>
<pad name="1" x="-2.5" y="-1.27" drill="1.1938" shape="long" rot="R90"/>
<pad name="2" x="2.5" y="-1.27" drill="1.1938" shape="long" rot="R90"/>
<text x="-5.04" y="-7.62" size="1.27" layer="27" ratio="10">&gt;VALUE</text>
<text x="-3.8462" y="-5.0038" size="1.27" layer="25" ratio="10">&gt;NAME</text>
<text x="-4.532" y="0.635" size="1.27" layer="21" ratio="10">1</text>
<text x="0.421" y="0.635" size="1.27" layer="21" ratio="10">2</text>
</package>
</packages>
<packages3d>
<package3d name="W237-102" urn="urn:adsk.eagle:package:10688/1" type="box" library_version="1">
<description>WAGO SCREW CLAMP</description>
<packageinstances>
<packageinstance name="W237-102"/>
</packageinstances>
</package3d>
</packages3d>
<symbols>
<symbol name="KL" urn="urn:adsk.eagle:symbol:10675/1" library_version="1">
<circle x="1.27" y="0" radius="1.27" width="0.254" layer="94"/>
<text x="0" y="0.889" size="1.778" layer="95" rot="R180">&gt;NAME</text>
<pin name="KL" x="5.08" y="0" visible="off" length="short" direction="pas" rot="R180"/>
</symbol>
<symbol name="KL+V" urn="urn:adsk.eagle:symbol:10673/1" library_version="1">
<circle x="1.27" y="0" radius="1.27" width="0.254" layer="94"/>
<text x="-2.54" y="-3.683" size="1.778" layer="96">&gt;VALUE</text>
<text x="0" y="0.889" size="1.778" layer="95" rot="R180">&gt;NAME</text>
<pin name="KL" x="5.08" y="0" visible="off" length="short" direction="pas" rot="R180"/>
</symbol>
</symbols>
<devicesets>
<deviceset name="W237-102" urn="urn:adsk.eagle:component:10702/1" prefix="X" uservalue="yes" library_version="1">
<description>&lt;b&gt;WAGO SCREW CLAMP&lt;/b&gt;</description>
<gates>
<gate name="-1" symbol="KL" x="0" y="5.08" addlevel="always"/>
<gate name="-2" symbol="KL+V" x="0" y="0" addlevel="always"/>
</gates>
<devices>
<device name="" package="W237-102">
<connects>
<connect gate="-1" pin="KL" pad="1"/>
<connect gate="-2" pin="KL" pad="2"/>
</connects>
<package3dinstances>
<package3dinstance package3d_urn="urn:adsk.eagle:package:10688/1"/>
</package3dinstances>
<technologies>
<technology name="">
<attribute name="MF" value="" constant="no"/>
<attribute name="MPN" value="237-102" constant="no"/>
<attribute name="OC_FARNELL" value="unknown" constant="no"/>
<attribute name="OC_NEWARK" value="70K9898" constant="no"/>
</technology>
</technologies>
</device>
</devices>
</deviceset>
</devicesets>
</library>
<library name="con-garry" urn="urn:adsk.eagle:library:147">
<description>&lt;b&gt;Pin Header Connectors&lt;/b&gt;&lt;p&gt;
&lt;a href="www.mpe-connector.de"&gt;Menufacturer&lt;/a&gt;&lt;p&gt;
&lt;author&gt;Created by librarian@cadsoft.de&lt;/author&gt;</description>
<packages>
<package name="332-02" urn="urn:adsk.eagle:footprint:6784/1" library_version="1">
<description>&lt;b&gt;2 Pin - 2mm Dual Row&lt;/b&gt;&lt;p&gt;
Source: www.mpe-connector.de / garry_shortform_2012.pdf</description>
<wire x1="-0.85" y1="-1.9" x2="0.85" y2="-1.9" width="0.2032" layer="21"/>
<wire x1="0.85" y1="-1.9" x2="0.85" y2="-0.4" width="0.2032" layer="21"/>
<wire x1="0.85" y1="0.4" x2="0.85" y2="1.9" width="0.2032" layer="21"/>
<wire x1="0.85" y1="1.9" x2="-0.85" y2="1.9" width="0.2032" layer="21"/>
<wire x1="-0.85" y1="1.9" x2="-0.85" y2="0.4" width="0.2032" layer="21"/>
<wire x1="-0.85" y1="-0.4" x2="-0.85" y2="-1.9" width="0.2032" layer="21"/>
<wire x1="-0.85" y1="0.4" x2="-0.85" y2="-0.4" width="0.2032" layer="21" curve="-129.185"/>
<wire x1="0.85" y1="-0.4" x2="0.85" y2="0.4" width="0.2032" layer="21" curve="-129.185"/>
<pad name="1" x="0" y="-1" drill="0.9" diameter="1.27"/>
<pad name="2" x="0" y="1" drill="0.9" diameter="1.27"/>
<text x="-0.65" y="-1.75" size="0.3048" layer="21" font="vector">1</text>
<text x="-0.62" y="-3.81" size="1.27" layer="25">&gt;NAME</text>
<text x="-0.62" y="2.54" size="1.27" layer="27">&gt;VALUE</text>
<rectangle x1="-0.25" y1="-1.25" x2="0.25" y2="-0.75" layer="51"/>
<rectangle x1="-0.25" y1="0.75" x2="0.25" y2="1.25" layer="51"/>
</package>
</packages>
<packages3d>
<package3d name="332-02" urn="urn:adsk.eagle:package:6810/1" type="box" library_version="1">
<description>2 Pin - 2mm Dual Row
Source: www.mpe-connector.de / garry_shortform_2012.pdf</description>
<packageinstances>
<packageinstance name="332-02"/>
</packageinstances>
</package3d>
</packages3d>
<symbols>
<symbol name="MV" urn="urn:adsk.eagle:symbol:6783/1" library_version="1">
<wire x1="1.27" y1="0" x2="0" y2="0" width="0.6096" layer="94"/>
<text x="2.54" y="-0.762" size="1.524" layer="95">&gt;NAME</text>
<text x="-0.762" y="1.397" size="1.778" layer="96">&gt;VALUE</text>
<pin name="S" x="-2.54" y="0" visible="off" length="short" direction="pas"/>
</symbol>
</symbols>
<devicesets>
<deviceset name="332-02" urn="urn:adsk.eagle:component:6832/1" prefix="X" library_version="1">
<description>&lt;b&gt;2 Pin - 2mm Dual Row&lt;/b&gt;&lt;p&gt;
Source: www.mpe-connector.de / garry_shortform_2012.pdf</description>
<gates>
<gate name="-1" symbol="MV" x="-10.16" y="0" addlevel="always"/>
<gate name="-2" symbol="MV" x="10.16" y="0" addlevel="always"/>
</gates>
<devices>
<device name="" package="332-02">
<connects>
<connect gate="-1" pin="S" pad="1"/>
<connect gate="-2" pin="S" pad="2"/>
</connects>
<package3dinstances>
<package3dinstance package3d_urn="urn:adsk.eagle:package:6810/1"/>
</package3dinstances>
<technologies>
<technology name=""/>
</technologies>
</device>
</devices>
</deviceset>
</devicesets>
</library>
</libraries>
<attributes>
</attributes>
<variantdefs>
</variantdefs>
<classes>
<class number="0" name="default" width="0" drill="0">
</class>
</classes>
<parts>
<part name="B1" library="SparkFun-Boards" library_urn="urn:adsk.eagle:library:509" deviceset="ARDUINO_MEGA_R3" device="FULL" package3d_urn="urn:adsk.eagle:package:37320/1"/>
<part name="X1" library="con-wago-500" library_urn="urn:adsk.eagle:library:195" deviceset="W237-102" device="" package3d_urn="urn:adsk.eagle:package:10688/1"/>
<part name="X2" library="con-wago-500" library_urn="urn:adsk.eagle:library:195" deviceset="W237-102" device="" package3d_urn="urn:adsk.eagle:package:10688/1"/>
<part name="X3" library="con-wago-500" library_urn="urn:adsk.eagle:library:195" deviceset="W237-102" device="" package3d_urn="urn:adsk.eagle:package:10688/1"/>
<part name="X4" library="con-wago-500" library_urn="urn:adsk.eagle:library:195" deviceset="W237-102" device="" package3d_urn="urn:adsk.eagle:package:10688/1"/>
<part name="X5" library="con-wago-500" library_urn="urn:adsk.eagle:library:195" deviceset="W237-102" device="" package3d_urn="urn:adsk.eagle:package:10688/1"/>
<part name="X6" library="con-wago-500" library_urn="urn:adsk.eagle:library:195" deviceset="W237-102" device="" package3d_urn="urn:adsk.eagle:package:10688/1"/>
<part name="X7" library="con-wago-500" library_urn="urn:adsk.eagle:library:195" deviceset="W237-102" device="" package3d_urn="urn:adsk.eagle:package:10688/1"/>
<part name="X8" library="con-garry" library_urn="urn:adsk.eagle:library:147" deviceset="332-02" device="" package3d_urn="urn:adsk.eagle:package:6810/1"/>
<part name="X9" library="con-garry" library_urn="urn:adsk.eagle:library:147" deviceset="332-02" device="" package3d_urn="urn:adsk.eagle:package:6810/1"/>
</parts>
<sheets>
<sheet>
<plain>
</plain>
<instances>
<instance part="B1" gate="G$1" x="15.24" y="33.02"/>
<instance part="X1" gate="-1" x="-33.02" y="-2.54"/>
<instance part="X1" gate="-2" x="-33.02" y="2.54"/>
<instance part="X2" gate="-1" x="-33.02" y="25.4"/>
<instance part="X2" gate="-2" x="-33.02" y="48.26"/>
<instance part="X3" gate="-1" x="-33.02" y="43.18"/>
<instance part="X3" gate="-2" x="-33.02" y="78.74"/>
<instance part="X4" gate="-1" x="53.34" y="-22.86" rot="MR0"/>
<instance part="X4" gate="-2" x="-33.02" y="-20.32" rot="MR180"/>
<instance part="X5" gate="-1" x="-33.02" y="-12.7"/>
<instance part="X5" gate="-2" x="53.34" y="-15.24" rot="R180"/>
<instance part="X6" gate="-1" x="73.66" y="66.04" rot="MR0"/>
<instance part="X6" gate="-2" x="73.66" y="60.96" rot="MR0"/>
<instance part="X7" gate="-1" x="-33.02" y="-7.62"/>
<instance part="X7" gate="-2" x="-33.02" y="83.82"/>
<instance part="X8" gate="-1" x="-30.48" y="15.24" rot="R180"/>
<instance part="X8" gate="-2" x="-30.48" y="10.16" rot="R180"/>
<instance part="X9" gate="-1" x="-30.48" y="66.04" rot="R180"/>
<instance part="X9" gate="-2" x="-30.48" y="60.96" rot="R180"/>
</instances>
<busses>
</busses>
<nets>
<net name="N$1" class="0">
<segment>
<pinref part="X1" gate="-1" pin="KL"/>
<wire x1="-27.94" y1="-2.54" x2="-17.78" y2="-5.08" width="0.1524" layer="91"/>
<pinref part="B1" gate="G$1" pin="12"/>
<wire x1="-17.78" y1="-5.08" x2="-2.54" y2="-5.08" width="0.1524" layer="91"/>
</segment>
</net>
<net name="N$2" class="0">
<segment>
<pinref part="X1" gate="-2" pin="KL"/>
<pinref part="B1" gate="G$1" pin="11"/>
<wire x1="-27.94" y1="2.54" x2="-2.54" y2="-2.54" width="0.1524" layer="91"/>
</segment>
</net>
<net name="N$3" class="0">
<segment>
<pinref part="X2" gate="-1" pin="KL"/>
<wire x1="-27.94" y1="25.4" x2="-15.24" y2="25.4" width="0.1524" layer="91"/>
<wire x1="-15.24" y1="25.4" x2="-15.24" y2="20.32" width="0.1524" layer="91"/>
<pinref part="B1" gate="G$1" pin="2"/>
<wire x1="-15.24" y1="20.32" x2="-2.54" y2="20.32" width="0.1524" layer="91"/>
</segment>
</net>
<net name="N$4" class="0">
<segment>
<pinref part="X2" gate="-2" pin="KL"/>
<wire x1="-27.94" y1="48.26" x2="-17.78" y2="48.26" width="0.1524" layer="91"/>
<pinref part="B1" gate="G$1" pin="A8"/>
<wire x1="-17.78" y1="48.26" x2="-2.54" y2="45.72" width="0.1524" layer="91"/>
</segment>
</net>
<net name="N$5" class="0">
<segment>
<pinref part="X3" gate="-1" pin="KL"/>
<pinref part="B1" gate="G$1" pin="A9"/>
<wire x1="-27.94" y1="43.18" x2="-2.54" y2="43.18" width="0.1524" layer="91"/>
</segment>
</net>
<net name="N$11" class="0">
<segment>
<pinref part="X6" gate="-1" pin="KL"/>
<pinref part="B1" gate="G$1" pin="20(SDA)"/>
<wire x1="68.58" y1="66.04" x2="33.02" y2="66.04" width="0.1524" layer="91"/>
</segment>
</net>
<net name="N$12" class="0">
<segment>
<pinref part="X6" gate="-2" pin="KL"/>
<wire x1="68.58" y1="60.96" x2="55.88" y2="60.96" width="0.1524" layer="91"/>
<wire x1="55.88" y1="60.96" x2="55.88" y2="63.5" width="0.1524" layer="91"/>
<pinref part="B1" gate="G$1" pin="21(SCL)"/>
<wire x1="55.88" y1="63.5" x2="33.02" y2="63.5" width="0.1524" layer="91"/>
</segment>
</net>
<net name="N$13" class="0">
<segment>
<pinref part="X7" gate="-2" pin="KL"/>
<pinref part="B1" gate="G$1" pin="VIN"/>
<wire x1="-27.94" y1="83.82" x2="-2.54" y2="83.82" width="0.1524" layer="91"/>
</segment>
</net>
<net name="N$14" class="0">
<segment>
<pinref part="X7" gate="-1" pin="KL"/>
<pinref part="B1" gate="G$1" pin="GND@0"/>
<wire x1="-27.94" y1="-7.62" x2="-2.54" y2="-7.62" width="0.1524" layer="91"/>
</segment>
</net>
<net name="N$7" class="0">
<segment>
<pinref part="X5" gate="-2" pin="KL"/>
<pinref part="B1" gate="G$1" pin="52"/>
<wire x1="48.26" y1="-15.24" x2="33.02" y2="-15.24" width="0.1524" layer="91"/>
</segment>
</net>
<net name="N$6" class="0">
<segment>
<pinref part="X5" gate="-1" pin="KL"/>
<pinref part="B1" gate="G$1" pin="GND@2"/>
<wire x1="-27.94" y1="-12.7" x2="-2.54" y2="-12.7" width="0.1524" layer="91"/>
</segment>
</net>
<net name="N$8" class="0">
<segment>
<pinref part="X4" gate="-2" pin="KL"/>
<wire x1="-27.94" y1="-20.32" x2="-30.48" y2="-20.32" width="0.1524" layer="91"/>
<pinref part="B1" gate="G$1" pin="GND@3"/>
<wire x1="-30.48" y1="-20.32" x2="-2.54" y2="-15.24" width="0.1524" layer="91"/>
</segment>
</net>
<net name="N$9" class="0">
<segment>
<pinref part="X4" gate="-1" pin="KL"/>
<pinref part="B1" gate="G$1" pin="53"/>
<wire x1="48.26" y1="-22.86" x2="38.1" y2="-17.78" width="0.1524" layer="91"/>
<wire x1="38.1" y1="-17.78" x2="33.02" y2="-17.78" width="0.1524" layer="91"/>
</segment>
</net>
<net name="N$10" class="0">
<segment>
<pinref part="X3" gate="-2" pin="KL"/>
<wire x1="-27.94" y1="78.74" x2="-2.54" y2="78.74" width="0.1524" layer="91"/>
<pinref part="B1" gate="G$1" pin="5V@1"/>
</segment>
</net>
<net name="N$15" class="0">
<segment>
<pinref part="X8" gate="-1" pin="S"/>
<pinref part="B1" gate="G$1" pin="8"/>
<wire x1="-27.94" y1="15.24" x2="-2.54" y2="5.08" width="0.1524" layer="91"/>
</segment>
</net>
<net name="N$16" class="0">
<segment>
<pinref part="X8" gate="-2" pin="S"/>
<pinref part="B1" gate="G$1" pin="9"/>
<wire x1="-27.94" y1="10.16" x2="-2.54" y2="2.54" width="0.1524" layer="91"/>
</segment>
</net>
<net name="N$17" class="0">
<segment>
<pinref part="X9" gate="-1" pin="S"/>
<pinref part="B1" gate="G$1" pin="A0(RX0)"/>
<wire x1="-27.94" y1="66.04" x2="-2.54" y2="66.04" width="0.1524" layer="91"/>
</segment>
</net>
<net name="N$18" class="0">
<segment>
<pinref part="X9" gate="-2" pin="S"/>
<wire x1="-27.94" y1="60.96" x2="-25.4" y2="60.96" width="0.1524" layer="91"/>
<pinref part="B1" gate="G$1" pin="A1(TX0)"/>
<wire x1="-25.4" y1="60.96" x2="-2.54" y2="63.5" width="0.1524" layer="91"/>
</segment>
</net>
</nets>
</sheet>
</sheets>
</schematic>
</drawing>
<compatibility>
<note version="8.2" severity="warning">
Since Version 8.2, EAGLE supports online libraries. The ids
of those online libraries will not be understood (or retained)
with this version.
</note>
<note version="8.3" severity="warning">
Since Version 8.3, EAGLE supports URNs for individual library
assets (packages, symbols, and devices). The URNs of those assets
will not be understood (or retained) with this version.
</note>
<note version="8.3" severity="warning">
Since Version 8.3, EAGLE supports the association of 3D packages
with devices in libraries, schematics, and board files. Those 3D
packages will not be understood (or retained) with this version.
</note>
</compatibility>
</eagle>
