0.4968,0.42295
0.49646,0.43074
0.49617,0.43723
0.49593,0.44289
0.49593,0.44289
0.49593,0.44289
0.49593,0.44289
0.49593,0.44289
0.49593,0.44289
0.49593,0.44289
0.49593,0.44289
0.49592,0.44141
0.4959,0.4392
0.49589,0.43772
0.49589,0.43772
0.49611,0.43773
0.49645,0.43773
0.49668,0.43774
0.49668,0.43774
0.49668,0.43774
0.49668,0.43774
0.49645,0.43773
0.49611,0.43773
0.49589,0.43772
0.49589,0.43772
0.49589,0.43772
0.49589,0.43772
0.49589,0.43772
0.49589,0.43772
0.49589,0.43772
0.49611,0.43773
0.49645,0.43773
0.49668,0.43774
0.49668,0.43774
0.49668,0.43774
0.49668,0.43774
0.49668,0.43774
0.49668,0.43774
0.49668,0.43774
0.49668,0.43774
0.49668,0.43774
0.49668,0.43774
0.49668,0.43774
0.49668,0.43774
0.49668,0.43774
0.49668,0.43774
0.49668,0.43774
0.49668,0.43774
0.49668,0.43774
0.49668,0.43774
0.49668,0.43774
0.49668,0.43774
0.49668,0.43774
0.49668,0.43774
0.49668,0.43774
0.49668,0.43774
0.49668,0.43774
0.49668,0.43774
0.49668,0.43774
0.49668,0.43774
0.49668,0.43774
0.49668,0.43774
0.49668,0.43774
0.49668,0.43774
0.49668,0.43774
0.49668,0.43774
0.49668,0.43774
0.49668,0.43774
0.49668,0.43774
0.49668,0.43774
0.49668,0.43774
0.49668,0.43774
0.49668,0.43774
0.49668,0.43774
0.49668,0.43774
0.49668,0.43774
0.49668,0.43774
0.49668,0.43774
0.49668,0.43774
0.49668,0.43774
0.49668,0.43774
0.49668,0.43774
0.49668,0.43774
0.49668,0.43774
0.49691,0.43922
0.49726,0.44143
0.49749,0.44291
0.49749,0.44291
0.49727,0.44291
0.49693,0.4429
0.49671,0.4429
0.49671,0.4429
0.49672,0.44437
0.49673,0.44656
0.49674,0.44803
0.49674,0.44803
0.49674,0.44803
0.49674,0.44803
0.49674,0.44803
0.49674,0.44803
0.49674,0.44803
0.49697,0.44803
0.4973,0.44804
0.49752,0.44804
0.49752,0.44804
0.49775,0.44804
0.49808,0.44805
0.4983,0.44805
0.4983,0.44805
0.4983,0.44805
0.4983,0.44805
0.4983,0.44805
0.4983,0.44805
0.4983,0.44805
0.4983,0.44805
0.49808,0.44805
0.49775,0.44804
0.49752,0.44658
0.4975,0.44439
0.49727,0.44291
0.49693,0.4429
0.49671,0.4429
0.49671,0.4429
0.49693,0.4429
0.49727,0.44291
0.49749,0.44291
0.49772,0.44292
0.49804,0.44145
0.49825,0.43925
0.49825,0.43925
0.49827,0.44145
0.49828,0.44293
0.49828,0.44293
0.49828,0.44293
0.49828,0.4444
0.49807,0.44659
0.49775,0.44804
0.49753,0.4495
0.49777,0.45168
0.49789,0.45314
0.49778,0.45314
0.49756,0.45313
0.49762,0.46323
0.49794,0.47946
0.49833,0.49127
0.49855,0.49265
0.49855,0.49265
0.49855,0.49265
0.49856,0.49402
0.49878,0.4947
0.4991,0.49403
0.49931,0.49266
0.49931,0.49266
0.49931,0.49266
0.49931,0.49266
0.49953,0.49404
0.49986,0.49472
0.50029,0.49405
0.50061,0.49268
0.50082,0.49268
0.50083,0.49406
0.50084,0.4961
0.50085,0.49884
0.50087,0.50358
0.50088,0.50762
0.50399,0.507
0.50863,0.50371
0.51196,0.50241
0.51251,0.50106
0.51304,0.50176
0.51326,0.50038
0.51349,0.49837
0.51404,0.49495
0.51456,0.49839
0.51496,0.50313
0.51527,0.50584
0.51549,0.50382
0.51549,0.50382
0.51549,0.50449
0.51592,0.50383
0.51657,0.50249
0.517,0.50249
0.51698,0.5052
0.51719,0.50654
0.51752,0.50521
0.51774,0.50386
0.51816,0.50589
0.51902,0.50455
0.5198,0.50187
0.52022,0.50255
0.52074,0.50458
0.52128,0.50392
0.52149,0.50392
0.52171,0.50324
0.52226,0.50191
0.52281,0.50123
0.52324,0.50124
0.52554,0.49788
0.5289,0.4959
0.53115,0.49661
0.53134,0.49798
0.53158,0.49662
0.53218,0.49321
0.53273,0.49254
0.53295,0.49252
0.53341,0.49117
0.53411,0.48842
0.53451,0.48981
0.53469,0.49187
0.53523,0.49188
0.53581,0.48984
0.53603,0.48984
0.5362,0.4919
0.53671,0.49328
0.53725,0.49329
0.53768,0.4933
0.538,0.49331
0.53844,0.49331
0.53876,0.49332
0.53919,0.49333
0.53973,0.49333
0.54027,0.49334
0.5407,0.49335
0.54127,0.49199
0.54183,0.49132
0.54228,0.49062
0.54284,0.48995
0.54338,0.48996
0.54376,0.49203
0.54429,0.49204
0.54485,0.49137
0.54527,0.49205
0.54588,0.4893
0.54659,0.4831
0.54711,0.48032
0.54733,0.4838
0.54763,0.48865
0.54833,0.49073
0.54921,0.49006
0.54999,0.48592
0.55039,0.48316
0.55081,0.48386
0.55159,0.48316
0.55257,0.47972
0.55294,0.48181
0.55291,0.48942
0.5534,0.49081
0.55408,0.48669
0.55461,0.48392
0.55515,0.48393
0.55596,0.48255
0.55652,0.48187
0.55693,0.48257
0.55752,0.48118
0.55822,0.47701
0.55876,0.4742
0.55925,0.47562
0.55994,0.47773
0.56043,0.47914
0.56092,0.47775
0.56154,0.47566
0.56236,0.47426
0.56312,0.47428
0.56361,0.47569
0.56397,0.4778
0.5644,0.48061
0.56507,0.48271
0.56562,0.48272
0.56614,0.48064
0.5668,0.47785
0.56749,0.47435
0.56808,0.47083
0.56869,0.46943
0.56939,0.47086
0.56978,0.47439
0.57025,0.47368
0.57095,0.47019
0.57147,0.47089
0.57184,0.4723
0.57242,0.47163
0.57303,0.4702
0.57359,0.47235
0.57421,0.47305
0.57459,0.47447
0.5748,0.47448
0.57528,0.47589
0.57581,0.4808
0.57644,0.48359
0.57683,0.48222
0.57701,0.48082
0.57744,0.47872
0.5783,0.47666
0.57892,0.47524
0.57925,0.47737
0.57983,0.47667
0.5807,0.47458
0.58135,0.47248
0.58183,0.47177
0.58212,0.47249
0.58252,0.4732
0.58277,0.47461
0.58321,0.47462
0.58375,0.47463
0.58422,0.47605
0.58462,0.47675
0.58491,0.47747
0.58552,0.47817
0.58633,0.47537
0.58772,0.46621
0.58847,0.46051
0.58873,0.46193
0.58875,0.46336
0.58946,0.46267
0.58991,0.46624
0.59041,0.46908
0.59081,0.46769
0.59125,0.46769
0.59155,0.47194
0.59232,0.47195
0.59286,0.47198
0.59343,0.46983
0.5935,0.47412
0.59411,0.47124
0.5943,0.47344
0.59453,0.47338
0.5944,0.47903
0.59507,0.47693
0.59557,0.47765
0.59584,0.47694
0.59636,0.47202
0.59708,0.46567
0.59766,0.46352
0.59803,0.46638
0.59875,0.4671
0.59934,0.46641
0.59975,0.46356
0.6001,0.46142
0.60062,0.45855
0.60101,0.45929
0.60106,0.46358
0.60127,0.46714
0.60165,0.46645
0.60208,0.46646
0.60259,0.46717
0.60318,0.46647
0.6035,0.46505
0.604,0.46076
0.60499,0.45431
0.60615,0.4485
0.60686,0.44633
0.60688,0.44926
0.60654,0.45432
0.60681,0.4536
0.60736,0.45364
0.60761,0.45794
0.60758,0.46155
0.6081,0.45724
0.60906,0.45147
0.60952,0.44638
0.6093,0.44637
0.60916,0.45002
0.60966,0.45075
0.61064,0.4464
0.61144,0.44127
0.61147,0.44569
0.61116,0.45149
0.6114,0.45442
0.61221,0.45079
0.61265,0.44936
0.61281,0.44862
0.61271,0.45154
0.6131,0.45226
0.61371,0.45156
0.61426,0.45157
0.61454,0.45083
0.61454,0.45085
0.61465,0.45229
0.61498,0.4523
0.61564,0.44941
0.61603,0.44868
0.61603,0.4516
0.61642,0.45232
0.61692,0.45161
0.61725,0.4487
0.61708,0.44798
0.61747,0.44578
0.61847,0.43992
0.61959,0.43551
0.61981,0.43698
0.61947,0.43994
0.61925,0.43993
0.61925,0.43993
0.61936,0.44141
0.61953,0.44362
0.61986,0.44509
0.62042,0.4451
0.62097,0.44511
0.62131,0.44365
0.62182,0.43998
0.62244,0.4363
0.6229,0.43332
0.62295,0.43259
0.6229,0.43332
0.62278,0.43481
0.623,0.43482
0.62368,0.43334
0.62442,0.43112
0.62476,0.42963
0.62464,0.43112
0.62447,0.43335
0.62457,0.43485
0.62491,0.43485
0.62525,0.43337
0.62543,0.43114
0.62577,0.42965
0.62611,0.42965
0.62633,0.42966
0.62621,0.43115
0.62603,0.43338
0.62626,0.43339
0.6269,0.42967
0.62742,0.42593
0.62755,0.42442
0.62765,0.42593
0.6278,0.42818
0.62791,0.42969
0.62791,0.42969
0.62813,0.42969
0.62847,0.4297
0.62869,0.4297
0.62869,0.4297
0.62869,0.4297
0.62869,0.4297
0.62869,0.4297
0.62869,0.4297
0.62882,0.4282
0.62888,0.42746
0.62882,0.4282
0.62892,0.4297
0.62925,0.42971
0.62948,0.42971
0.6297,0.42972
0.63004,0.42972
0.63037,0.43123
0.63064,0.43197
0.63093,0.43124
0.63128,0.42975
0.63161,0.42975
0.63184,0.42976
0.63184,0.42976
0.63194,0.43126
0.63221,0.432
0.6325,0.43127
0.6325,0.43127
0.63231,0.43349
0.63218,0.43498
0.63228,0.43647
0.63243,0.43869
0.63227,0.44312
0.63212,0.4475
0.63258,0.44604
0.63372,0.43798
0.63463,0.43131
0.63524,0.42681
0.63563,0.42231
0.6354,0.42231
0.63468,0.4268
0.63429,0.4313
0.63479,0.43205
0.63541,0.43132
0.63603,0.42683
0.63616,0.42534
0.63639,0.42533
0.63604,0.43059
0.63548,0.43578
0.63557,0.43726
0.63627,0.43432
0.63681,0.43208
0.63712,0.42985
0.63754,0.42762
0.63747,0.42836
0.63721,0.43135
0.63724,0.43358
0.63722,0.43507
0.63685,0.43804
0.63624,0.44244
0.63598,0.44538
0.63624,0.44244
0.63685,0.43804
0.63744,0.43508
0.63767,0.43508
0.63744,0.43508
0.63698,0.43656
0.63669,0.43728
0.63675,0.43655
0.63711,0.43507
0.63754,0.43657
0.6379,0.43879
0.63799,0.44027
0.63799,0.44027
0.63799,0.44027
0.63799,0.44027
0.63834,0.4388
0.63888,0.43659
0.63923,0.43511
0.6391,0.4366
0.6389,0.43881
0.63851,0.44323
0.63825,0.44615
0.63831,0.44542
0.63864,0.44176
0.63877,0.44028
0.6389,0.43881
0.6391,0.4366
0.63923,0.43511
0.63923,0.43511
0.63923,0.43511
0.6391,0.4366
0.63855,0.44028
0.63824,0.44248
0.63828,0.44323
0.63844,0.44396
0.63818,0.44689
0.63799,0.44907
0.63808,0.45053
0.63841,0.45054
0.63841,0.45054
0.63808,0.45053
0.63808,0.45053
0.63841,0.45054
0.63863,0.45054
0.63841,0.45054
0.63808,0.45053
0.63772,0.45198
0.63766,0.4527
0.63772,0.45198
0.63772,0.45198
0.63788,0.4527
0.63828,0.45199
0.63828,0.45199
0.63775,0.45415
0.63749,0.45704
0.63763,0.4592
0.63785,0.4592
0.63827,0.45706
0.63873,0.45562
0.63863,0.45417
0.6385,0.46783
0.6386,0.48808
0.63879,0.50113
0.63871,0.49976
0.63879,0.50113
0.63892,0.50315
0.63901,0.50451
0.63901,0.50451
0.6391,0.50586
0.63923,0.50788
0.63919,0.51057
0.639,0.51256
0.63888,0.5139
0.63913,0.51123
0.6395,0.50722
0.63976,0.50452
0.63989,0.50317
0.64008,0.50115
0.64033,0.49843
0.64027,0.49912
0.64014,0.50046
0.64008,0.50115
0.64046,0.49706
0.64072,0.49435
0.64078,0.49365
0.64078,0.49365
0.64097,0.4916
0.64097,0.4916
0.6407,0.49913
0.64019,0.51124
0.6396,0.52185
0.6395,0.52513
0.64,0.52318
0.64125,0.51459
0.64246,0.50525
0.64285,0.50119
0.64213,0.50321
0.64134,0.5059
0.64119,0.50521
0.64119,0.50523
0.64106,0.50656
0.64068,0.51059
0.6407,0.51259
0.64038,0.51924
0.64022,0.52316
0.64028,0.52253
0.64066,0.51857
0.64087,0.51858
0.64131,0.51726
0.64184,0.51394
0.64203,0.51195
0.6418,0.51661
0.64154,0.52253
0.64177,0.52452
0.64221,0.52321
0.64242,0.52322
0.64297,0.52191
0.64359,0.51994
0.64369,0.51995
0.64329,0.52191
0.64324,0.52455
0.64324,0.52782
0.64313,0.53107
0.64334,0.53107
0.64358,0.53174
0.64405,0.52912
0.64457,0.52392
0.64509,0.51864
0.64517,0.51997
0.64529,0.52194
0.64537,0.52326
0.64524,0.52458
0.64483,0.52653
0.64434,0.53045
0.64368,0.5382
0.64306,0.54649
0.6434,0.54522
0.64447,0.53757
0.64532,0.5311
0.64573,0.52916
0.64596,0.52786
0.64573,0.52916
0.64519,0.5324
0.64487,0.53563
0.64469,0.5395
0.64475,0.54205
0.64476,0.54398
0.64496,0.54205
0.64521,0.53951
0.64573,0.53435
0.6456,0.53566
0.64547,0.53691
0.64554,0.5363
0.64593,0.53241
0.64587,0.53501
0.64554,0.54143
0.64544,0.54652
0.64581,0.5459
0.64634,0.54273
0.64647,0.54145
0.64634,0.54273
0.64602,0.54591
0.64586,0.55161
0.64609,0.55537
0.64669,0.5535
0.64734,0.5472
0.6478,0.54275
0.64814,0.54147
0.64852,0.54276
0.64884,0.54467
0.64905,0.54468
0.64925,0.54277
0.64938,0.54149
0.64959,0.54149
0.6499,0.5415
0.64998,0.54278
0.64978,0.54469
0.64964,0.54596
0.64985,0.54596
0.65016,0.54597
0.65037,0.54597
0.65024,0.54724
0.65004,0.54914
0.64998,0.55167
0.65009,0.55356
0.6499,0.55732
0.64984,0.55981
0.64995,0.56169
0.6497,0.56602
0.64951,0.56785
0.64989,0.56418
0.65049,0.56045
0.65087,0.55982
0.65134,0.55735
0.65181,0.55484
0.65198,0.5561
0.65185,0.55922
0.65186,0.56109
0.6521,0.56172
0.65265,0.56234
0.65299,0.56483
0.6532,0.56669
0.65293,0.56915
0.65294,0.57099
0.65318,0.57344
0.65349,0.57527
0.65369,0.57527
0.65376,0.57467
0.65382,0.57405
0.65423,0.57223
0.65507,0.56918
0.65571,0.56796
0.65592,0.56796
0.65592,0.56796
0.65585,0.57042
0.65595,0.57409
0.65619,0.57653
0.65625,0.57775
0.65619,0.57835
0.65625,0.57775
0.65646,0.57775
0.65629,0.58199
0.65595,0.58678
0.65595,0.58678
0.65635,0.58319
0.65676,0.5832
0.65668,0.58919
0.65655,0.59393
0.65661,0.59335
0.65681,0.59157
0.65695,0.59216
0.65711,0.59336
0.65738,0.59455
0.65761,0.59513
0.65774,0.59574
0.65768,0.59632
0.65794,0.5975
0.6584,0.59869
0.65846,0.60162
0.65813,0.60454
0.65772,0.60802
0.65773,0.60801
0.65832,0.6063
0.65945,0.60339
0.66007,0.60399
0.66034,0.6034
0.66047,0.60399
0.66037,0.60573
0.6604,0.60631
0.66077,0.604
0.66124,0.60166
0.6613,0.60284
0.66126,0.60575
0.66125,0.60749
0.66132,0.60691
0.66145,0.60575
0.66124,0.60924
0.66112,0.61441
0.66107,0.61899
0.66093,0.62183
0.66086,0.62239
0.66113,0.62013
0.66127,0.619
0.66106,0.6207
0.66106,0.6207
0.66173,0.61671
0.6623,0.61444
0.66236,0.61557
0.66228,0.61787
0.66258,0.61787
0.66277,0.61787
0.66283,0.61902
0.66278,0.62186
0.66264,0.62469
0.6625,0.62582
0.66256,0.62695
0.66285,0.62863
0.66319,0.62976
0.66339,0.62976
0.66325,0.63088
0.66297,0.63479
0.66311,0.63922
0.66361,0.64143
0.66399,0.64144
0.66372,0.64364
0.66365,0.64582
0.66414,0.64419
0.6652,0.6387
0.66583,0.63594
0.66596,0.63649
0.66582,0.6376
0.66582,0.6376
0.6659,0.63538
0.6658,0.63539
0.66581,0.63925
0.66582,0.64531
0.666,0.64694
0.66607,0.6464
0.66621,0.64531
0.66613,0.6475
0.66587,0.65184
0.66531,0.65776
0.66478,0.66203
0.66491,0.66096
0.66551,0.65616
0.66611,0.65292
0.6664,0.65293
0.66659,0.65293
0.66678,0.65293
0.66707,0.65294
0.66712,0.65402
0.66697,0.65671
0.66691,0.65939
0.66697,0.66046
0.66702,0.66153
0.6671,0.66312
0.66729,0.66313
0.66722,0.66367
0.66701,0.66684
0.66752,0.66948
0.66862,0.66897
0.66918,0.66898
0.66879,0.67055
0.66851,0.67055
0.66863,0.67108
0.66892,0.67317
0.66916,0.67422
0.6695,0.67161
0.66998,0.66793
0.67005,0.66741
0.66955,0.67266
0.669,0.68046
0.66872,0.68612
0.66884,0.68663
0.66911,0.68459
0.66943,0.68357
0.66983,0.68408
0.67036,0.68358
0.67041,0.68461
0.67,0.68767
0.66987,0.68869
0.66988,0.68717
0.66988,0.68511
0.66981,0.68563
0.67014,0.68665
0.67053,0.68717
0.67099,0.68512
0.67106,0.68462
0.67118,0.68513
0.67132,0.68616
0.67137,0.68718
0.67103,0.68973
0.67074,0.69328
0.67054,0.69682
0.67066,0.69732
0.67079,0.69632
0.67086,0.69581
0.67099,0.6948
0.6714,0.69177
0.67141,0.69583
0.67094,0.70681
0.67095,0.71272
0.67174,0.70831
0.67255,0.70236
0.67301,0.70036
0.67282,0.70237
0.67265,0.70435
0.67239,0.70684
0.67231,0.70881
0.67204,0.71078
0.67204,0.71078
0.6719,0.71176
0.67143,0.71519
0.67157,0.7142
0.671,0.71569
0.66974,0.72099
0.66833,0.72868
0.66827,0.72915
0.66843,0.7306
0.66866,0.73154
0.66855,0.73297
0.66831,0.73344
0.66912,0.72483
0.67051,0.7093
0.67142,0.69784
0.6711,0.69884
0.67025,0.70781
0.66943,0.71661
0.66881,0.72051
0.66974,0.71024
0.67044,0.70237
0.6703,0.70132
0.66918,0.70828
0.66825,0.71663
0.66754,0.72385
0.66767,0.72292
0.66774,0.71905
0.66691,0.72048
0.6664,0.72096
0.66623,0.71951
0.66641,0.71609
0.66651,0.71121
0.66636,0.70825
0.66562,0.70972
0.66529,0.70872
0.66489,0.70972
0.66475,0.7087
0.66421,0.70724
0.66355,0.70523
0.66229,0.71215
0.66085,0.72331
0.65926,0.73285
0.6583,0.73617
0.65759,0.73757
0.65708,0.73803
0.65658,0.73709
0.65602,0.7366
0.65522,0.73942
0.65504,0.73941
0.65515,0.73707
0.65495,0.73518
0.6548,0.7328
0.65569,0.72422
0.65545,0.72617
0.65385,0.7375
0.65242,0.74685
0.65259,0.74266
0.65272,0.73799
0.65303,0.7304
0.65281,0.72564
0.65239,0.72321
0.65108,0.72801
0.65143,0.72221
0.65208,0.7145
0.65164,0.71446
0.64882,0.73037
0.64678,0.74072
0.64555,0.74585
0.64499,0.74537
0.64432,0.74583
0.64498,0.73787
0.64657,0.72509
0.6469,0.72075
0.64495,0.73126
0.64368,0.73834
0.6436,0.73977
0.64355,0.74022
0.64294,0.74162
0.64257,0.74256
0.64231,0.74254
0.64218,0.74209
0.64209,0.74208
0.64318,0.73265
0.64489,0.71538
0.64607,0.70353
0.64607,0.70353
0.64559,0.70452
0.64514,0.70201
0.64339,0.70701
0.64042,0.71967
0.63769,0.73213
0.63655,0.73592
0.63699,0.73116
0.63692,0.7293
0.63594,0.73495
0.63528,0.73776
0.63626,0.72544
0.63746,0.70938
0.63741,0.70643
0.63706,0.71133
0.63626,0.71623
0.6348,0.72061
0.63272,0.72825
0.63121,0.73491
0.63054,0.73537
0.63034,0.733
0.63105,0.7244
0.63084,0.72299
0.62961,0.72965
0.62935,0.72869
0.63037,0.72057
0.63089,0.71811
0.63062,0.72248
0.63049,0.72199
0.63019,0.72054
0.63019,0.71616
0.63012,0.71323
0.6301,0.71076
0.62992,0.71077
0.62902,0.71957
0.62751,0.72914
0.62743,0.72725
0.62756,0.72149
0.62771,0.71464
0.62821,0.70233
0.62938,0.68871
0.62953,0.68254
0.62922,0.68101
0.62817,0.68971
0.62683,0.70328
0.62625,0.70726
0.62642,0.7028
0.62635,0.69979
0.62607,0.69979
0.6257,0.69979
0.62543,0.69978
0.62506,0.69978
0.62478,0.69977
0.62451,0.69877
0.62409,0.70028
0.62376,0.70175
0.62386,0.70077
0.6242,0.69726
0.62421,0.69524
0.62398,0.69473
0.62356,0.69523
0.6231,0.69522
0.6226,0.6937
0.62167,0.69471
0.62065,0.69771
0.62019,0.69871
0.62014,0.69922
0.61959,0.70121
0.61904,0.7012
0.61904,0.69719
0.61936,0.69366
0.61945,0.69265
0.61936,0.69366
0.61931,0.69416
0.61964,0.69265
0.61978,0.69215
0.61941,0.69315
0.6189,0.69366
0.61899,0.69061
0.61908,0.6896
0.61881,0.6906
0.61825,0.69365
0.61793,0.69516
0.61784,0.69414
0.61756,0.69416
0.61678,0.69665
0.61577,0.70167
0.61514,0.70465
0.61523,0.70365
0.61581,0.69715
0.61644,0.69007
0.61676,0.6865
0.61676,0.6865
0.61644,0.68803
0.61607,0.68905
0.61598,0.68802
0.61602,0.68546
0.61596,0.68289
0.61587,0.68186
0.61596,0.68082
0.61582,0.68031
0.61559,0.67978
0.61516,0.6803
0.61465,0.68081
0.61401,0.68287
0.61369,0.6844
0.61369,0.6844
0.61401,0.68287
0.61447,0.6808
0.6147,0.6803
0.61465,0.68081
0.61465,0.68081
0.61479,0.67926
0.61469,0.67822
0.61441,0.67822
0.61385,0.67821
0.61329,0.6782
0.61282,0.67923
0.61278,0.67975
0.61282,0.67923
0.61281,0.67715
0.61267,0.67559
0.61238,0.67454
0.61238,0.6735
0.6126,0.67193
0.61269,0.67088
0.61241,0.67088
0.61222,0.67087
0.61222,0.67087
0.61221,0.66876
0.61219,0.6656
0.61209,0.66454
0.61187,0.66718
0.61174,0.66876
0.61178,0.66824
0.61187,0.66718
0.61186,0.66506
0.61184,0.66188
0.61192,0.65866
0.61205,0.65706
0.61195,0.65598
0.61167,0.65598
0.61139,0.65705
0.61117,0.65973
0.61094,0.66239
0.61086,0.66346
0.61094,0.66239
0.61099,0.66187
0.61094,0.66239
0.61094,0.66239
0.61089,0.6608
0.61069,0.65972
0.61059,0.65865
0.61081,0.65597
0.61103,0.65328
0.61084,0.65327
0.61042,0.65488
0.61014,0.65596
0.61014,0.65596
0.61014,0.65596
0.60995,0.65596
0.60967,0.65595
0.60939,0.65703
0.60926,0.65863
0.60926,0.65863
0.60939,0.65703
0.60937,0.65487
0.60922,0.65325
0.60901,0.65108
0.60886,0.64945
0.6083,0.65162
0.60781,0.65646
0.60782,0.65754
0.60827,0.65432
0.60853,0.65107
0.60847,0.64945
0.60827,0.64836
0.60817,0.64726
0.60821,0.64672
0.60817,0.64726
0.60789,0.64835
0.6076,0.64835
0.60741,0.64834
0.60741,0.64834
0.60758,0.64616
0.60784,0.64288
0.60791,0.63957
0.60775,0.63792
0.60765,0.63681
0.60756,0.63792
0.60743,0.63957
0.60725,0.64178
0.60712,0.64342
0.60702,0.64232
0.60699,0.63902
0.60706,0.63569
0.60719,0.63402
0.60719,0.63402
0.60706,0.63569
0.60697,0.6368
0.60686,0.63568
0.60661,0.63513
0.60646,0.63456
0.60642,0.63513
0.60638,0.63568
0.60638,0.63568
0.6064,0.6329
0.60632,0.6301
0.60613,0.6301
0.606,0.63177
0.606,0.63177
0.60613,0.6301
0.60613,0.6301
0.606,0.63177
0.606,0.63177
0.60602,0.62897
0.60595,0.62616
0.60575,0.62616
0.60562,0.62784
0.60534,0.62896
0.60505,0.62896
0.60466,0.62895
0.60437,0.62895
0.60426,0.62782
0.6043,0.62727
0.60434,0.6267
0.60421,0.62839
0.60404,0.63062
0.60357,0.63174
0.6032,0.62893
0.60327,0.62273
0.60374,0.61648
0.60411,0.61419
0.60427,0.6159
0.6043,0.6182
0.60417,0.6199
0.60369,0.62103
0.6031,0.62103
0.6028,0.61988
0.60292,0.61818
0.60301,0.61703
0.60301,0.61703
0.60329,0.61589
0.60371,0.61418
0.60408,0.61188
0.60421,0.61016
0.60373,0.61131
0.60297,0.61359
0.60253,0.61416
0.60244,0.61531
0.60219,0.61873
0.60211,0.61987
0.6024,0.61588
0.60274,0.61129
0.6028,0.60781
0.60263,0.60607
0.60243,0.60607
0.6023,0.60781
0.60202,0.60896
0.60172,0.60896
0.60153,0.60896
0.60153,0.60896
0.60153,0.60896
0.60141,0.60779
0.60124,0.60606
0.60113,0.60489
0.60113,0.60489
0.60113,0.60489
0.60093,0.60488
0.60071,0.60371
0.60056,0.60313
0.60052,0.60371
0.60043,0.60488
0.60043,0.60488
0.59987,0.6072
0.59911,0.60949
0.59868,0.61008
0.59876,0.60892
0.59884,0.60776
0.59896,0.60602
0.59913,0.60369
0.59917,0.60311
0.59921,0.60252
0.59897,0.60311
0.59871,0.60251
0.59863,0.60076
0.59892,0.59665
0.59904,0.59488
0.599,0.59547
0.59892,0.59665
0.59909,0.59428
0.59933,0.59073
0.5995,0.58835
0.5995,0.58835
0.59942,0.58954
0.59929,0.59132
0.59893,0.5937
0.5985,0.59546
0.59822,0.59664
0.59822,0.59664
0.59815,0.59189
0.59804,0.58474
0.59808,0.58112
0.59826,0.58293
0.5983,0.58534
0.59818,0.58713
0.59809,0.58833
0.59809,0.58833
0.59809,0.58833
0.59809,0.58833
0.59809,0.58833
0.59789,0.58832
0.59759,0.58832
0.59739,0.58832
0.59711,0.58951
0.59677,0.59009
0.59661,0.5895
0.59677,0.58711
0.59689,0.58532
0.59697,0.58412
0.59697,0.58412
0.59697,0.58412
0.59685,0.58291
0.59667,0.5811
0.59655,0.57989
0.59655,0.57989
0.59655,0.57989
0.59627,0.5811
0.59556,0.58409
0.59486,0.58708
0.59458,0.58827
0.59458,0.58827
0.59486,0.58708
0.59528,0.58529
0.59552,0.58168
0.59546,0.57806
0.59542,0.57562
0.59542,0.57562
0.59542,0.57562
0.59542,0.57562
0.59542,0.57562
0.59562,0.57563
0.59592,0.57563
0.59612,0.57563
0.59584,0.57685
0.59542,0.57866
0.59513,0.57987
0.59513,0.57987
0.59513,0.57987
0.59513,0.57987
0.59534,0.57987
0.59564,0.57987
0.59592,0.57867
0.59604,0.57685
0.59612,0.57563
0.59612,0.57563
0.59629,0.57319
0.59653,0.56953
0.59641,0.5683
0.59598,0.57013
0.5957,0.57135
0.5957,0.57135
0.5957,0.57135
0.59578,0.57012
0.5959,0.56829
0.59598,0.56705
0.59606,0.56582
0.59619,0.56397
0.59627,0.56273
0.59627,0.56273
0.59627,0.56273
0.5961,0.56521
0.59586,0.56889
0.5957,0.57135
0.5957,0.57135
0.5957,0.57135
0.5957,0.57135
0.5957,0.57135
0.5957,0.57135
0.5957,0.57135
0.5957,0.57135
0.59586,0.56889
0.5961,0.56521
0.59627,0.56273
0.59627,0.56273
0.59627,0.56273
0.59664,0.56024
0.59719,0.55651
0.59757,0.55401
0.59765,0.55275
0.59778,0.55086
0.59786,0.5496
0.59807,0.5496
0.59838,0.5496
0.59858,0.54961
0.59858,0.54961
0.59858,0.54961
0.59858,0.54961
0.59858,0.54961
0.59858,0.54961
0.59858,0.54961
0.59858,0.54961
0.59858,0.54961
0.59867,0.54834
0.5988,0.54644
0.59888,0.54517
0.59888,0.54517
0.59897,0.54389
0.5991,0.54198
0.5991,0.54198
0.59897,0.54389
0.59888,0.54517
0.59888,0.54517
0.59897,0.54389
0.5991,0.54198
0.59918,0.5407
0.59918,0.5407
0.59918,0.5407
0.59918,0.5407
0.59918,0.5407
0.59935,0.53813
0.59961,0.53428
0.59953,0.53557
0.59914,0.54133
0.59897,0.54389
0.5991,0.54198
0.59927,0.53942
0.5994,0.5375
0.59961,0.5375
0.59979,0.53943
0.59991,0.54071
0.59991,0.54071
0.59991,0.54071
0.6,0.53943
0.59995,0.54008
0.59978,0.54263
0.59978,0.54263
0.60004,0.5388
0.6003,0.53492
0.60043,0.53299
0.60052,0.53169
0.60061,0.53039
0.60083,0.52714
0.60096,0.52518
0.60092,0.52583
0.60083,0.52714
0.60134,0.52583
0.60201,0.5252
0.60239,0.52585
0.60239,0.52585
0.60253,0.52389
0.60262,0.52258
0.60262,0.52258
0.60262,0.52258
0.60283,0.52258
0.60314,0.52258
0.60335,0.52259
0.60335,0.52259
0.60335,0.52259
0.60335,0.52259
0.60335,0.52259
0.60335,0.52259
0.60335,0.52259
0.60335,0.52259
0.60335,0.52259
0.60335,0.52259
0.60345,0.52127
0.60349,0.52062
0.60354,0.51995
0.60358,0.5193
0.60367,0.51797
0.60355,0.51664
0.60319,0.51731
0.60289,0.51861
0.60284,0.51929
0.60305,0.51929
0.6033,0.51729
0.60394,0.51267
0.60408,0.51667
0.60377,0.52716
0.60382,0.52652
0.60451,0.51668
0.60483,0.512
0.60474,0.51334
0.60474,0.51334
0.60483,0.512
0.60518,0.51001
0.6056,0.50867
0.60621,0.50599
0.60713,0.5006
0.608,0.49585
0.6081,0.49448
0.60831,0.49311
0.60888,0.49106
0.60941,0.48969
0.60941,0.48969
0.60941,0.48969
0.6091,0.49107
0.60863,0.49311
0.60853,0.49449
0.60885,0.49449
0.60897,0.49586
0.60892,0.49654
0.60897,0.49586
0.60885,0.49449
0.60875,0.49449
0.60864,0.49449
0.60865,0.49586
0.60918,0.4869
0.60987,0.47581
0.61022,0.47084
0.61004,0.4779
0.61006,0.48068
0.61001,0.48139
0.61011,0.47999
0.61021,0.47859
0.61057,0.47368
0.61065,0.46945
0.61007,0.47297
0.6093,0.48067
0.6089,0.48623
0.60905,0.48414
0.60962,0.47929
0.61014,0.47649
0.61021,0.47859
0.61013,0.48278
0.61025,0.48555
0.61074,0.48487
0.61121,0.4828
0.6117,0.4821
0.61207,0.48142
0.61239,0.48003
0.61313,0.47301
0.61445,0.45952
0.61552,0.44502
0.61551,0.44062
0.61573,0.43764
0.61634,0.43396
0.61779,0.4174
0.61904,0.40985
0.61955,0.41362
0.61954,0.42125
0.61886,0.42277
0.61842,0.4212
0.61892,0.41594
0.6204,0.40829
0.62143,0.40985
0.62228,0.41216
0.6226,0.41676
0.62225,0.4213
0.62202,0.42432
0.62248,0.4213
0.62293,0.41981
0.62352,0.41523
0.62375,0.41221
0.6241,0.41066
0.6242,0.41373
0.62443,0.41374
0.62467,0.41067
0.62572,0.40608
0.62676,0.403
0.62675,0.40455
0.62588,0.40839
0.62512,0.41222
0.62466,0.41374
0.62443,0.41374
0.62407,0.41831
0.62366,0.42358
0.62348,0.42586
0.6236,0.42435
0.6236,0.42435
0.62383,0.42435
0.62416,0.42436
0.62439,0.42436
0.62439,0.42436
0.62439,0.42436
0.62439,0.42436
0.62473,0.42286
0.62513,0.42212
0.62542,0.42136
0.62536,0.42212
0.62578,0.4168
0.62651,0.40764
0.62706,0.40068
0.62758,0.3999
0.6282,0.4007
0.6286,0.40148
0.6286,0.40148
0.62879,0.39915
0.62891,0.39759
0.62899,0.40228
0.62962,0.40303
0.63018,0.40464
0.6304,0.40615
0.63066,0.40848
0.63132,0.40464
0.63168,0.40309
0.63168,0.40309
0.63203,0.40154
0.6328,0.39923
0.63363,0.39611
0.63429,0.39378
0.63476,0.39222
0.63499,0.39222
0.63499,0.39222
0.63536,0.39065
0.63613,0.3883
0.63671,0.38831
0.63674,0.39068
0.63684,0.39226
0.63718,0.39226
0.63741,0.39227
0.63764,0.39227
0.63799,0.39228
0.63822,0.39228
0.63859,0.39071
0.63937,0.38836
0.63999,0.3852
0.64022,0.38123
0.64061,0.37402
0.64145,0.37244
0.64177,0.37805
0.64163,0.38364
0.64184,0.38126
0.64249,0.38048
0.6433,0.38048
0.64402,0.37891
0.64426,0.37892
0.64458,0.3805
0.64542,0.37894
0.64603,0.37734
0.64581,0.37974
0.64581,0.37974
0.6464,0.37574
0.64712,0.37173
0.64788,0.3685
0.6483,0.36771
0.64885,0.36689
0.64927,0.3661
0.65004,0.36284
0.65032,0.36368
0.6504,0.36529
0.65056,0.36612
0.65106,0.3645
0.65168,0.36287
0.65211,0.36208
0.65212,0.36452
0.65174,0.36858
0.65174,0.36858
0.65259,0.36453
0.65328,0.3621
0.65333,0.36291
0.65324,0.36127
0.65371,0.35636
0.65441,0.3514
0.65516,0.34726
0.65579,0.3431
0.65642,0.34143
0.65713,0.34145
0.65721,0.34313
0.65686,0.34562
0.65697,0.34563
0.65777,0.33977
0.65817,0.33812
0.65796,0.34397
0.65772,0.35147
0.65791,0.35313
0.65831,0.35148
0.65855,0.349
0.65935,0.34567
0.6599,0.34486
0.65994,0.34569
0.6597,0.34568
0.66035,0.34151
0.66159,0.33733
0.66271,0.33566
0.66319,0.33567
0.66319,0.33567
0.66319,0.33567
0.66342,0.33567
0.66378,0.33568
0.66409,0.33738
0.6642,0.3399
0.66451,0.34159
0.66503,0.33992
0.66576,0.33741
0.66629,0.33573
0.66694,0.33405
0.66772,0.32981
0.66788,0.33068
0.6681,0.33321
0.66829,0.33832
0.66886,0.33745
0.66994,0.33157
0.67154,0.32305
0.67235,0.3222
0.67236,0.32564
0.67275,0.32649
0.67344,0.32566
0.67422,0.32396
0.67446,0.32396
0.6747,0.32397
0.67512,0.3257
0.67587,0.32656
0.67674,0.32401
0.67768,0.31973
0.67847,0.31801
0.67907,0.31802
0.67955,0.31803
0.68034,0.31631
0.68123,0.31374
0.68166,0.312
0.6819,0.312
0.68251,0.31202
0.68316,0.31378
0.68372,0.31638
0.68413,0.31813
0.68418,0.31986
0.68433,0.32072
0.68483,0.3216
0.68577,0.32075
0.68652,0.32164
0.68722,0.32078
0.68804,0.31994
0.68876,0.31996
0.68943,0.32255
0.68995,0.32428
0.69111,0.32258
0.69217,0.32175
0.69291,0.32262
0.69363,0.32263
0.69445,0.3218
0.69528,0.32094
0.69574,0.3201
0.69687,0.31666
0.6977,0.31582
0.69901,0.31496
0.70044,0.31413
0.70222,0.31243
0.70298,0.31419
0.70384,0.31506
0.70445,0.31596
0.70531,0.31683
0.70585,0.32031
0.70682,0.32118
0.70777,0.32035
0.70929,0.31691
0.71105,0.31261
0.71271,0.31003
0.71381,0.31092
0.71467,0.31268
0.71576,0.31271
0.71674,0.31447
0.71749,0.31708
0.7181,0.31883
0.71895,0.31885
0.72003,0.31887
0.72146,0.31717
0.7229,0.3146
0.72422,0.31288
0.72567,0.31291
0.72688,0.31468
0.72785,0.31556
0.72905,0.31473
0.73074,0.31302
0.73194,0.31479
0.73267,0.3174
0.7335,0.31915
0.73471,0.31917
0.73554,0.32092
0.73625,0.32351
0.73769,0.32354
0.73951,0.321
0.74108,0.3193
0.74252,0.31933
0.74397,0.31936
0.74479,0.32111
0.74525,0.32369
0.74581,0.32714
0.74638,0.32971
0.74734,0.32973
0.74892,0.32721
0.75086,0.32553
0.75254,0.32556
0.75397,0.32559
0.75478,0.32733
0.75546,0.32989
0.75636,0.33332
0.75715,0.33587
0.75783,0.33758
0.75854,0.3376
0.7595,0.33762
0.76045,0.33764
0.76152,0.33766
0.76235,0.33767
0.76294,0.33769
0.76484,0.33772
0.76809,0.3361
0.76972,0.34205
0.77057,0.34621
0.77209,0.34628
0.7741,0.34212
0.77436,0.34548
0.77529,0.34632
0.77689,0.34385
0.78569,0.33306
0.79867,0.31443
0.80868,0.29708
0.8112,0.28818
0.81247,0.28732
0.81362,0.28643
0.81443,0.28736
0.81514,0.29006
0.81557,0.2981
0.81513,0.30866
0.81558,0.3139
0.81782,0.31047
0.82079,0.30263
0.82228,0.30002
0.82308,0.30091
0.82396,0.30446
0.82467,0.30886
0.82455,0.31497
0.82442,0.31929
0.82528,0.32104
0.82613,0.32279
0.82623,0.32708
0.82691,0.32965
0.82851,0.32884
0.82924,0.33056
0.82938,0.33395
0.82959,0.3382
0.83101,0.33821
0.83243,0.33826
0.83402,0.33574
0.83526,0.33493
0.83645,0.33495
0.83699,0.33749
0.83771,0.3392
0.83854,0.3409
0.83872,0.3451
0.83867,0.34927
0.83973,0.34929
0.84072,0.35015
0.84108,0.35346
0.84108,0.35842
0.84078,0.36415
0.84021,0.36901
0.84073,0.36984
0.84306,0.365
0.84552,0.35851
0.84724,0.35276
0.84878,0.34947
0.85014,0.34867
0.85065,0.35117
0.85093,0.35366
0.85157,0.35451
0.85221,0.35534
0.8523,0.35864
0.85294,0.35947
0.85357,0.36031
0.85421,0.36114
0.85453,0.36442
0.85551,0.36525
0.85601,0.36771
0.85586,0.37094
0.85547,0.37578
0.85562,0.37819
0.85595,0.3798
0.85653,0.37981
0.8572,0.38142
0.85758,0.38382
0.85767,0.38541
0.85695,0.38857
0.85682,0.39013
0.85775,0.38859
0.85869,0.38702
0.85884,0.38939
0.85916,0.39098
0.85962,0.39099
0.85948,0.39256
0.85974,0.39492
0.86029,0.3965
0.86097,0.39651
0.86095,0.39808
0.86087,0.40041
0.86121,0.40042
0.8628,0.39655
0.86417,0.39265
0.86465,0.39108
0.86428,0.39266
0.86408,0.395
0.86417,0.39657
0.86451,0.39658
0.86451,0.39658
0.86403,0.39814
0.86323,0.40201
0.86278,0.40588
0.86239,0.40896
0.8623,0.41126
0.86228,0.4128
0.86251,0.4128
0.86214,0.41433
0.86147,0.41813
0.86092,0.4219
0.86092,0.4219
0.86112,0.41964
0.86161,0.4166
0.86214,0.41433
0.86251,0.4128
0.86251,0.4128
0.86178,0.41585
0.86071,0.42038
0.86,0.4234
0.86,0.4234
0.86036,0.42189
0.86089,0.41964
0.86053,0.42115
0.85925,0.42565
0.8582,0.42864
0.85728,0.43162
0.85588,0.43754
0.85501,0.44121
0.85553,0.43901
0.85653,0.43384
0.85672,0.43161
0.85667,0.43085
0.8565,0.43161
0.85645,0.43085
0.85594,0.4316
0.85532,0.43232
0.85464,0.4338
0.85407,0.43528
0.85333,0.43749
0.85231,0.44044
0.85135,0.44262
0.85068,0.44409
0.85046,0.44408
0.85092,0.44114
0.85139,0.43672
0.85096,0.43523
0.85046,0.43595
0.85051,0.43522
0.84767,0.44846
0.84286,0.46847
0.83923,0.48181
0.83832,0.48249
0.83821,0.48109
0.83863,0.47691
0.83852,0.47409
0.83808,0.47266
0.83738,0.47337
0.83631,0.47615
0.83566,0.47755
0.83443,0.48104
0.83254,0.48793
0.83158,0.4893
0.83119,0.48724
0.82935,0.49202
0.82769,0.49746
0.82737,0.49748
0.82741,0.49541
0.82651,0.49609
0.82652,0.49127
0.82708,0.4844
0.82748,0.48021
0.82606,0.48367
0.82465,0.48711
0.8233,0.49124
0.82279,0.49259
0.82295,0.48847
0.82239,0.4871
0.82084,0.49118
0.81955,0.49461
0.81851,0.49596
0.81679,0.50137
0.8163,0.50067
0.81782,0.48977
0.81911,0.47938
0.8179,0.48145
0.81662,0.48488
0.81582,0.4856
0.81607,0.4814
0.81535,0.48072
0.81501,0.47929
0.81451,0.47859
0.81502,0.47368
0.8144,0.47297
0.81267,0.47856
0.80989,0.48963
0.80748,0.49849
0.80623,0.49983
0.80652,0.49439
0.80768,0.48683
0.80674,0.48822
0.80479,0.49296
0.80257,0.49843
0.80244,0.49704
0.80346,0.49158
0.80511,0.48263
0.80432,0.48122
0.80353,0.47978
0.80266,0.47981
0.80224,0.47976
0.80177,0.48257
0.80209,0.48047
0.80019,0.48394
0.79799,0.48734
0.7966,0.48941
0.79613,0.48802
0.79537,0.488
0.79546,0.48384
0.79568,0.47898
0.79619,0.47264
0.79641,0.4677
0.79678,0.46199
0.79666,0.45984
0.79601,0.45983
0.79549,0.45909
0.79512,0.45766
0.79493,0.45692
0.79449,0.45691
0.79386,0.45619
0.79285,0.45689
0.79191,0.45831
0.7918,0.45831
0.79119,0.45974
0.79012,0.46187
0.78935,0.46186
0.78911,0.45971
0.78929,0.45537
0.78974,0.44958
0.79017,0.44447
0.7894,0.44446
0.78815,0.44809
0.78779,0.44881
0.7874,0.44736
0.7871,0.44367
0.78671,0.44221
0.78725,0.43703
0.78728,0.43334
0.78619,0.43554
0.78494,0.4392
0.78314,0.44584
0.78135,0.45305
0.78012,0.45666
0.78043,0.45088
0.78047,0.44649
0.77983,0.44576
0.77892,0.44646
0.77837,0.44645
0.77833,0.44426
0.77832,0.44131
0.77794,0.4391
0.77771,0.43612
0.77755,0.4339
0.77792,0.42941
0.77763,0.42793
0.77685,0.42789
0.77593,0.42864
0.77515,0.42862
0.77419,0.43085
0.77347,0.43233
0.77265,0.43381
0.77147,0.43601
0.77069,0.436
0.77057,0.43228
0.77067,0.42854
0.77075,0.42553
0.77086,0.42176
0.77043,0.42101
0.76971,0.42249
0.76902,0.42324
0.76827,0.42172
0.76737,0.4217
0.7667,0.42169
0.76636,0.42168
0.76591,0.42167
0.76486,0.42317
0.76361,0.42389
0.7627,0.42464
0.76209,0.42688
0.76167,0.43062
0.76153,0.43211
0.76145,0.43061
0.76105,0.42837
0.76055,0.42535
0.76006,0.42156
0.75943,0.41929
0.75874,0.42002
0.75832,0.41849
0.75841,0.41393
0.75824,0.41086
0.75767,0.41085
0.75688,0.41083
0.75631,0.41082
0.75561,0.41235
0.75466,0.41462
0.75362,0.41613
0.75283,0.41611
0.75204,0.4161
0.75125,0.41608
0.75093,0.41455
0.75085,0.41226
0.75078,0.40918
0.75011,0.40841
0.74942,0.40915
0.74897,0.40915
0.74828,0.40991
0.74724,0.41141
0.74632,0.41217
0.74624,0.40909
0.7464,0.40524
0.74595,0.40447
0.74467,0.40752
0.74315,0.41212
0.74199,0.41591
0.74072,0.41969
0.74005,0.41968
0.73972,0.4174
0.73985,0.41434
0.73975,0.41205
0.73919,0.41204
0.73828,0.41278
0.73783,0.41202
0.73785,0.40894
0.73763,0.40663
0.73731,0.40352
0.73732,0.39964
0.73746,0.39574
0.73688,0.39573
0.7362,0.39649
0.73562,0.39727
0.73493,0.39803
0.7339,0.39957
0.73287,0.40111
0.73195,0.40186
0.73081,0.40574
0.73002,0.40801
0.72944,0.40956
0.7291,0.40877
0.72831,0.40876
0.72751,0.40798
0.7265,0.41027
0.72582,0.41101
0.72547,0.40949
0.72513,0.4087
0.72434,0.41023
0.72377,0.40867
0.72353,0.40636
0.72307,0.40636
0.72263,0.40711
0.72183,0.40788
0.72082,0.41016
0.71939,0.41549
0.7185,0.41776
0.71824,0.41394
0.71769,0.41549
0.71703,0.41771
0.71658,0.41774
0.71686,0.41085
0.7165,0.40932
0.71604,0.40853
0.71559,0.40852
0.71555,0.40466
0.71507,0.40234
0.71461,0.40154
0.71447,0.39921
0.71443,0.3953
0.71384,0.39372
0.71327,0.39371
0.71281,0.3937
0.71204,0.39683
0.71094,0.39991
0.70994,0.40224
0.70874,0.40609
0.70778,0.41068
0.70723,0.41145
0.70666,0.41144
0.70576,0.41218
0.7053,0.41141
0.70484,0.4114
0.70418,0.41215
0.70391,0.40985
0.70353,0.40754
0.70295,0.40674
0.70216,0.40751
0.70153,0.4098
0.70078,0.41208
0.70011,0.41285
0.69941,0.41206
0.69875,0.41283
0.6982,0.41357
0.69786,0.41356
0.6977,0.41127
0.69732,0.40972
0.69714,0.40663
0.69688,0.4051
0.69654,0.40507
0.69599,0.40585
0.69542,0.40584
0.69514,0.40349
0.69516,0.39963
0.69507,0.39571
0.69459,0.39493
0.69433,0.39335
0.69375,0.39334
0.69318,0.39333
0.69291,0.39174
0.69243,0.39096
0.69153,0.39172
0.69035,0.39484
0.68949,0.39717
0.68866,0.40028
0.68744,0.40569
0.68633,0.41028
0.6856,0.41258
0.68512,0.41179
0.68464,0.41103
0.68437,0.40948
0.68421,0.40794
0.68402,0.40562
0.68368,0.40562
0.68291,0.40637
0.68232,0.40559
0.68186,0.40558
0.68136,0.40788
0.6808,0.40787
0.68009,0.4071
0.6792,0.40784
0.67811,0.41244
0.67731,0.41547
0.67718,0.41165
0.67739,0.40474
0.67719,0.40239
0.67685,0.40238
0.67671,0.40162
0.67639,0.40238
0.67565,0.40392
0.67525,0.40235
0.6754,0.3969
0.67575,0.39064
0.67546,0.38905
0.67463,0.3914
0.67422,0.38981
0.67434,0.38666
0.67385,0.38902
0.67242,0.39685
0.67102,0.40228
0.66989,0.40536
0.66924,0.40611
0.6683,0.40842
0.6673,0.41146
0.66629,0.41451
0.66595,0.41451
0.6655,0.4145
0.66509,0.41296
0.66477,0.41066
0.66431,0.41065
0.66389,0.4114
0.66351,0.41063
0.66311,0.40909
0.66254,0.40908
0.66208,0.40907
0.66158,0.4106
0.66089,0.41288
0.6604,0.4144
0.65994,0.41439
0.6596,0.41439
0.6593,0.41285
0.65881,0.41208
0.6581,0.41129
0.65768,0.41206
0.6578,0.40975
0.65761,0.40822
0.65696,0.40897
0.65643,0.40972
0.65624,0.4082
0.65586,0.40741
0.65537,0.40894
0.65491,0.40893
0.6545,0.40738
0.654,0.40661
0.65347,0.40736
0.65268,0.41197
0.65179,0.41653
0.65115,0.41956
0.65041,0.42258
0.64964,0.42708
0.64913,0.43007
0.64876,0.43156
0.64813,0.43229
0.64764,0.43154
0.6477,0.42854
0.64769,0.4263
0.64749,0.42479
0.6469,0.42628
0.64635,0.42852
0.64576,0.43001
0.64542,0.43
0.64484,0.43149
0.64443,0.43222
0.64391,0.43297
0.64337,0.43519
0.64272,0.43739
0.64245,0.43666
0.64214,0.43516
0.64167,0.43664
0.64116,0.43736
0.64089,0.43663
0.64071,0.43365
0.64057,0.43141
0.64062,0.42842
0.6406,0.42617
0.64003,0.42616
0.63927,0.42839
0.63891,0.42989
0.63856,0.43138
0.63815,0.43211
0.63751,0.43435
0.63704,0.4358
0.63649,0.43952
0.63588,0.44391
0.63475,0.45047
0.63389,0.45408
0.63367,0.45408
0.63385,0.45191
0.63363,0.45191
0.63299,0.45552
0.63271,0.45622
0.63295,0.45335
0.63298,0.45044
0.63243,0.45043
0.63188,0.45042
0.63153,0.45187
0.63125,0.45258
0.63076,0.45186
0.6302,0.45185
0.6298,0.45401
0.62946,0.45545
0.629,0.45689
0.62838,0.45904
0.62759,0.4619
0.627,0.45972
0.62687,0.45469
0.62688,0.45179
0.62659,0.4554
0.62631,0.45611
0.62609,0.45468
0.62559,0.45539
0.62497,0.45898
0.62463,0.46041
0.6243,0.46184
0.62369,0.46254
0.62308,0.46326
0.62292,0.46253
0.62253,0.46468
0.62209,0.46608
0.62148,0.46822
0.62088,0.46891
0.62011,0.47173
0.61973,0.47384
0.6195,0.47665
0.61923,0.48014
0.61874,0.48362
0.61831,0.485
0.61798,0.4836
0.61771,0.48012
0.61744,0.47662
0.61722,0.47661
0.61684,0.4787
0.61641,0.4801
0.61597,0.48009
0.61565,0.48008
0.61511,0.48147
0.61441,0.48354
0.61377,0.48493
0.61355,0.48492
0.61323,0.48631
0.61243,0.48974
0.61163,0.49041
0.61139,0.48627
0.61141,0.48001
0.61136,0.47932
0.61093,0.48069
0.61045,0.48139
0.61001,0.48139
0.60974,0.48207
0.60917,0.48555
0.60881,0.4876
0.60849,0.489
0.60832,0.48691
0.60762,0.4876
0.60683,0.48965
0.60615,0.49307
0.60565,0.49718
0.60524,0.49852
0.60481,0.49853
0.60444,0.49919
0.60359,0.50528
0.603,0.50929
0.60274,0.50997
0.60262,0.50862
0.60208,0.50861
0.60155,0.5086
0.60143,0.50726
0.60135,0.50524
0.60091,0.50388
0.60037,0.50387
0.60016,0.50387
0.59995,0.50386
0.59941,0.50386
0.59879,0.5052
0.59844,0.50721
0.59806,0.50989
0.59748,0.51054
0.59691,0.51121
0.59657,0.51321
0.59614,0.51652
0.59574,0.51784
0.59532,0.51784
0.59492,0.51916
0.59462,0.51715
0.59438,0.51251
0.5941,0.50848
0.59397,0.50713
0.59388,0.50512
0.59343,0.50376
0.59273,0.50645
0.59227,0.51046
0.5919,0.51313
0.5915,0.51446
0.59095,0.51644
0.59048,0.51908
0.58978,0.52369
0.58923,0.5276
0.58877,0.52825
0.58846,0.52825
0.58813,0.53019
0.58792,0.53019
0.58772,0.52824
0.58759,0.52692
0.58738,0.52692
0.58706,0.52692
0.58664,0.52691
0.58633,0.5269
0.58583,0.52821
0.58541,0.53015
0.58484,0.53274
0.58442,0.53467
0.58385,0.53725
0.58343,0.53917
0.58308,0.54173
0.58284,0.54236
0.58228,0.543
0.5818,0.54234
0.58163,0.54171
0.5817,0.54043
0.58177,0.53914
0.58166,0.53722
0.58135,0.53721
0.58111,0.53784
0.58107,0.5385
0.5809,0.53784
0.58055,0.53849
0.5801,0.53912
0.57965,0.54168
0.57934,0.54359
0.57927,0.54486
0.579,0.54613
0.57859,0.54803
0.57831,0.54929
0.57825,0.55056
0.57821,0.55118
0.57825,0.55056
0.57818,0.55182
0.57798,0.55558
0.57785,0.55809
0.57765,0.55809
0.57734,0.55808
0.57713,0.55808
0.57713,0.55808
0.57713,0.55808
0.5774,0.55683
0.57781,0.55496
0.57781,0.55496
0.5774,0.55683
0.57707,0.55933
0.57697,0.56119
0.57691,0.56243
0.57691,0.56243
0.57684,0.56368
0.57654,0.56552
0.57638,0.56676
0.57648,0.56676
0.57668,0.56676
0.57668,0.56676
0.57668,0.56676
0.57675,0.56553
0.57684,0.56368
0.57691,0.56243
0.57705,0.56368
0.57719,0.56677
0.57724,0.56985
0.57717,0.57107
0.57717,0.57107
0.57711,0.5723
0.57722,0.57413
0.57739,0.57657
0.5775,0.57839
0.57737,0.58081
0.57741,0.58383
0.57789,0.58443
0.57825,0.58324
0.57818,0.58263
0.57785,0.58504
0.57815,0.58323
0.57868,0.57902
0.57901,0.5766
0.57879,0.58084
0.57853,0.58564
0.57866,0.58684
0.57913,0.58385
0.57949,0.58085
0.57963,0.58206
0.5798,0.58446
0.57997,0.58507
0.58004,0.58387
0.58024,0.58387
0.58047,0.58508
0.58058,0.58687
0.58051,0.58807
0.58064,0.58927
0.58084,0.59105
0.58098,0.59224
0.58091,0.59343
0.58088,0.59402
0.58085,0.59462
0.58108,0.59402
0.58141,0.59344
0.58161,0.59344
0.58171,0.59522
0.58194,0.5964
0.58215,0.59641
0.58228,0.59404
0.58268,0.59049
0.58305,0.5893
0.58315,0.59109
0.58308,0.59228
0.58315,0.59109
0.58339,0.5905
0.58358,0.59228
0.58368,0.59406
0.58378,0.59585
0.58401,0.59701
0.58417,0.59762
0.58444,0.59644
0.58468,0.59407
0.58465,0.5929
0.58445,0.59288
0.58469,0.5923
0.58488,0.59409
0.58493,0.59997
0.58509,0.60232
0.58543,0.59999
0.58561,0.59704
0.58568,0.59587
0.58571,0.59527
0.58557,0.59764
0.58567,0.5994
0.58596,0.5994
0.5862,0.59883
0.58616,0.5994
0.58609,0.60058
0.58609,0.60058
0.58609,0.60058
0.58609,0.60058
0.58609,0.60058
0.58609,0.60058
0.58609,0.60058
0.58609,0.60058
0.58609,0.60058
0.58589,0.60058
0.58567,0.5994
0.5855,0.59881
0.58547,0.59939
0.5854,0.60057
0.58547,0.59939
0.58557,0.59764
0.58564,0.59646
0.58557,0.59764
0.58547,0.59939
0.58547,0.59939
0.58557,0.59764
0.58564,0.59646
0.58551,0.59527
0.58532,0.5935
0.58519,0.59231
0.58519,0.59231
0.58519,0.59231
0.58512,0.59349
0.58501,0.59526
0.58494,0.59645
0.58501,0.59526
0.58512,0.59349
0.58526,0.59112
0.58509,0.59053
0.58476,0.59111
0.58442,0.59348
0.58438,0.59407
0.58415,0.59467
0.58388,0.59406
0.58372,0.59347
0.58372,0.59347
0.58361,0.59524
0.58354,0.59643
0.58361,0.59524
0.58372,0.59347
0.58378,0.59229
0.58378,0.59229
0.58358,0.59228
0.58322,0.59347
0.58284,0.59642
0.58274,0.59818
0.58258,0.59759
0.58235,0.59641
0.58215,0.59641
0.58221,0.59522
0.58218,0.59582
0.58184,0.59816
0.58148,0.59934
0.58138,0.59758
0.58125,0.59639
0.58088,0.59757
0.58058,0.59932
0.58058,0.59932
0.58048,0.59756
0.58025,0.59638
0.58005,0.59638
0.57991,0.59519
0.57971,0.59342
0.57958,0.59222
0.57951,0.59341
0.57935,0.59636
0.57912,0.59694
0.57895,0.59459
0.57881,0.5934
0.57871,0.59517
0.57851,0.59517
0.57831,0.5934
0.57817,0.5922
0.57824,0.59101
0.57807,0.59042
0.57774,0.59101
0.57747,0.59219
0.57753,0.591
0.57757,0.59042
0.57753,0.591
0.57721,0.59338
0.57688,0.59396
0.57664,0.59456
0.57654,0.59277
0.57636,0.5904
0.57622,0.5892
0.57593,0.59098
0.57557,0.59217
0.57537,0.59216
0.57517,0.59216
0.57487,0.59216
0.5748,0.59334
0.57493,0.59274
0.57496,0.59038
0.57462,0.58918
0.57428,0.58976
0.57411,0.58917
0.57417,0.58798
0.57411,0.58917
0.57402,0.59095
0.57396,0.59214
0.57376,0.59214
0.57346,0.59214
0.57326,0.59213
0.57332,0.59094
0.57321,0.58916
0.57303,0.58676
0.57286,0.58617
0.57256,0.58795
0.57212,0.59092
0.57186,0.59211
0.57186,0.59211
0.5718,0.5933
0.57177,0.59389
0.5716,0.5933
0.57136,0.5921
0.5711,0.59329
0.57075,0.59624
0.57037,0.598
0.5702,0.59741
0.57025,0.59623
0.57011,0.59505
0.5699,0.59327
0.56975,0.59208
0.56975,0.59208
0.56975,0.59208
0.56966,0.58969
0.56948,0.58732
0.56925,0.5879
0.56891,0.59088
0.56855,0.59206
0.56829,0.59325
0.56821,0.59502
0.56821,0.59502
0.56829,0.59325
0.56835,0.59206
0.56835,0.59206
0.56815,0.59206
0.5679,0.59086
0.56773,0.59027
0.56761,0.58847
0.56731,0.58848
0.56705,0.58966
0.56694,0.59204
0.56694,0.59204
0.56694,0.59204
0.56674,0.59204
0.5665,0.59084
0.56617,0.58905
0.56593,0.58785
0.56573,0.58785
0.56578,0.58665
0.5656,0.58606
0.56533,0.58545
0.56515,0.58485
0.56515,0.58485
0.56513,0.58544
0.56515,0.58485
0.56506,0.58244
0.56478,0.58184
0.56455,0.58243
0.56455,0.58243
0.56458,0.58184
0.5644,0.58122
0.56407,0.58183
0.56384,0.58242
0.56379,0.58363
0.56379,0.58363
0.56349,0.58603
0.56303,0.5896
0.56278,0.59079
0.56291,0.58781
0.56309,0.58362
0.56321,0.5806
0.56291,0.57817
0.56233,0.57757
0.5619,0.57816
0.562,0.58059
0.56228,0.58119
0.56251,0.58059
0.56235,0.57938
0.56205,0.57938
0.56185,0.57937
0.56185,0.57937
0.56185,0.57937
0.56185,0.57937
0.56169,0.57816
0.56147,0.57634
0.56131,0.57511
0.56131,0.57511
0.56131,0.57511
0.56131,0.57511
0.56131,0.57511
0.56131,0.57511
0.56131,0.57511
0.56136,0.57389
0.56144,0.57206
0.56128,0.57083
0.56088,0.57328
0.56053,0.57692
0.56018,0.58056
0.55985,0.58115
0.55947,0.58055
0.55901,0.57933
0.5586,0.57689
0.55854,0.57325
0.55859,0.57202
0.55851,0.57385
0.55892,0.57386
0.5596,0.57204
0.56006,0.57082
0.56011,0.56959
0.55998,0.56774
0.55972,0.56651
0.55956,0.56527
0.55918,0.56465
0.55854,0.56525
0.55808,0.56648
0.55793,0.56524
0.55764,0.56463
0.55762,0.56524
0.55767,0.56647
0.55778,0.56648
0.55793,0.56524
0.558,0.56339
0.55769,0.56338
0.55741,0.56523
0.55737,0.56647
0.55741,0.56523
0.55748,0.56338
0.55758,0.56089
0.55765,0.55903
0.55769,0.55778
0.55779,0.55527
0.55798,0.55024
0.55819,0.54453
0.55789,0.54134
0.55732,0.54004
0.55732,0.54004
0.55794,0.54005
0.55743,0.54261
0.55662,0.54769
0.55645,0.54958
0.55627,0.54578
0.55504,0.54257
0.5545,0.5432
0.55487,0.54448
0.55519,0.54704
0.55478,0.54701
0.55443,0.54512
0.55435,0.54447
0.55444,0.54765
0.55428,0.54638
0.55382,0.5387
0.55339,0.5329
0.55328,0.53288
0.5534,0.53548
0.55294,0.53676
0.55225,0.53868
0.55188,0.53738
0.552,0.53352
0.55192,0.52961
0.55158,0.53027
0.55108,0.53285
0.55052,0.53414
0.55001,0.53349
0.54978,0.53412
0.54974,0.53542
0.54978,0.53412
0.54959,0.53348
0.54938,0.53022
0.54931,0.52567
0.54922,0.52172
0.54886,0.52303
0.54863,0.52367
0.54852,0.52038
0.5484,0.51376
0.54811,0.50907
0.54767,0.51309
0.54731,0.51837
0.54706,0.51971
0.54678,0.51838
0.54655,0.51903
0.54628,0.52102
0.54579,0.51967
0.54531,0.5177
0.54512,0.51702
0.54503,0.52033
0.54457,0.52164
0.54394,0.52163
0.54355,0.5203
0.54339,0.51832
0.5431,0.51699
0.54271,0.51565
0.54248,0.51232
0.54214,0.50897
0.54164,0.50762
0.54114,0.50626
0.54101,0.50289
0.54081,0.50222
0.54021,0.5049
0.53961,0.50759
0.53943,0.50624
0.53948,0.50422
0.53926,0.50422
0.5389,0.50623
0.53868,0.50622
0.5383,0.5042
0.5379,0.50284
0.53758,0.50283
0.53753,0.50012
0.53722,0.49467
0.53681,0.48847
0.53629,0.48778
0.53607,0.48776
0.53566,0.48638
0.53501,0.48637
0.53469,0.49187
0.53478,0.49255
0.53436,0.48636
0.53332,0.48427
0.53271,0.4877
0.53276,0.49116
0.53274,0.49184
0.5324,0.49321
0.53177,0.49183
0.53114,0.49114
0.5305,0.49043
0.53016,0.49112
0.52996,0.49042
0.52978,0.48835
0.52929,0.48489
0.52875,0.48488
0.52828,0.48694
0.52774,0.48693
0.52701,0.48485
0.52651,0.48205
0.52632,0.47996
0.52614,0.47715
0.52562,0.47504
0.52508,0.47503
0.52461,0.47713
0.52427,0.47853
0.52405,0.47852
0.52407,0.47712
0.52386,0.47642
0.52354,0.4757
0.52312,0.47359
0.52287,0.46721
0.52225,0.46293
0.52184,0.46076
0.52128,0.46148
0.52062,0.46074
0.51983,0.46289
0.51938,0.46429
0.51886,0.46071
0.51835,0.45568
0.5179,0.45566
0.51754,0.45998
0.51709,0.46068
0.51676,0.45997
0.51655,0.45852
0.51611,0.45851
0.51544,0.45994
0.51478,0.4592
0.51424,0.45777
0.51369,0.45703
0.51324,0.45702
0.5127,0.45485
0.51193,0.45339
0.51137,0.45338
0.51093,0.45337
0.51038,0.4519
0.50961,0.44972
0.50905,0.44825
0.50883,0.4497
0.50838,0.45187
0.50771,0.45186
0.50705,0.44967
0.50649,0.4482
0.50593,0.44819
0.50549,0.44672
0.50515,0.44452
0.5047,0.44304
0.50414,0.44303
0.50359,0.44449
0.50337,0.44521
0.50314,0.44301
0.50279,0.43933
0.50234,0.43784
0.50177,0.43486
0.50097,0.43188
0.50041,0.43111
0.49996,0.4326
0.4994,0.43259
0.49884,0.43407
0.4984,0.43479
0.49806,0.43405
0.4976,0.43255
0.49704,0.43404
0.4965,0.43625
0.49606,0.43773
0.49572,0.43772
0.49526,0.43623
0.49492,0.43549
0.49447,0.43621
0.49391,0.4362
0.49332,0.43248
0.49285,0.43023
0.49252,0.43097
0.49208,0.43245
0.49152,0.43244
0.49095,0.43243
0.49049,0.43093
0.48992,0.43018
0.48934,0.42941
0.48888,0.42866
0.48854,0.42866
0.48833,0.42939
0.48809,0.42865
0.48772,0.42563
0.48748,0.42489
0.48724,0.42411
0.48689,0.42336
0.48665,0.42185
0.48644,0.42336
0.48611,0.42409
0.48565,0.42334
0.48533,0.42485
0.48512,0.42633
0.48492,0.42785
0.48458,0.42782
0.48439,0.43008
0.48417,0.43082
0.48386,0.43231
0.48361,0.43081
0.48335,0.42856
0.48299,0.42705
0.48256,0.42855
0.48226,0.43078
0.48181,0.43077
0.48143,0.42853
0.48095,0.42702
0.48067,0.43001
0.48024,0.43148
0.47988,0.43
0.4796,0.42699
0.4794,0.42849
0.47913,0.43222
0.47872,0.43444
0.47837,0.4337
0.47811,0.4322
0.47811,0.4322
0.47789,0.4322
0.47758,0.43369
0.47714,0.43441
0.47705,0.43517
0.47692,0.43441
0.47682,0.43516
0.47661,0.43589
0.47639,0.43589
0.476,0.43366
0.47578,0.43365
0.47563,0.43736
0.47534,0.43957
0.47513,0.44031
0.47515,0.44104
0.47495,0.44251
0.47439,0.4425
0.47384,0.44249
0.47358,0.44101
0.4733,0.4388
0.47297,0.43879
0.47279,0.441
0.47279,0.441
0.47245,0.43582
0.47194,0.42836
0.47163,0.4246
0.47164,0.42534
0.47142,0.42534
0.47106,0.42459
0.47085,0.42533
0.47089,0.42683
0.47089,0.42683
0.47077,0.43133
0.47059,0.438
0.4707,0.44244
0.47104,0.44244
0.471,0.44097
0.47061,0.43875
0.47013,0.43726
0.46979,0.43725
0.46957,0.43725
0.46941,0.44021
0.46915,0.44313
0.46895,0.44388
0.46869,0.4424
0.46835,0.44239
0.4682,0.44533
0.46806,0.44824
0.46774,0.44898
0.46744,0.44604
0.46738,0.44385
0.46716,0.44385
0.46688,0.44603
0.46674,0.44896
0.4668,0.45114
0.46684,0.45259
0.46684,0.45259
0.46688,0.45404
0.46667,0.45476
0.46632,0.45404
0.46584,0.45257
0.46554,0.45402
0.46538,0.45618
0.46542,0.45763
0.4652,0.45762
0.46487,0.45762
0.46447,0.45905
0.46416,0.45976
0.46391,0.45904
0.46365,0.4576
0.46332,0.45759
0.4631,0.45759
0.4631,0.45759
0.46292,0.45903
0.46269,0.4626
0.46227,0.4633
0.46186,0.46045
0.4615,0.45611
0.46139,0.4525
0.46123,0.4474
0.46116,0.44521
0.46101,0.44739
0.46079,0.45103
0.46066,0.45394
0.46063,0.4532
0.46037,0.45176
0.46001,0.45102
0.45983,0.45247
0.45983,0.45247
0.45979,0.45101
0.45954,0.45029
0.45923,0.451
0.45905,0.45246
0.45893,0.45535
0.45891,0.45822
0.45904,0.45896
0.45895,0.45607
0.45855,0.4539
0.45815,0.45534
0.45796,0.45965
0.45761,0.46252
0.45728,0.46251
0.45706,0.46251
0.45711,0.46394
0.45696,0.46607
0.45663,0.46607
0.45612,0.46392
0.45574,0.46248
0.45557,0.46391
0.45564,0.46605
0.45569,0.46747
0.45574,0.4689
0.45581,0.47102
0.45564,0.47243
0.45527,0.47101
0.45497,0.46888
0.45497,0.46888
0.45488,0.47242
0.45467,0.47593
0.45451,0.47734
0.45429,0.47733
0.45391,0.47592
0.45339,0.47381
0.45312,0.47521
0.45295,0.4766
0.45262,0.47379
0.45216,0.47026
0.4518,0.47237
0.45161,0.47588
0.45139,0.47588
0.45136,0.47518
0.45139,0.47588
0.45139,0.47588
0.45093,0.46952
0.4503,0.46168
0.4498,0.46024
0.44969,0.46594
0.44966,0.47091
0.44978,0.47374
0.4498,0.47444
0.4495,0.47233
0.44936,0.47163
0.44936,0.47443
0.44937,0.47725
0.44904,0.48005
0.44888,0.48421
0.44861,0.48281
0.44819,0.47794
0.44778,0.47581
0.44762,0.47722
0.44762,0.47722
0.44734,0.47581
0.44693,0.47369
0.44665,0.47228
0.44665,0.47228
0.44654,0.4751
0.44639,0.47929
0.44635,0.48348
0.44644,0.48556
0.44628,0.48695
0.44589,0.48555
0.44565,0.48486
0.44562,0.48416
0.44565,0.48486
0.44568,0.48555
0.44552,0.48693
0.44519,0.48693
0.44503,0.48831
0.44512,0.49037
0.44502,0.49313
0.44479,0.49517
0.44436,0.49516
0.44394,0.49311
0.44367,0.49173
0.44345,0.49172
0.44312,0.49172
0.44297,0.49309
0.44306,0.49514
0.44312,0.49651
0.44269,0.4965
0.44204,0.49649
0.44155,0.49512
0.44139,0.49169
0.44123,0.48825
0.44089,0.48547
0.44047,0.48338
0.44019,0.48198
0.44025,0.48338
0.44035,0.48546
0.44019,0.48684
0.43987,0.48684
0.43987,0.48684
0.44019,0.48684
0.44019,0.48684
0.43971,0.48822
0.43927,0.49027
0.43912,0.49165
0.43925,0.4944
0.43944,0.49849
0.43944,0.49849
0.43881,0.4944
0.43803,0.49163
0.4376,0.49163
0.43745,0.493
0.43723,0.49504
0.43708,0.49641
0.43708,0.49641
0.43714,0.49778
0.43703,0.49981
0.43684,0.50253
0.43651,0.50454
0.43625,0.50589
0.43604,0.50589
0.43604,0.50589
0.43611,0.50724
0.43614,0.5079
0.43611,0.50724
0.43589,0.50723
0.43567,0.50924
0.43553,0.51058
0.43553,0.51058
0.43538,0.51191
0.43516,0.51391
0.4348,0.51523
0.43448,0.51523
0.43406,0.51522
0.43374,0.51522
0.43352,0.51521
0.43352,0.51521
0.43338,0.51654
0.43288,0.51719
0.43232,0.51652
0.43203,0.51519
0.43196,0.51385
0.43164,0.51185
0.43111,0.50782
0.43046,0.50378
0.42999,0.50106
0.42978,0.50105
0.42992,0.50377
0.43007,0.50645
0.43003,0.50579
0.42985,0.50241
0.42963,0.50241
0.4295,0.50578
0.42933,0.51048
0.42912,0.51247
0.42894,0.51315
0.42861,0.51113
0.42822,0.5098
0.42797,0.50911
0.4279,0.51179
0.42762,0.51245
0.42745,0.51312
0.42748,0.51378
0.42734,0.51511
0.4271,0.51644
0.427,0.51842
0.42709,0.52371
0.42696,0.52696
0.42653,0.52697
0.42607,0.52434
0.42564,0.52433
0.42525,0.52301
0.425,0.52236
0.42504,0.52301
0.42519,0.52564
0.4253,0.5276
0.42538,0.5289
0.42517,0.5289
0.42485,0.5289
0.42464,0.52889
0.42464,0.52889
0.42451,0.5302
0.4241,0.53213
0.42365,0.53342
0.42344,0.53342
0.42344,0.53342
0.42302,0.53341
0.42239,0.5334
0.42204,0.5347
0.42208,0.53533
0.42183,0.53469
0.42144,0.53339
0.42131,0.53468
0.42135,0.53532
0.42094,0.53208
0.42017,0.52818
0.41952,0.52619
0.41927,0.52554
0.4191,0.52291
0.41898,0.52094
0.41889,0.51961
0.41885,0.52226
0.41878,0.52618
0.41865,0.52749
0.41848,0.52815
0.41833,0.53074
0.41828,0.53334
0.4182,0.53204
0.41808,0.53009
0.41778,0.52878
0.41747,0.52878
0.41742,0.53139
0.41738,0.53396
0.4171,0.53462
0.41673,0.53202
0.41656,0.53267
0.41641,0.53524
0.41637,0.53783
0.41616,0.53782
0.41584,0.53782
0.41563,0.53782
0.41534,0.53652
0.41507,0.53717
0.41511,0.54102
0.41512,0.54421
0.41485,0.54485
0.41468,0.54548
0.41477,0.54675
0.41468,0.54548
0.41443,0.54485
0.41416,0.54547
0.41404,0.54674
0.41404,0.54674
0.41404,0.54674
0.41391,0.54801
0.41364,0.54863
0.41318,0.548
0.41287,0.548
0.41279,0.54989
0.41267,0.55115
0.41245,0.55241
0.41208,0.55303
0.41172,0.5524
0.41143,0.55113
0.41143,0.55113
0.41143,0.55113
0.41131,0.5524
0.41113,0.55427
0.41062,0.55301
0.40984,0.54922
0.40914,0.54667
0.40893,0.54666
0.40863,0.54538
0.40827,0.54475
0.40811,0.54538
0.40799,0.54665
0.40768,0.54664
0.40726,0.54664
0.40695,0.54663
0.40674,0.54663
0.40662,0.5479
0.40615,0.54852
0.40558,0.54788
0.40507,0.5466
0.40495,0.54914
0.40481,0.55292
0.40488,0.55795
0.40474,0.56167
0.40442,0.56415
0.4039,0.56415
0.4037,0.56414
0.40358,0.56538
0.40312,0.56598
0.40235,0.56536
0.40174,0.56411
0.40123,0.56286
0.40077,0.56349
0.40014,0.5647
0.39947,0.56532
0.39896,0.56531
0.39869,0.56715
0.39828,0.56838
0.39786,0.56961
0.3976,0.57144
0.39689,0.56897
0.39582,0.56465
0.39495,0.56277
0.39464,0.56525
0.39438,0.56709
0.39397,0.56832
0.39294,0.56707
0.39196,0.56521
0.39124,0.56395
0.39072,0.56395
0.39,0.56394
0.38917,0.56268
0.3884,0.56206
0.38805,0.56391
0.3879,0.56699
0.3875,0.56822
0.38689,0.56944
0.38645,0.5725
0.38643,0.57798
0.38614,0.5816
0.38549,0.58341
0.38484,0.58399
0.38454,0.58519
0.38403,0.58519
0.38321,0.58397
0.38202,0.58094
0.38104,0.57912
0.38027,0.5797
0.37958,0.58091
0.37898,0.58211
0.37875,0.5839
0.37847,0.58631
0.37782,0.58689
0.37717,0.58749
0.3764,0.58687
0.37587,0.58866
0.37539,0.59103
0.37472,0.59134
0.37397,0.5909
