0.60428,0.66504
0.60367,0.66869
0.60315,0.67175
0.60271,0.67442
0.60298,0.67338
0.60338,0.67181
0.60365,0.67076
0.60365,0.67076
0.60365,0.67076
0.60365,0.67076
0.60365,0.67076
0.60365,0.67076
0.60365,0.67076
0.60357,0.67182
0.60345,0.67338
0.60336,0.67443
0.60336,0.67443
0.60336,0.67443
0.60336,0.67443
0.60355,0.67443
0.60383,0.67443
0.60402,0.67444
0.60402,0.67444
0.60402,0.67444
0.60402,0.67444
0.60402,0.67444
0.60402,0.67444
0.60402,0.67444
0.60402,0.67444
0.60421,0.67444
0.60449,0.67444
0.60468,0.67445
0.60476,0.6734
0.60489,0.67183
0.60497,0.67078
0.60497,0.67078
0.60497,0.67078
0.60497,0.67078
0.60497,0.67078
0.60497,0.67078
0.60497,0.67078
0.60497,0.67078
0.60505,0.66973
0.60518,0.66815
0.60526,0.6671
0.60526,0.6671
0.60526,0.6671
0.60526,0.6671
0.60518,0.66815
0.60505,0.66973
0.60497,0.67078
0.60497,0.67078
0.60497,0.67078
0.60497,0.67078
0.60497,0.67078
0.60497,0.67078
0.60513,0.66867
0.60538,0.66551
0.60555,0.66339
0.60555,0.66339
0.60574,0.66339
0.60602,0.66339
0.60621,0.6634
0.60621,0.6634
0.60621,0.6634
0.60621,0.6634
0.60621,0.6634
0.60621,0.6634
0.60621,0.6634
0.60621,0.6634
0.60621,0.6634
0.60621,0.6634
0.60621,0.6634
0.60613,0.66446
0.606,0.66604
0.60592,0.6671
0.60592,0.6671
0.60592,0.6671
0.60592,0.6671
0.60592,0.6671
0.60592,0.6671
0.60592,0.6671
0.60592,0.6671
0.60584,0.66816
0.60571,0.66974
0.60563,0.67079
0.60554,0.67184
0.6055,0.67236
0.60554,0.67184
0.60563,0.67079
0.60563,0.67079
0.60563,0.67079
0.60563,0.67079
0.60563,0.67079
0.60563,0.67079
0.60563,0.67079
0.60554,0.67184
0.60542,0.67341
0.60534,0.67445
0.60534,0.67445
0.60534,0.67445
0.60542,0.67341
0.60554,0.67184
0.60563,0.67079
0.60563,0.67079
0.60563,0.67079
0.60563,0.67079
0.60563,0.67079
0.60563,0.67079
0.60563,0.67079
0.60563,0.67079
0.60563,0.67079
0.60571,0.66974
0.60584,0.66816
0.60592,0.6671
0.60584,0.66816
0.60571,0.66974
0.60563,0.67079
0.60563,0.67079
0.60563,0.67079
0.60563,0.67079
0.60563,0.67079
0.60563,0.67079
0.60573,0.67184
0.60589,0.67341
0.60599,0.67446
0.60608,0.67342
0.60612,0.6729
0.60608,0.67342
0.60599,0.67446
0.60599,0.67446
0.60599,0.67446
0.60618,0.67446
0.60646,0.67447
0.60674,0.67342
0.60686,0.67186
0.60686,0.67186
0.60674,0.67342
0.60665,0.67447
0.60665,0.67447
0.60665,0.67447
0.60684,0.67447
0.60668,0.6776
0.6064,0.68225
0.60624,0.68534
0.60643,0.68534
0.60643,0.68534
0.60643,0.68534
0.60643,0.68534
0.60662,0.68534
0.60689,0.68535
0.60708,0.68535
0.60717,0.68432
0.60746,0.68072
0.6078,0.67658
0.60805,0.67344
0.60801,0.67397
0.60784,0.67605
0.60767,0.67813
0.60786,0.67813
0.60805,0.67917
0.60811,0.68072
0.6082,0.67969
0.60837,0.67763
0.6085,0.67605
0.60862,0.6745
0.60884,0.67188
0.60892,0.67083
0.60884,0.67188
0.60837,0.67763
0.60778,0.68484
0.60736,0.68996
0.60731,0.69046
0.60727,0.69098
0.60723,0.69148
0.60733,0.6925
0.60761,0.6925
0.6078,0.6925
0.6078,0.6925
0.6078,0.6925
0.6078,0.6925
0.6078,0.6925
0.6078,0.6925
0.6078,0.6925
0.6078,0.6925
0.60761,0.6925
0.60733,0.6925
0.60715,0.6925
0.60715,0.6925
0.60715,0.6925
0.60706,0.69351
0.60694,0.69502
0.60659,0.69704
0.60619,0.69854
0.60619,0.69854
0.60632,0.69805
0.60627,0.69753
0.60613,0.69704
0.60613,0.69704
0.60601,0.69854
0.60574,0.69954
0.60547,0.69954
0.60536,0.69853
0.60548,0.69703
0.60532,0.69904
0.60496,0.70352
0.60488,0.70452
0.60504,0.70254
0.60498,0.70103
0.60458,0.70254
0.60448,0.70152
0.60468,0.69903
0.60492,0.69601
0.60482,0.695
0.60458,0.69449
0.60435,0.69499
0.60401,0.69701
0.60345,0.70052
0.60303,0.7035
0.60291,0.705
0.60295,0.7045
0.60273,0.705
0.60242,0.70549
0.60215,0.70648
0.60197,0.70648
0.6017,0.70647
0.60178,0.70548
0.6019,0.70499
0.6017,0.70647
0.60132,0.70894
0.60124,0.70993
0.60098,0.71091
0.6006,0.71238
0.60034,0.71336
0.60018,0.71532
0.59993,0.71628
0.59955,0.71531
0.59925,0.71335
0.59888,0.71334
0.59861,0.71334
0.59858,0.71137
0.59872,0.70941
0.59869,0.7099
0.59832,0.71235
0.59779,0.71333
0.59733,0.71332
0.59708,0.7143
0.59697,0.71576
0.59689,0.71674
0.59697,0.71576
0.59708,0.7143
0.5969,0.7143
0.59666,0.7138
0.59655,0.71283
0.59648,0.71135
0.59632,0.70987
0.59617,0.70938
0.59588,0.71331
0.59548,0.71623
0.59528,0.71526
0.59499,0.71428
0.59461,0.71574
0.59435,0.71671
0.59417,0.71671
0.5939,0.71671
0.5934,0.71865
0.59313,0.71863
0.59294,0.71621
0.5928,0.71425
0.59245,0.71669
0.59209,0.71912
0.59175,0.72008
0.59153,0.71814
0.59139,0.71619
0.59106,0.71569
0.59072,0.71667
0.59047,0.71764
0.59039,0.71617
0.59022,0.71472
0.58979,0.71568
0.58928,0.71908
0.58904,0.72005
0.5891,0.71908
0.58889,0.71957
0.5883,0.72149
0.58772,0.72342
0.58754,0.72342
0.58754,0.72342
0.58742,0.72245
0.58707,0.721
0.58675,0.71905
0.58635,0.71954
0.58584,0.72049
0.58542,0.72001
0.58533,0.71856
0.5853,0.71904
0.58517,0.72098
0.58496,0.72145
0.58466,0.72194
0.58432,0.72145
0.58402,0.72193
0.58375,0.72047
0.58361,0.71854
0.58337,0.71658
0.58316,0.7156
0.58282,0.71511
0.5824,0.71755
0.5821,0.71948
0.58185,0.72046
0.58146,0.71947
0.58095,0.72045
0.58077,0.72043
0.58044,0.72286
0.58017,0.72284
0.57998,0.72285
0.58001,0.72236
0.58001,0.72236
0.57962,0.71994
0.57889,0.71848
0.57808,0.71992
0.57743,0.7233
0.57689,0.72474
0.57679,0.72329
0.57675,0.72088
0.57648,0.72088
0.57622,0.72232
0.57598,0.72328
0.57566,0.72425
0.57527,0.72472
0.57484,0.72424
0.57445,0.72327
0.57432,0.7223
0.57428,0.71988
0.57414,0.71745
0.57389,0.71549
0.5737,0.71403
0.57344,0.71206
0.57325,0.71058
0.57312,0.70959
0.57294,0.70959
0.57243,0.71057
0.57194,0.71105
0.57137,0.71155
0.57103,0.71104
0.57078,0.71055
0.5708,0.70857
0.57046,0.70808
0.56997,0.70856
0.56946,0.70955
0.5691,0.70954
0.56893,0.70756
0.56884,0.70559
0.56882,0.70608
0.56861,0.70656
0.56839,0.70558
0.56815,0.70308
0.56792,0.70209
0.56758,0.70158
0.5673,0.70157
0.56724,0.69907
0.56718,0.69656
0.56695,0.69554
0.56677,0.69554
0.56658,0.69554
0.56636,0.69452
0.56596,0.69503
0.56564,0.69602
0.56548,0.69552
0.56555,0.69401
0.56552,0.69451
0.56529,0.69552
0.56506,0.69451
0.565,0.69197
0.56512,0.68943
0.56522,0.68739
0.5651,0.68585
0.56487,0.68482
0.56468,0.68482
0.56455,0.68379
0.56434,0.68224
0.56401,0.6812
0.56368,0.68223
0.56347,0.68274
0.56326,0.68326
0.56301,0.68273
0.56284,0.68222
0.56289,0.68119
0.56289,0.68119
0.56266,0.68222
0.56235,0.68273
0.56223,0.68118
0.56216,0.67859
0.56198,0.67651
0.56186,0.67494
0.56171,0.6739
0.56148,0.67284
0.56136,0.67127
0.56141,0.67022
0.56122,0.67022
0.56098,0.66916
0.56062,0.66863
0.56032,0.66915
0.56008,0.6702
0.56008,0.6702
0.56008,0.6702
0.56008,0.6702
0.56013,0.66915
0.56001,0.66757
0.55986,0.66438
0.55985,0.66013
0.56001,0.65638
0.56005,0.6553
0.55986,0.6553
0.55958,0.65529
0.55971,0.65205
0.56001,0.64717
0.56005,0.64388
0.55958,0.64607
0.55906,0.6515
0.55874,0.65473
0.55855,0.65475
0.55833,0.65311
0.55811,0.65366
0.55809,0.65419
0.55809,0.65419
0.55816,0.65258
0.5582,0.65149
0.55801,0.65149
0.55772,0.65149
0.55753,0.65148
0.55757,0.6504
0.55768,0.64768
0.55784,0.64385
0.55795,0.64111
0.55795,0.64111
0.55788,0.64275
0.55779,0.64495
0.55773,0.64659
0.55749,0.64768
0.55729,0.64549
0.55723,0.6422
0.55755,0.63889
0.55767,0.63835
0.5576,0.63778
0.55742,0.63723
0.55756,0.6339
0.5576,0.6328
0.55756,0.6339
0.55736,0.63389
0.5572,0.63055
0.55729,0.6283
0.55758,0.62831
0.55763,0.62718
0.5574,0.62549
0.55721,0.62549
0.55714,0.62717
0.55714,0.62717
0.55721,0.62549
0.55705,0.62435
0.55681,0.62321
0.55667,0.62152
0.55676,0.61924
0.55674,0.61982
0.5567,0.62094
0.55657,0.61923
0.5564,0.61581
0.55623,0.61523
0.55618,0.61638
0.55623,0.61523
0.55609,0.61351
0.55584,0.61235
0.5556,0.6135
0.55558,0.61407
0.55545,0.61235
0.55526,0.60946
0.55506,0.60946
0.555,0.61118
0.55495,0.61234
0.55491,0.61349
0.55469,0.61406
0.55442,0.61349
0.55426,0.61233
0.55411,0.61117
0.55391,0.60828
0.55378,0.60654
0.5538,0.60595
0.55366,0.60421
0.55343,0.60246
0.55301,0.60303
0.55263,0.60536
0.55217,0.60709
0.55183,0.60825
0.55144,0.60825
0.5511,0.6094
0.55092,0.60881
0.5508,0.6065
0.55054,0.60533
0.55009,0.60706
0.54979,0.60706
0.54941,0.60648
0.5491,0.60705
0.5489,0.60705
0.54872,0.60647
0.5484,0.60704
0.5482,0.60704
0.54806,0.6053
0.54784,0.60295
0.54745,0.60237
0.54714,0.60294
0.54678,0.60177
0.54655,0.59943
0.54617,0.59883
0.54583,0.6
0.5456,0.60117
0.54558,0.60175
0.54536,0.60234
0.54505,0.60291
0.54465,0.60291
0.54444,0.59998
0.54432,0.59704
0.54409,0.59822
0.54369,0.60172
0.54349,0.60172
0.54339,0.59821
0.54315,0.59584
0.54295,0.59584
0.54295,0.59584
0.54269,0.5982
0.54233,0.60053
0.54191,0.60112
0.54161,0.60111
0.54137,0.60286
0.54114,0.60403
0.54084,0.60402
0.54041,0.60519
0.5403,0.60576
0.54041,0.60519
0.54027,0.60285
0.53972,0.60109
0.53935,0.59991
0.53935,0.59991
0.53932,0.60108
0.53908,0.60283
0.53872,0.60516
0.53851,0.60573
0.53852,0.60516
0.53855,0.60399
0.53852,0.60516
0.53831,0.60573
0.53802,0.60515
0.5378,0.60631
0.5378,0.6063
0.53787,0.60341
0.53772,0.60106
0.53738,0.6028
0.53713,0.60514
0.53709,0.60688
0.53706,0.60804
0.53704,0.6092
0.5368,0.61093
0.53645,0.61323
0.53599,0.61609
0.53568,0.61665
0.53551,0.61552
0.53552,0.61494
0.53547,0.61723
0.53546,0.6178
0.53527,0.61723
0.53503,0.61493
0.53487,0.61321
0.53487,0.61321
0.53483,0.61493
0.53481,0.61608
0.53461,0.61607
0.53434,0.61492
0.53418,0.6132
0.53418,0.6132
0.53414,0.61492
0.53412,0.61607
0.53412,0.61607
0.53392,0.61606
0.5336,0.61721
0.53337,0.61891
0.53334,0.62005
0.5333,0.62233
0.53325,0.62458
0.53324,0.62515
0.53304,0.62515
0.53269,0.62796
0.53244,0.63076
0.5322,0.633
0.53212,0.63243
0.53226,0.63021
0.53247,0.62909
0.53242,0.63188
0.53217,0.63466
0.53185,0.63577
0.53164,0.63688
0.53161,0.63854
0.53156,0.64075
0.53153,0.6424
0.53151,0.6435
0.53151,0.6435
0.53132,0.6435
0.53103,0.64349
0.53081,0.64459
0.53078,0.64623
0.53076,0.64732
0.5308,0.64513
0.53104,0.64295
0.53134,0.6424
0.53149,0.6446
0.53146,0.64624
0.53141,0.64842
0.5314,0.64896
0.53141,0.64842
0.53141,0.64842
0.53138,0.65005
0.53136,0.65114
0.53134,0.65222
0.53133,0.65275
0.53132,0.6533
0.53131,0.65384
0.53131,0.65384
0.53134,0.65222
0.53136,0.65114
0.53134,0.65222
0.53152,0.65276
0.53182,0.65223
0.53199,0.65331
0.5319,0.65761
0.5318,0.66243
0.53175,0.66508
0.53173,0.66614
0.53171,0.6672
0.53168,0.66878
0.53185,0.66984
0.53215,0.66879
0.53237,0.66721
0.53237,0.66721
0.53234,0.66879
0.53232,0.66985
0.53227,0.67195
0.53223,0.67404
0.53222,0.67457
0.53224,0.67352
0.53222,0.67457
0.53221,0.67508
0.53243,0.67352
0.53268,0.6751
0.53278,0.67924
0.53273,0.68184
0.53275,0.68081
0.53273,0.68184
0.53269,0.68339
0.53267,0.68442
0.53267,0.68442
0.53267,0.68442
0.53267,0.68442
0.53267,0.68442
0.53265,0.68545
0.5328,0.68698
0.53306,0.68801
0.53325,0.68801
0.53322,0.68904
0.53319,0.69056
0.53317,0.69158
0.53338,0.69056
0.53346,0.69108
0.53332,0.6931
0.53311,0.69411
0.5331,0.69463
0.53306,0.69664
0.53302,0.69865
0.53302,0.69865
0.53302,0.69865
0.53302,0.69865
0.53304,0.69764
0.53323,0.69715
0.5335,0.69765
0.53364,0.69967
0.53381,0.70016
0.53392,0.69967
0.53394,0.70268
0.53392,0.70763
0.534,0.71208
0.53398,0.71305
0.53397,0.71355
0.53399,0.71257
0.53381,0.71257
0.53374,0.71158
0.53384,0.7111
0.53402,0.71158
0.53399,0.71257
0.53395,0.71453
0.5339,0.71648
0.53389,0.71697
0.53394,0.71502
0.53393,0.71551
0.5339,0.71648
0.53385,0.71892
0.53383,0.71988
0.53379,0.72134
0.53378,0.72182
0.53372,0.72472
0.53365,0.72759
0.53361,0.72951
0.53363,0.72855
0.53346,0.72808
0.5332,0.72759
0.53323,0.72615
0.53358,0.72279
0.53395,0.72231
0.53418,0.72424
0.53432,0.72617
0.53436,0.72424
0.53438,0.72329
0.53434,0.7252
0.53446,0.7276
0.5347,0.72905
0.53483,0.73095
0.53479,0.73285
0.53477,0.7338
0.53487,0.73711
0.53507,0.73993
0.53535,0.73569
0.53575,0.72667
0.53585,0.7262
0.53583,0.72326
0.5359,0.71311
0.53583,0.71605
0.53538,0.73425
0.53526,0.74647
0.53578,0.74367
0.53607,0.74276
0.53597,0.74321
0.53573,0.75248
0.53578,0.76111
0.53618,0.76608
0.53662,0.76248
0.53686,0.7566
0.53681,0.75202
0.53682,0.75156
0.53682,0.75156
0.53701,0.75111
0.53713,0.74972
0.53722,0.74973
0.53728,0.75064
0.53759,0.75249
0.53758,0.75615
0.53747,0.75704
0.53735,0.75479
0.53726,0.75156
0.53725,0.75524
0.53762,0.76114
0.53809,0.76655
0.53821,0.76834
0.53866,0.77102
0.5394,0.77235
0.53991,0.77282
0.53988,0.77369
0.53979,0.77678
0.53977,0.77766
0.53977,0.77766
0.53994,0.77766
0.54005,0.77678
0.54008,0.77899
0.54011,0.78072
0.54041,0.78205
0.54092,0.77942
0.54142,0.77724
0.54205,0.77371
0.54276,0.77328
0.54209,0.78076
0.54006,0.79111
0.53837,0.79666
0.5379,0.79495
0.53749,0.79452
0.53718,0.79665
0.53756,0.80425
0.53783,0.80966
0.53786,0.81175
0.53783,0.81257
0.53794,0.81463
0.5377,0.81422
0.53737,0.81422
0.53677,0.81462
0.53607,0.81585
0.53567,0.8183
0.53528,0.82033
0.53496,0.81993
0.53457,0.81911
0.53403,0.82073
0.53324,0.82234
0.53278,0.82437
0.53239,0.82678
0.53208,0.82959
0.53171,0.83119
0.53125,0.83317
0.53049,0.83435
0.52956,0.83156
0.52881,0.82796
0.52846,0.82916
0.52817,0.83513
0.52785,0.83907
0.52765,0.84104
0.52731,0.84181
0.52663,0.84299
0.52572,0.84415
0.52486,0.84686
0.52408,0.84956
0.52334,0.85071
0.52252,0.85109
0.52177,0.853
0.52116,0.85605
0.52056,0.85909
0.51983,0.85983
0.51905,0.85756
0.5185,0.8568
0.51813,0.86133
0.51735,0.86658
0.51614,0.86807
0.51503,0.86806
0.51415,0.8688
0.51334,0.87065
0.51245,0.87323
0.51181,0.87506
0.51118,0.87432
0.51071,0.87359
0.51007,0.87431
0.50912,0.87725
0.50793,0.88161
0.50659,0.88629
0.50519,0.88987
0.50395,0.892
0.50326,0.89413
0.50272,0.89589
0.50218,0.89623
0.50179,0.89482
0.50163,0.89411
0.50148,0.89659
0.50127,0.9001
0.50098,0.90394
0.50046,0.9067
0.4997,0.90739
0.49916,0.90704
0.49888,0.91083
0.49842,0.91932
0.49785,0.92333
0.4978,0.91763
0.49803,0.90911
0.49758,0.90216
0.49653,0.89691
0.49581,0.89407
0.49512,0.90216
0.49419,0.91453
0.49347,0.92331
0.49309,0.92864
0.49273,0.93454
0.49233,0.93846
0.4921,0.93781
0.49195,0.93748
0.4918,0.9378
0.49146,0.93975
0.49112,0.94168
0.49086,0.94361
0.49141,0.94071
0.49305,0.93945
0.49461,0.93943
0.49503,0.94301
0.49491,0.94556
0.49494,0.94843
0.49495,0.94875
0.49495,0.94906
0.49497,0.95034
0.49511,0.95001
0.49518,0.95002
0.49512,0.95128
0.495,0.95349
0.49502,0.95475
0.49503,0.95569
0.49534,0.95694
0.49579,0.9585
0.49611,0.96068
0.49613,0.96284
0.49615,0.96438
0.49612,0.96191
0.49608,0.95851
0.49659,0.9516
0.49738,0.94238
0.49821,0.93493
0.4985,0.93426
0.49784,0.94368
0.4956,0.95755
0.49356,0.96804
0.49293,0.96987
0.49362,0.9726
0.49437,0.97531
0.49533,0.97742
0.49627,0.97921
0.49695,0.98249
0.49738,0.98307
0.49793,0.98161
0.49828,0.98101
0.49823,0.98338
0.49796,0.98485
0.49775,0.98456
0.4976,0.98397
0.49773,0.98278
0.4982,0.97982
0.49848,0.97924
0.49863,0.98041
0.5018,0.97384
0.50684,0.96355
0.51019,0.9589
0.51033,0.96077
0.51062,0.96077
0.51121,0.95953
0.51187,0.95705
0.51224,0.95612
0.51253,0.95736
0.51288,0.95861
0.51339,0.95862
0.51376,0.95862
0.51405,0.958
0.51443,0.95581
0.51498,0.95205
0.51536,0.95016
0.51578,0.95269
0.51633,0.95551
0.51697,0.95677
0.51734,0.95677
0.51747,0.95771
0.51762,0.9574
0.51784,0.95709
0.51814,0.95646
0.51836,0.95647
0.51865,0.95647
0.51884,0.95897
0.51895,0.96206
0.51893,0.96361
0.51895,0.96175
0.51897,0.96052
0.51883,0.95958
0.51863,0.95865
0.5185,0.95709
0.51835,0.95709
0.51799,0.95677
0.51793,0.95615
0.51823,0.95521
0.51825,0.95364
0.51783,0.95239
0.51738,0.95301
0.51715,0.95427
0.51699,0.95552
0.51696,0.95802
0.5168,0.95957
0.51658,0.95988
0.51627,0.96143
0.5159,0.96266
0.51555,0.96142
0.51485,0.958
0.514,0.9555
0.51343,0.95361
0.51342,0.95519
0.51339,0.9583
0.51309,0.96079
0.51265,0.96141
0.51206,0.96294
0.51147,0.96386
0.51096,0.9654
0.51066,0.96753
0.51029,0.96997
0.50993,0.97149
0.50992,0.97541
0.50997,0.97899
0.50975,0.98108
0.50926,0.98018
0.50862,0.97959
0.50805,0.97929
0.50777,0.98048
0.50748,0.98077
0.50706,0.98047
0.50606,0.97748
0.5047,0.97508
0.50327,0.97567
0.50256,0.97746
0.50213,0.97686
0.50162,0.97385
0.50088,0.97052
0.50039,0.97144
0.50013,0.97624
0.49978,0.97684
0.49909,0.97051
0.49832,0.96532
0.49768,0.96562
0.49718,0.96622
0.49665,0.96408
0.49596,0.96068
0.49523,0.96037
0.49458,0.96097
0.49394,0.96128
0.49335,0.96066
0.49291,0.96066
0.49241,0.96127
0.49169,0.96158
0.49088,0.96064
0.49013,0.95909
0.48947,0.95908
0.48915,0.96125
0.48888,0.96248
0.48856,0.96496
0.48826,0.96769
0.488,0.96922
0.48761,0.9677
0.48709,0.96708
0.48657,0.96647
0.48605,0.96555
0.48567,0.96493
0.48537,0.96431
0.48499,0.96339
0.48447,0.96277
0.48396,0.96276
0.48331,0.96276
0.48242,0.96213
0.48167,0.9612
0.48107,0.96058
0.48048,0.95995
0.4798,0.95902
0.47927,0.95839
0.47863,0.954
0.47794,0.94801
0.4773,0.94384
0.47696,0.9448
0.47671,0.94607
0.47617,0.94543
0.47534,0.94254
0.47459,0.93995
0.47404,0.93898
0.47337,0.93898
0.47283,0.94059
0.47238,0.94477
0.47196,0.94539
0.47138,0.94155
0.47086,0.93734
0.4705,0.93766
0.47022,0.9383
0.46983,0.93765
0.46944,0.93733
0.46943,0.94089
0.46946,0.9457
0.46916,0.9473
0.46873,0.9457
0.46855,0.94506
0.46826,0.94506
0.46769,0.9457
0.46699,0.94473
0.46641,0.94313
0.46567,0.94151
0.4651,0.94183
0.46464,0.9415
0.46425,0.94118
0.4637,0.94053
0.46318,0.94052
0.46267,0.94052
0.46215,0.94052
0.4616,0.93986
0.46088,0.93563
0.4601,0.93006
0.45953,0.92607
0.45922,0.92574
0.45882,0.9254
0.45828,0.92506
0.45753,0.92372
0.45673,0.92271
0.45598,0.92136
0.45536,0.91968
0.45475,0.91799
0.45433,0.9173
0.45403,0.9173
0.45376,0.91933
0.45357,0.92302
0.4534,0.92536
0.45319,0.92569
0.4529,0.92602
0.45271,0.92669
0.45241,0.92668
0.45222,0.92735
0.45179,0.92501
0.45118,0.92066
0.45057,0.9166
0.4504,0.91897
0.45027,0.92333
0.45004,0.926
0.44953,0.925
0.44889,0.92433
0.44832,0.92365
0.44804,0.92399
0.44766,0.92398
0.44708,0.92062
0.44635,0.91589
0.44563,0.91418
0.44514,0.91486
0.44479,0.91417
0.44435,0.91315
0.44393,0.91246
0.44371,0.91383
0.44356,0.91518
0.44336,0.91689
0.44314,0.91688
0.44279,0.9162
0.44237,0.91552
0.44185,0.91585
0.4416,0.91551
0.44139,0.91346
0.4407,0.90866
0.43986,0.90521
0.43942,0.90554
0.43924,0.90623
0.43879,0.90415
0.43822,0.90135
0.43769,0.89925
0.43728,0.89784
0.4371,0.89854
0.43676,0.89818
0.43653,0.89819
0.43633,0.89748
0.43638,0.89819
0.43612,0.89677
0.43566,0.89572
0.43525,0.89536
0.43506,0.89712
0.43488,0.89782
0.43452,0.89711
0.43416,0.89535
0.43393,0.89429
0.4338,0.89463
0.43362,0.89534
0.43326,0.89463
0.43279,0.89357
0.43256,0.89356
0.43256,0.89249
0.43238,0.89
0.4322,0.89072
0.43219,0.89497
0.43242,0.89921
0.4325,0.90131
0.43227,0.90131
0.43168,0.90061
0.43129,0.9006
0.43111,0.90025
0.43077,0.89567
0.4304,0.8907
0.43003,0.88783
0.42964,0.88783
0.4293,0.88854
0.42912,0.88818
0.42901,0.88675
0.42896,0.88603
0.42877,0.88566
0.42853,0.8835
0.42847,0.88168
0.42871,0.88277
0.42874,0.88313
0.42842,0.88096
0.42805,0.87913
0.42786,0.87876
0.42783,0.8784
0.42778,0.87767
0.42766,0.8762
0.4275,0.87399
0.42744,0.87325
0.42753,0.87436
0.42753,0.87436
0.42734,0.87399
0.42713,0.87435
0.42697,0.87435
0.42689,0.87325
0.42693,0.87177
0.42693,0.87066
0.42679,0.86991
0.42658,0.86917
0.42649,0.86805
0.42633,0.86805
0.42618,0.86916
0.42607,0.86991
0.42613,0.87065
0.42622,0.87176
0.42627,0.8725
0.42622,0.87176
0.42613,0.87065
0.42607,0.86991
0.42623,0.86991
0.42636,0.86842
0.42619,0.86618
0.42583,0.86468
0.42567,0.86468
0.42567,0.86468
0.42567,0.86468
0.42567,0.86468
0.42562,0.86392
0.42537,0.8628
0.42507,0.86204
0.42491,0.86204
0.42507,0.86204
0.42531,0.86204
0.42531,0.86204
0.42507,0.86204
0.42491,0.86204
0.42491,0.86204
0.42491,0.86204
0.42491,0.86204
0.42491,0.86204
0.42491,0.86204
0.42491,0.86204
0.42491,0.86204
0.42479,0.86052
0.42446,0.85825
0.4241,0.85673
0.42387,0.85596
0.42379,0.85482
0.42356,0.85405
0.42348,0.85405
0.42356,0.85405
0.42373,0.85405
0.42373,0.85405
0.42373,0.85405
0.42362,0.85482
0.42347,0.85596
0.42337,0.85672
0.42343,0.85748
0.42342,0.85938
0.42349,0.86127
0.42362,0.86203
0.42339,0.85899
0.42285,0.8552
0.42209,0.85173
0.42142,0.84942
0.42088,0.8467
0.42088,0.8467
0.42091,0.84709
0.42065,0.84592
0.42038,0.84554
0.42021,0.84552
0.42015,0.84475
0.41986,0.84319
0.41962,0.84319
0.41945,0.84318
0.41958,0.84475
0.4197,0.8463
0.41951,0.84591
0.41911,0.84396
0.41888,0.84318
0.41865,0.84239
0.41825,0.84043
0.41799,0.83925
0.41808,0.84043
0.41818,0.84161
0.41802,0.83964
0.41773,0.83807
0.41761,0.83964
0.41757,0.84317
0.41759,0.84434
0.41741,0.84317
0.41723,0.84199
0.4172,0.8416
0.41754,0.84278
0.4176,0.84355
0.41729,0.84473
0.41669,0.84433
0.41641,0.84394
0.41633,0.84394
0.41628,0.84432
0.41592,0.84394
0.41568,0.84393
0.41561,0.8451
0.41561,0.8451
0.41551,0.84393
0.41515,0.84158
0.41491,0.84159
0.41468,0.84274
0.4146,0.8447
0.41434,0.84352
0.4142,0.84197
0.41384,0.8396
0.41328,0.83605
0.41288,0.83328
0.41299,0.83645
0.41315,0.84116
0.41319,0.84353
0.41326,0.8443
0.41333,0.84508
0.41313,0.84469
0.41262,0.84351
0.41214,0.84273
0.41201,0.84312
0.41212,0.84429
0.41192,0.8439
0.41161,0.84311
0.41144,0.84311
0.41135,0.84389
0.41121,0.84506
0.41111,0.84584
0.41111,0.84584
0.41095,0.84584
0.41071,0.84583
0.41054,0.84583
0.41033,0.84349
0.40988,0.83839
0.40945,0.83364
0.40914,0.83204
0.40882,0.83124
0.40855,0.83004
0.40831,0.82923
0.40814,0.83003
0.40808,0.83123
0.40822,0.83283
0.40833,0.83402
0.40848,0.83561
0.40851,0.836
0.40848,0.83561
0.4084,0.83482
0.4084,0.83482
0.40824,0.83482
0.40799,0.83481
0.40783,0.83481
0.40759,0.83401
0.40723,0.83282
0.407,0.83202
0.407,0.83202
0.40692,0.83122
0.40674,0.82922
0.40646,0.82802
0.40618,0.8276
0.40605,0.82801
0.40601,0.8276
0.40588,0.82801
0.40584,0.82841
0.40583,0.82921
0.40582,0.83001
0.40577,0.83121
0.40584,0.83201
0.40567,0.83201
0.40543,0.83201
0.40528,0.8304
0.4053,0.828
0.40524,0.82558
0.40513,0.82437
0.40506,0.82356
0.40498,0.82275
0.40487,0.82153
0.40479,0.82072
0.40479,0.82072
0.40493,0.82397
0.40513,0.8288
0.40526,0.832
0.40528,0.8304
0.40506,0.8272
0.40472,0.82437
0.40457,0.82274
0.4047,0.82153
0.40479,0.82072
0.40504,0.82153
0.4054,0.82275
0.40547,0.82357
0.40522,0.82356
0.40513,0.82437
0.40524,0.82558
0.40524,0.82558
0.40513,0.82437
0.4053,0.82438
0.40566,0.82559
0.40583,0.82559
0.40571,0.82438
0.40571,0.82438
0.40568,0.82397
0.40545,0.82154
0.40536,0.81868
0.40553,0.81787
0.40578,0.81869
0.4059,0.81827
0.40599,0.81829
0.40615,0.8191
0.40638,0.82073
0.40647,0.81992
0.4066,0.81951
0.40681,0.8191
0.40687,0.81788
0.40685,0.81583
0.40703,0.81501
0.40712,0.81419
0.40701,0.81295
0.40711,0.81212
0.40736,0.81213
0.40745,0.8113
0.40742,0.81089
0.40745,0.8113
0.40745,0.8113
0.40742,0.81089
0.40779,0.8113
0.40822,0.81047
0.40841,0.80882
0.40847,0.80757
0.40852,0.80715
0.40851,0.80799
0.40841,0.80881
0.40851,0.80799
0.40885,0.80716
0.40939,0.80841
0.40963,0.80925
0.4098,0.80925
0.41005,0.80925
0.41039,0.80925
0.41074,0.80842
0.41105,0.80718
0.41115,0.80634
0.41125,0.80551
0.41154,0.80593
0.41194,0.80676
0.41233,0.80636
0.41265,0.80511
0.41278,0.80468
0.41275,0.80427
0.41285,0.80343
0.4132,0.80259
0.41369,0.80133
0.41411,0.80134
0.41442,0.80091
0.4146,0.80008
0.41491,0.79965
0.41533,0.79966
0.41559,0.79754
0.41576,0.79542
0.41594,0.79457
0.41635,0.79543
0.41688,0.79671
0.4172,0.79756
0.41729,0.79756
0.41761,0.79841
0.418,0.79799
0.41828,0.79715
0.41854,0.79502
0.41873,0.79418
0.41885,0.7946
0.4191,0.79673
0.4195,0.79758
0.41986,0.79674
0.42006,0.79376
0.42027,0.79205
0.42053,0.79204
0.42084,0.79162
0.42123,0.7912
0.42173,0.79206
0.42204,0.79164
0.42213,0.78949
0.42248,0.78949
0.423,0.79079
0.42343,0.79079
0.42368,0.78951
0.42411,0.78951
0.42457,0.78994
0.42471,0.78952
0.42482,0.78865
0.42512,0.78693
0.42543,0.78521
0.4255,0.7839
0.42571,0.78434
0.426,0.78477
0.42634,0.78477
0.42657,0.78435
0.42695,0.78478
0.42732,0.78652
0.4277,0.78695
0.4281,0.78653
0.42847,0.78567
0.42858,0.7848
0.4286,0.78263
0.42871,0.78045
0.42918,0.7822
0.42976,0.78437
0.43036,0.78439
0.4305,0.78264
0.43059,0.78265
0.43085,0.78265
0.43139,0.78178
0.43174,0.78048
0.43197,0.77872
0.43214,0.77741
0.43232,0.77741
0.43269,0.77785
0.43341,0.7783
0.43399,0.77786
0.43437,0.77831
0.43465,0.77875
0.43517,0.77876
0.43561,0.77745
0.4359,0.77657
0.4362,0.77569
0.43663,0.77437
0.43687,0.7726
0.43691,0.77038
0.43722,0.76816
0.43772,0.76637
0.43831,0.76593
0.43889,0.76548
0.4393,0.76504
0.43971,0.76594
0.44012,0.76863
0.44047,0.76863
0.44081,0.76685
0.44122,0.7664
0.44157,0.76641
0.4417,0.76417
0.4418,0.76282
0.44195,0.76236
0.44237,0.76192
0.44276,0.76102
0.44311,0.76102
0.44355,0.76103
0.44399,0.76103
0.44434,0.76104
0.44478,0.76104
0.44535,0.76014
0.44589,0.75879
0.44628,0.75788
0.44654,0.75606
0.44689,0.75424
0.44753,0.7547
0.44809,0.75699
0.44849,0.7579
0.44893,0.75791
0.4495,0.757
0.45009,0.75656
0.45047,0.75519
0.45073,0.75337
0.45109,0.75153
0.45153,0.75154
0.45166,0.75061
0.45178,0.74924
0.45236,0.74832
0.45302,0.7474
0.45367,0.74602
0.45425,0.74695
0.45486,0.7488
0.45523,0.75112
0.45541,0.75111
0.45558,0.75113
0.45579,0.74974
0.45613,0.74928
0.45653,0.74836
0.45683,0.74929
0.45704,0.7479
0.45748,0.7456
0.458,0.74327
0.45834,0.74281
0.45871,0.74094
0.45928,0.73954
0.45965,0.73766
0.45999,0.7372
0.46039,0.73578
0.46084,0.7358
0.46134,0.73485
0.46198,0.73297
0.46267,0.72964
0.46316,0.73061
0.46359,0.7325
0.46409,0.73394
0.46467,0.73252
0.46518,0.73444
0.46561,0.73631
0.46599,0.73443
0.46648,0.73017
0.46696,0.73112
0.46722,0.7335
0.46756,0.73303
0.46822,0.73113
0.46877,0.72876
0.46924,0.72637
0.46978,0.72638
0.4704,0.72878
0.47068,0.72925
0.47101,0.72831
0.47127,0.72783
0.47163,0.72783
0.4721,0.72832
0.4726,0.73023
0.47291,0.72832
0.47323,0.72354
0.47374,0.71917
0.47414,0.71724
0.47446,0.71529
0.47491,0.7153
0.4756,0.71726
0.47629,0.7192
0.47696,0.72068
0.4774,0.72019
0.47776,0.71971
0.47798,0.71777
0.47847,0.71534
0.47901,0.71486
0.4796,0.71681
0.48005,0.71682
0.48057,0.71095
0.48113,0.70751
0.4816,0.70799
0.48184,0.71047
0.48203,0.71096
0.48267,0.71097
0.48339,0.71049
0.48377,0.71098
0.48397,0.71197
0.48441,0.71099
0.48502,0.70952
0.48565,0.70854
0.48629,0.70855
0.48675,0.70856
0.48729,0.70757
0.48781,0.70609
0.48832,0.70311
0.48857,0.70112
0.48893,0.70062
0.4892,0.70062
0.48955,0.69913
0.48999,0.69712
0.49044,0.69662
0.49103,0.69914
0.49179,0.70115
0.4926,0.69916
0.49302,0.69565
0.49339,0.69464
0.49383,0.69261
0.49428,0.69161
0.49467,0.69364
0.49498,0.69617
0.49552,0.69466
0.49607,0.69417
0.49665,0.6972
0.49733,0.70072
0.49807,0.70173
0.49844,0.70174
0.49863,0.70274
0.49945,0.70124
0.50026,0.69674
0.50088,0.69118
0.50143,0.68864
0.50226,0.68763
0.50272,0.68661
0.50328,0.68405
0.50402,0.68252
0.50468,0.68407
0.50506,0.68664
0.50534,0.68869
0.50571,0.6892
0.50618,0.68665
0.50664,0.68358
0.50702,0.68099
0.5073,0.67894
0.50768,0.67686
0.50796,0.67791
0.50833,0.67946
0.5088,0.68051
0.50946,0.67948
0.50994,0.67584
0.51052,0.67167
0.51128,0.67063
0.51194,0.67116
0.51232,0.66959
0.51261,0.66802
0.51299,0.66854
0.51346,0.6696
0.51413,0.6675
0.51481,0.66434
0.5153,0.66221
0.51569,0.66222
0.51596,0.66329
0.51635,0.66275
0.51683,0.66171
0.51751,0.6601
0.51799,0.65958
0.51838,0.65851
0.51868,0.65744
0.51908,0.65584
0.51956,0.65584
0.52022,0.65638
0.52088,0.65694
0.52135,0.65748
0.52174,0.65748
0.52225,0.6548
0.52274,0.65319
0.52314,0.65265
0.52343,0.65212
0.52384,0.64995
0.52415,0.64832
0.52454,0.64833
0.525,0.64996
0.52543,0.65323
0.52579,0.6543
0.52629,0.65324
0.52701,0.64999
0.5275,0.64946
0.5279,0.64891
0.52819,0.64838
0.52861,0.6462
0.52912,0.64457
0.52982,0.64348
0.5303,0.64348
0.53069,0.64349
0.53098,0.64349
0.53136,0.6435
0.53165,0.6435
0.53208,0.6413
0.53242,0.63911
0.53303,0.63745
0.5336,0.63802
0.53422,0.63636
0.53453,0.63526
0.53496,0.63359
0.53546,0.63304
0.536,0.63081
0.5364,0.63026
0.5369,0.6297
0.53737,0.63028
0.53775,0.63083
0.53821,0.63196
0.53872,0.63085
0.53916,0.62918
0.53948,0.62806
0.5399,0.62693
0.54021,0.62638
0.54055,0.62807
0.541,0.62976
0.54169,0.62921
0.54221,0.62809
0.54267,0.62584
0.54325,0.62247
0.54384,0.61906
0.54422,0.61964
0.54471,0.61963
0.5452,0.61965
0.54561,0.61908
0.54603,0.62137
0.5465,0.62194
0.54695,0.62024
0.54733,0.6174
0.54773,0.6174
0.54816,0.61912
0.54889,0.61798
0.54946,0.61572
0.54987,0.61514
0.55036,0.61515
0.55111,0.61344
0.55184,0.6123
0.55238,0.61115
0.55279,0.61058
0.55307,0.61116
0.55342,0.61232
0.55392,0.61232
0.55461,0.61233
0.5551,0.61234
0.55554,0.61119
0.5561,0.60947
0.55664,0.60832
0.55704,0.60832
0.55758,0.60717
0.55834,0.60544
0.55888,0.60428
0.55928,0.60429
0.55978,0.6043
0.56047,0.60431
0.56117,0.60432
0.56166,0.60432
0.56206,0.60433
0.56256,0.60433
0.5633,0.60318
0.56408,0.60144
0.56463,0.60027
0.56497,0.60145
0.56544,0.60204
0.56611,0.60264
0.56658,0.60322
0.56698,0.60323
0.56756,0.60149
0.56837,0.59915
0.56909,0.59858
0.56982,0.59799
0.5704,0.59624
0.57109,0.59448
0.57172,0.59388
0.57229,0.59449
0.57282,0.5939
0.57355,0.59333
0.57431,0.59215
0.57502,0.59216
0.57545,0.59335
0.57583,0.59394
0.57636,0.59337
0.57731,0.58861
0.57797,0.58565
0.57864,0.58444
0.57928,0.58746
0.58026,0.58626
0.58099,0.58569
0.5815,0.58568
0.58197,0.58809
0.58277,0.5881
0.58368,0.58811
0.58411,0.58932
0.5842,0.5911
0.58461,0.59111
0.58531,0.58934
0.58599,0.58815
0.58649,0.58816
0.58719,0.58817
0.5879,0.58818
0.5886,0.58819
0.5891,0.58819
0.5895,0.5882
0.59001,0.58821
0.59071,0.58822
0.59149,0.58703
0.59231,0.58525
0.59309,0.58406
0.59372,0.58527
0.59431,0.58707
0.59493,0.58828
0.59543,0.58829
0.59583,0.58829
0.59642,0.5871
0.59696,0.58652
0.59732,0.58712
0.59791,0.58593
0.59886,0.58234
0.59945,0.58114
0.59981,0.58174
0.60036,0.58116
0.60115,0.57996
0.60194,0.57875
0.60269,0.57817
0.60345,0.57756
0.60382,0.5794
0.60423,0.57939
0.60502,0.5782
0.60601,0.57578
0.60662,0.57579
0.60683,0.57701
0.60701,0.58004
0.60738,0.58186
0.60813,0.58127
0.60893,0.58007
0.60934,0.58129
0.60961,0.5831
0.61021,0.5819
0.61119,0.57829
0.61179,0.57709
0.61206,0.57891
0.61247,0.58012
0.61327,0.57892
0.61382,0.57833
0.61418,0.57894
0.61459,0.58016
0.6153,0.58017
0.6159,0.58139
0.61656,0.58199
0.61711,0.5814
0.61762,0.5802
0.61822,0.579
0.61888,0.57719
0.61929,0.5772
0.61964,0.57902
0.62035,0.57903
0.6209,0.57844
0.62136,0.57783
0.62192,0.57724
0.62263,0.57725
0.62297,0.57907
0.62317,0.58149
0.62362,0.5821
0.62438,0.58151
0.62499,0.58031
0.62539,0.58032
0.6259,0.58032
0.6264,0.58033
0.62681,0.58034
0.62764,0.57671
0.62831,0.57491
0.62844,0.57793
0.62856,0.58217
0.62912,0.58158
0.62963,0.58038
0.63025,0.57918
0.63081,0.57859
0.63116,0.57919
0.63144,0.58162
0.63198,0.58343
0.63237,0.58464
0.63277,0.58464
0.63307,0.58465
0.63359,0.58345
0.63406,0.58166
0.63458,0.58045
0.63477,0.58167
0.6348,0.58347
0.635,0.58347
0.63547,0.58168
0.63599,0.58047
0.63641,0.57927
0.63656,0.57989
0.63664,0.58108
0.63709,0.5817
0.63747,0.58291
0.63732,0.58651
0.63741,0.58771
0.63788,0.58592
0.6384,0.58473
0.63859,0.58593
0.63861,0.58772
0.63869,0.58892
0.63899,0.58893
0.63919,0.58893
0.63919,0.58893
0.63963,0.58654
0.64029,0.58296
0.64049,0.58296
0.64013,0.58655
0.63989,0.58894
0.63998,0.59014
0.64022,0.59073
0.64068,0.59015
0.64122,0.58776
0.64136,0.58837
0.64112,0.59074
0.64064,0.59549
0.64048,0.59901
0.64066,0.60019
0.64104,0.59844
0.64116,0.59726
0.64116,0.59726
0.64116,0.59726
0.64104,0.59844
0.6413,0.59784
0.64171,0.59669
0.64197,0.59609
0.64193,0.59845
0.64205,0.60021
0.64213,0.60139
0.64213,0.60139
0.64213,0.60139
0.64213,0.60139
0.64213,0.60139
0.64201,0.60256
0.64183,0.6043
0.64191,0.60547
0.6422,0.60547
0.6424,0.60548
0.64228,0.60664
0.6421,0.60837
0.64186,0.61069
0.64169,0.61241
0.64157,0.61356
0.64157,0.61356
0.64145,0.61471
0.64127,0.61642
0.64127,0.61642
0.64145,0.61471
0.64157,0.61356
0.64145,0.61471
0.64127,0.61642
0.64115,0.61757
0.64115,0.61757
0.64096,0.61757
0.64066,0.61756
0.64047,0.61756
0.64047,0.61756
0.64047,0.61756
0.64047,0.61756
0.64047,0.61756
0.64015,0.6187
0.6398,0.61926
0.63955,0.61983
0.63949,0.62039
0.63926,0.62267
0.63908,0.62436
0.63877,0.62549
0.63848,0.62548
0.63828,0.62548
0.63828,0.62548
0.63797,0.6266
0.63751,0.62828
0.63732,0.62828
0.63718,0.62772
0.63706,0.62602
0.63709,0.62377
0.63709,0.62377
0.63675,0.62714
0.63633,0.62939
0.63604,0.62939
0.63576,0.62826
0.63564,0.62657
0.63544,0.62657
0.63516,0.62937
0.63458,0.63328
0.63412,0.63494
0.63387,0.6355
0.63362,0.63605
0.63303,0.63715
0.63255,0.63715
0.63246,0.63603
0.63252,0.63548
0.63205,0.63825
0.63155,0.64044
0.63146,0.63935
0.63168,0.63713
0.6317,0.63491
0.63163,0.63269
0.63149,0.63212
0.63118,0.63324
0.63068,0.63546
0.63008,0.63766
0.62973,0.63822
0.62975,0.636
0.62991,0.63433
0.62972,0.63433
0.62927,0.63599
0.62888,0.63598
0.62865,0.63543
0.6284,0.63598
0.62829,0.63709
0.628,0.63819
0.62755,0.63984
0.62696,0.64204
0.62662,0.64258
0.62637,0.64313
0.62613,0.64367
0.62584,0.64367
0.6258,0.64203
0.62561,0.64202
0.62497,0.64366
0.62439,0.64475
0.6243,0.64365
0.62435,0.64311
0.62411,0.64365
0.62353,0.64474
0.62295,0.64583
0.6227,0.64636
0.62265,0.64692
0.62251,0.64636
0.62217,0.64691
0.62193,0.64745
0.62203,0.64635
0.62214,0.64308
0.62175,0.64417
0.62102,0.65015
0.62048,0.6561
0.62015,0.6577
0.61972,0.65716
0.61944,0.655
0.619,0.65554
0.61862,0.6566
0.61829,0.65607
0.61824,0.65337
0.61805,0.65337
0.61772,0.65498
0.61734,0.65605
0.61715,0.65605
0.61705,0.65497
0.61681,0.65444
0.61629,0.65604
0.61587,0.65764
0.61572,0.65711
0.61553,0.65711
0.61511,0.65871
0.61463,0.65977
0.61426,0.66084
0.61393,0.66243
0.61365,0.66349
0.61337,0.66349
0.61299,0.66348
0.6127,0.66348
0.61241,0.66241
0.61226,0.66081
0.61188,0.66081
0.61119,0.66346
0.6105,0.6661
0.61022,0.66716
0.6102,0.66504
0.60992,0.66505
0.60941,0.66661
0.60881,0.6682
0.60834,0.66819
0.60811,0.66871
0.60806,0.66925
0.608,0.66765
0.6078,0.66661
0.60755,0.665
0.60731,0.66448
0.60693,0.66447
0.60652,0.66605
0.60625,0.66711
0.60598,0.66816
0.60565,0.66868
0.60532,0.66815
0.60495,0.66921
0.60441,0.67129
0.60409,0.67182
0.60381,0.67287
0.60346,0.67495
0.60306,0.67652
0.60291,0.67598
0.60269,0.67651
0.60237,0.67702
0.60199,0.67702
0.60175,0.6765
0.6016,0.67597
0.60145,0.67545
0.60109,0.67649
0.60075,0.67855
0.60044,0.68012
0.60004,0.68166
0.59948,0.68423
0.59897,0.6873
0.59855,0.69035
0.5984,0.69239
0.5984,0.69239
0.59814,0.6934
0.59775,0.69491
0.5973,0.69592
0.5971,0.6949
0.59684,0.69338
0.59657,0.69338
0.5962,0.6959
0.59583,0.69841
0.59548,0.69942
0.59529,0.69941
0.59511,0.69941
0.59476,0.70041
0.59428,0.7019
0.59401,0.7019
0.59386,0.7014
0.59383,0.7019
0.5935,0.70389
0.59312,0.70538
0.59286,0.70637
0.59268,0.70637
0.59241,0.70636
0.59222,0.70636
0.59215,0.70735
0.59187,0.70883
0.59145,0.7108
0.5911,0.71325
0.59093,0.71569
0.59061,0.71764
0.59024,0.71909
0.58999,0.72006
0.58981,0.72006
0.58953,0.72006
0.58917,0.72005
0.5889,0.72005
0.58872,0.72005
0.58872,0.72005
0.58854,0.72005
0.58827,0.72004
0.5879,0.72004
0.58757,0.72101
0.58711,0.72245
0.58677,0.72341
0.58653,0.72437
0.58632,0.72485
0.58601,0.72533
0.5858,0.7258
0.58567,0.72772
0.58546,0.72819
0.58522,0.72772
0.58511,0.72676
0.58493,0.72675
0.58453,0.72867
0.58429,0.72961
0.58405,0.73057
0.5839,0.73151
0.58362,0.73436
0.5835,0.73483
0.58329,0.73531
0.58308,0.73577
0.58269,0.73766
0.58248,0.73812
0.5824,0.73671
0.58216,0.73624
0.58192,0.73717
0.58171,0.73764
0.58132,0.7367
0.58082,0.73763
0.58037,0.73904
0.58005,0.73997
0.57981,0.74091
0.57955,0.7423
0.57899,0.74417
0.57846,0.74555
0.57817,0.74741
0.57796,0.74786
0.57749,0.74833
0.57708,0.74785
0.5767,0.74832
0.57628,0.74784
0.57576,0.74923
0.57546,0.74829
0.57522,0.74785
0.57504,0.74783
0.57476,0.74968
0.57432,0.74967
0.57365,0.75059
0.57313,0.75196
0.57283,0.75103
0.57233,0.75196
0.57169,0.7556
0.57136,0.75834
0.57126,0.75697
0.571,0.75697
0.57057,0.75833
0.57008,0.75923
0.56947,0.75923
0.56898,0.76013
0.56856,0.76148
0.5682,0.76328
0.56783,0.76372
0.56746,0.76237
0.56692,0.76101
0.56637,0.76326
0.56583,0.76684
0.56543,0.76953
0.56511,0.76907
0.56467,0.76908
0.56429,0.76817
0.56389,0.76907
0.56368,0.76816
0.56333,0.76817
0.56309,0.76771
0.56274,0.76771
0.56255,0.76637
0.56224,0.76546
0.5618,0.76546
0.56124,0.76455
0.56078,0.76501
0.56039,0.76589
0.55985,0.76813
0.55929,0.77079
0.55902,0.77301
0.55882,0.77345
0.55837,0.77389
0.55794,0.77388
0.55769,0.77167
0.55737,0.773
0.55691,0.77563
0.55657,0.7774
0.55624,0.77695
0.55595,0.77783
0.5556,0.77783
0.55525,0.77606
0.55493,0.77341
0.55479,0.77252
0.55449,0.77562
0.55395,0.77824
0.5535,0.77868
0.55315,0.77868
0.5528,0.78086
0.55216,0.78391
0.5515,0.7878
0.55109,0.78951
0.55112,0.78866
0.55098,0.78779
0.55071,0.78822
0.55049,0.78952
0.55015,0.7895
0.54943,0.79037
0.54866,0.79035
0.54822,0.79078
0.54791,0.78991
0.54765,0.78991
0.54728,0.79077
0.54698,0.79205
0.54658,0.79376
0.54631,0.79418
0.54615,0.79376
0.54598,0.79375
0.54571,0.79417
0.54539,0.79375
0.54513,0.79375
0.54472,0.79587
0.54442,0.79714
0.5441,0.79672
0.54387,0.79586
0.54347,0.79756
0.54319,0.7984
0.54288,0.79756
0.54265,0.7967
0.54227,0.79797
0.54197,0.79966
0.54159,0.80092
0.54131,0.80176
0.54094,0.8026
0.54065,0.80385
0.54046,0.80469
0.54029,0.80469
0.54001,0.80553
0.53988,0.80426
0.53999,0.80049
0.53986,0.79922
0.5393,0.80384
0.53876,0.80801
0.53856,0.80927
0.53838,0.80967
0.53808,0.81133
0.5379,0.81174
0.53772,0.81216
0.53748,0.81174
0.53728,0.81298
0.53709,0.81379
0.53661,0.81586
0.53634,0.81666
0.53622,0.8179
0.53594,0.81912
0.53547,0.82115
0.53512,0.82196
0.53468,0.82277
0.53426,0.82316
0.53408,0.82357
0.53393,0.82316
0.53383,0.82357
0.53374,0.82397
0.53366,0.82397
0.5335,0.82357
0.53333,0.82397
0.53306,0.82477
0.53289,0.82477
0.53271,0.82558
0.53243,0.82678
0.53223,0.82839
0.53218,0.83039
0.53197,0.83238
0.53169,0.83397
0.53155,0.83277
0.5316,0.83079
0.53144,0.83038
0.53117,0.83158
0.53103,0.83038
0.53091,0.82838
0.53064,0.82918
0.53043,0.83157
0.53039,0.83317
0.53021,0.83396
0.52994,0.83514
0.52974,0.83673
0.52955,0.83791
0.5293,0.83791
0.52915,0.83751
0.52916,0.83711
0.52899,0.83751
0.52873,0.8379
0.52855,0.83869
0.52855,0.83869
0.52837,0.83948
0.52812,0.83986
0.52796,0.83947
0.52782,0.83868
0.52754,0.84025
0.52715,0.84338
0.52687,0.84532
0.5267,0.84571
0.52668,0.84688
0.5265,0.84803
0.52626,0.84765
0.52611,0.84687
0.52613,0.84609
0.52596,0.84649
0.52567,0.8488
0.52526,0.8538
0.52497,0.85646
0.52481,0.85647
0.52485,0.85417
0.52487,0.85303
0.5247,0.8538
0.52442,0.85608
0.52424,0.85684
0.52425,0.85646
0.52424,0.85684
0.52407,0.8576
0.52383,0.8576
0.52366,0.85836
0.52363,0.86025
0.5236,0.86214
0.52341,0.86364
0.52317,0.86401
0.523,0.86439
0.52298,0.86551
0.52295,0.86738
0.52276,0.86962
0.52267,0.87035
0.5226,0.86961
0.52253,0.86887
0.52235,0.87072
0.52232,0.87257
0.52232,0.87257
0.52219,0.87072
0.52196,0.87035
0.52177,0.87257
0.52173,0.87515
0.52173,0.87515
0.52174,0.87404
0.52159,0.87404
0.52133,0.87514
0.52116,0.87588
0.52117,0.87514
0.52119,0.87404
0.52101,0.87551
0.52073,0.8788
0.52056,0.87953
0.52042,0.87807
0.52018,0.87843
0.52,0.88025
0.51999,0.88098
0.51997,0.88244
0.51995,0.8846
0.51977,0.88604
0.51953,0.88676
0.51937,0.88711
0.51937,0.88676
0.51921,0.88676
0.51896,0.88855
0.51878,0.89033
0.51877,0.89105
0.51878,0.89033
0.51879,0.88998
0.51863,0.89033
0.51837,0.89247
0.51818,0.8953
0.51815,0.89777
0.51814,0.89848
0.51814,0.89848
0.51814,0.89918
0.51813,0.90023
0.51796,0.90093
0.51773,0.90093
0.51758,0.90092
0.51759,0.90022
0.51743,0.90058
0.51718,0.90197
0.51701,0.90406
0.51683,0.90648
0.51675,0.90647
0.51669,0.90511
0.51678,0.9037
0.5167,0.90406
0.51662,0.90406
0.51646,0.90509
0.51629,0.90648
0.51604,0.90889
0.51586,0.91163
0.51585,0.913
0.51585,0.91232
0.51586,0.9113
0.51586,0.9113
0.51585,0.913
0.51583,0.91471
0.51582,0.91607
0.5158,0.91776
0.51578,0.92012
0.51576,0.92247
0.51574,0.92481
0.51572,0.92647
0.51572,0.92714
0.51572,0.92714
0.51587,0.92714
0.51609,0.92714
0.51624,0.92714
0.51641,0.92581
0.51665,0.92449
0.51679,0.92549
0.51676,0.92814
0.5169,0.92947
0.51712,0.92947
0.51726,0.93013
0.51741,0.93046
0.51763,0.93079
0.51777,0.93112
0.5179,0.9331
0.51795,0.93571
0.51799,0.93799
0.51806,0.93864
0.51821,0.93864
0.51819,0.94058
0.51815,0.94347
0.51828,0.94476
0.51854,0.94187
0.51888,0.93832
0.51896,0.93767
0.51901,0.93961
0.51907,0.94091
0.51937,0.94091
0.51957,0.9422
0.51969,0.94413
0.51967,0.94605
0.5198,0.94701
0.52,0.94892
0.52011,0.95145
0.52023,0.95303
0.5206,0.95272
0.52097,0.95272
0.52126,0.95303
0.52147,0.95335
0.52163,0.9524
0.52178,0.95241
0.52199,0.95304
0.52227,0.95367
0.52247,0.95462
0.52258,0.9568
0.52269,0.9593
0.52304,0.95961
0.52356,0.95931
0.52391,0.95993
0.52414,0.96302
0.52433,0.96486
0.52446,0.96549
0.5246,0.96548
0.52496,0.9658
0.52549,0.96457
0.52584,0.96488
0.52612,0.96549
0.52631,0.96642
0.52644,0.96733
0.5264,0.96947
0.52651,0.97098
0.52687,0.97099
0.52723,0.97069
0.52751,0.97099
0.5278,0.97402
0.52808,0.97761
0.52831,0.98
0.52868,0.97941
0.52918,0.97912
0.52957,0.97762
0.52974,0.97674
0.52987,0.97733
0.53015,0.98002
0.53047,0.9815
0.53074,0.9821
0.53108,0.98269
0.53143,0.98299
0.53172,0.9827
0.53191,0.98329
0.53216,0.98446
0.53235,0.98535
0.53248,0.98565
0.53261,0.98623
0.53284,0.98565
0.533,0.98477
0.53316,0.98418
0.53352,0.98418
0.53398,0.98536
0.53429,0.98653
0.53443,0.98683
0.53459,0.98625
0.5348,0.98625
0.53503,0.98801
0.53517,0.99004
0.53529,0.99092
0.53532,0.98976
0.53533,0.98947
0.53534,0.98917
0.53535,0.98889
0.53549,0.98889
0.53566,0.99034
0.53575,0.99179
0.53577,0.99121
0.53581,0.99006
0.53569,0.98918
0.53549,0.98889
0.5355,0.98418
0.53567,0.97857
0.53577,0.97527
0.53575,0.97587
0.53575,0.97587
0.53575,0.97587
0.53572,0.97707
0.53568,0.97826
0.53567,0.97856
0.53565,0.97916
0.5356,0.98094
0.5355,0.9839
0.53542,0.98654
0.53537,0.9883
0.53539,0.98772
0.53527,0.98684
0.53506,0.98684
0.53489,0.98771
0.53473,0.9883
0.53452,0.9883
0.53438,0.9883
0.53437,0.98888
0.53378,0.98975
0.53293,0.98974
0.5324,0.98887
0.5324,0.98887
0.53239,0.98916
0.5324,0.98887
0.53241,0.98828
0.53241,0.98828
0.53248,0.98594
0.53259,0.98182
0.53252,0.97914
0.5323,0.97943
0.53214,0.98003
0.53213,0.98062
0.53207,0.9827
0.53201,0.98505
0.53197,0.98623
0.53197,0.98623
0.53183,0.98623
0.5315,0.98564
0.53124,0.9818
0.53123,0.97675
0.53135,0.97253
0.53123,0.97132
0.531,0.97223
0.53077,0.97524
0.53058,0.97733
0.53035,0.97793
0.53003,0.97912
0.52975,0.98209
0.52953,0.98504
0.52949,0.9868
0.52948,0.98709
0.52935,0.9868
0.52902,0.98563
0.52869,0.98474
0.52859,0.98297
0.52862,0.98179
0.52841,0.97851
0.52806,0.97523
0.52785,0.9719
0.52789,0.97009
0.52779,0.96795
0.52758,0.96795
0.52726,0.96947
0.52687,0.97099
0.52648,0.9722
0.52628,0.97491
0.52593,0.9782
0.52547,0.97999
0.52473,0.98117
0.52407,0.98235
0.5235,0.98265
0.52331,0.98146
0.52317,0.98116
0.52318,0.98086
0.52319,0.97997
0.52323,0.97789
0.52324,0.97699
0.52311,0.97669
0.5229,0.97639
0.52262,0.97579
0.52241,0.97579
0.52227,0.97579
0.52227,0.97579
0.52229,0.97458
0.52215,0.97399
0.52194,0.97398
0.52165,0.97428
0.52143,0.97428
0.52118,0.97216
0.52102,0.96883
0.52076,0.96668
0.52054,0.96668
0.52038,0.96822
0.52019,0.97124
0.5198,0.97366
0.51944,0.97366
0.5193,0.97366
0.51915,0.97366
0.51895,0.97245
0.51883,0.97064
0.51868,0.97124
0.51845,0.97274
0.51817,0.97215
0.51784,0.97002
0.51748,0.97002
0.51733,0.97032
0.51719,0.97002
0.51713,0.96941
0.51705,0.96941
0.51683,0.97002
0.51634,0.96848
0.516,0.96728
0.51572,0.96634
0.5155,0.96635
0.51522,0.96512
0.51501,0.96512
0.51471,0.96573
0.51434,0.96664
0.51398,0.96725
0.51384,0.96725
0.51369,0.96786
0.51346,0.96878
0.51332,0.96938
0.51332,0.96877
0.5126,0.96847
0.51138,0.96876
0.51044,0.96937
0.5103,0.96937
0.51015,0.96936
0.50994,0.96936
0.5098,0.96814
0.5098,0.96631
0.50995,0.96447
0.51017,0.96417
0.51032,0.96447
0.51031,0.9657
0.51016,0.966
0.50995,0.96447
0.50982,0.96201
0.50968,0.96077
0.50946,0.96076
0.50932,0.96014
0.50932,0.95921
0.50917,0.95983
0.5088,0.96169
0.50844,0.9623
0.50815,0.96138
0.50794,0.96075
0.50779,0.96137
0.50764,0.9623
0.50743,0.9623
0.50714,0.96199
0.50692,0.96167
0.50677,0.96137
0.50663,0.96075
0.50641,0.96074
0.50598,0.96012
0.50554,0.95919
0.50525,0.95794
0.5051,0.95638
0.50473,0.95481
0.50422,0.95418
0.50385,0.95418
0.50356,0.95418
0.50319,0.95354
0.50282,0.9526
0.50252,0.9507
0.50231,0.95134
0.50216,0.95069
0.50201,0.94976
0.50164,0.94975
0.50129,0.9529
0.50114,0.95227
0.50111,0.94752
0.50093,0.94208
0.50071,0.94111
0.50058,0.944
0.50045,0.94751
0.49964,0.94782
0.49859,0.94527
0.49797,0.94206
0.49781,0.94011
0.49744,0.94044
0.49708,0.94172
0.49695,0.94301
0.49679,0.94237
0.49656,0.9414
0.49625,0.9401
0.49601,0.93848
0.4957,0.93686
0.49547,0.93686
0.49534,0.93783
0.49535,0.93913
0.49521,0.93945
0.49503,0.94301
0.49479,0.9481
0.49461,0.95128
0.49445,0.95033
0.4943,0.9497
0.49407,0.94906
0.49391,0.94811
0.49375,0.94747
0.49319,0.94362
0.49253,0.93912
0.49203,0.93519
0.4918,0.93488
0.49149,0.93421
0.49127,0.93454
0.49111,0.93389
0.49094,0.93257
0.49072,0.93258
0.49044,0.93421
0.49023,0.93486
0.4899,0.9329
0.48965,0.93158
0.48937,0.93224
0.48899,0.9319
0.48859,0.93059
0.48828,0.92992
0.48791,0.93025
0.48736,0.92925
0.48694,0.92693
0.48647,0.92593
0.486,0.92492
0.48581,0.92292
0.48589,0.92327
0.48582,0.92325
0.48552,0.9236
0.48529,0.92358
0.48519,0.92593
0.48504,0.92559
0.48479,0.92459
0.48446,0.92359
0.48425,0.92391
0.48411,0.92458
0.48411,0.92458
0.48394,0.92391
0.48368,0.92224
0.48347,0.91988
0.48331,0.91955
0.48298,0.92156
0.48271,0.92591
0.48265,0.92955
0.48248,0.92888
0.48219,0.92624
0.48186,0.92489
0.48162,0.92456
0.48145,0.92356
0.48147,0.92456
0.4816,0.92955
0.48157,0.93447
0.48137,0.93545
0.48102,0.93349
0.48081,0.93381
0.48065,0.93348
0.48048,0.93251
0.4801,0.93249
0.47956,0.93183
0.47895,0.92887
0.47839,0.92754
0.47789,0.92852
0.47731,0.92653
0.47685,0.92387
0.47653,0.92319
0.47635,0.92453
0.476,0.92318
0.47539,0.9205
0.47471,0.91813
0.47423,0.91745
0.47368,0.91677
0.47291,0.91643
0.47221,0.91608
0.47182,0.91574
0.47167,0.91574
0.47153,0.91607
0.47129,0.91574
0.47111,0.91505
0.47098,0.91573
0.47064,0.91675
0.47029,0.91742
0.47021,0.91945
0.47014,0.9218
0.46995,0.92281
0.46962,0.92213
0.46922,0.92146
0.46863,0.91977
0.46801,0.91741
0.46736,0.91434
0.46674,0.9123
0.4661,0.91331
0.46512,0.91193
0.46401,0.90712
0.46307,0.90503
0.46238,0.90675
0.46169,0.90675
0.46109,0.90536
0.46018,0.90396
0.45877,0.90187
0.45748,0.89905
0.45645,0.89694
0.4554,0.89622
0.45437,0.89727
0.45371,0.89797
0.45313,0.89726
0.45273,0.89691
0.45259,0.89726
0.45232,0.89796
0.4517,0.89795
0.45108,0.89654
0.451,0.89796
0.45078,0.89969
0.45038,0.90076
0.44966,0.89899
0.44871,0.89581
0.44758,0.89227
0.44683,0.89154
0.44613,0.89153
0.4449,0.88651
0.44342,0.8829
0.44222,0.88251
0.44138,0.88288
0.44055,0.88106
0.43972,0.88032
0.43866,0.87738
0.43784,0.87445
0.43731,0.8737
0.4366,0.87369
0.43521,0.87073
0.43391,0.86812
0.43303,0.86811
0.43231,0.86922
0.43149,0.86995
0.4308,0.8692
0.43008,0.86808
0.42955,0.86733
0.42912,0.86807
0.42865,0.86918
0.42807,0.86992
0.42732,0.86843
0.42651,0.86619
0.42545,0.86392
0.42441,0.86279
0.42332,0.86127
0.42213,0.85937
0.42099,0.85822
0.42014,0.85859
0.4198,0.85935
0.41931,0.85934
0.41867,0.85934
0.41794,0.85933
0.41722,0.85933
0.41612,0.85779
0.41503,0.85627
0.41397,0.85434
0.41303,0.85281
0.41193,0.85049
0.41079,0.84855
0.40949,0.84504
0.40831,0.84191
0.40742,0.84112
0.40663,0.84229
0.40581,0.84228
0.40496,0.8411
0.40432,0.84031
0.40358,0.8403
0.403,0.84108
0.40269,0.84303
0.40231,0.84498
0.40157,0.84575
0.40076,0.84496
0.4,0.84301
0.39923,0.84105
0.39817,0.83788
0.39716,0.83591
0.39617,0.8351
0.39538,0.83549
0.3944,0.83469
0.39357,0.83468
0.39266,0.83467
0.39176,0.83387
0.39097,0.83347
0.39036,0.83465
0.38966,0.83583
0.38888,0.83543
0.38813,0.83542
0.38735,0.83581
0.38623,0.83382
0.38505,0.83062
0.38394,0.8274
0.38301,0.82578
0.38188,0.82455
0.38074,0.82333
0.37949,0.82048
0.37844,0.82006
0.37751,0.81922
0.37706,0.81965
0.37676,0.81922
0.37652,0.82004
0.37598,0.82044
0.37546,0.82165
0.37491,0.82125
0.37439,0.82043
0.37371,0.8196
0.37271,0.81755
0.37162,0.81549
0.37066,0.81383
0.3704,0.81507
0.37004,0.81629
0.36937,0.81629
0.36831,0.81381
0.36746,0.81174
0.36623,0.80799
0.36506,0.80548
0.36382,0.80167
0.36312,0.80084
0.36284,0.80335
0.36274,0.80712
0.36192,0.8067
0.36125,0.80669
0.36079,0.8071
0.3602,0.80584
0.35905,0.80289
0.35792,0.80078
0.35687,0.79992
0.35579,0.79821
0.3548,0.79651
0.35414,0.79607
0.35377,0.79777
0.35335,0.79904
0.35287,0.79988
0.35227,0.79988
0.35197,0.80072
0.3518,0.80198
0.3512,0.80197
0.35018,0.8007
0.34929,0.79985
0.34858,0.79899
0.3478,0.79771
0.34696,0.796
0.34606,0.79386
0.34527,0.79257
0.34473,0.79299
0.34384,0.79212
0.34273,0.79041
0.34185,0.79082
0.34173,0.79467
0.34159,0.79722
0.34122,0.79765
0.3402,0.79593
0.33916,0.79465
0.33796,0.79292
0.33691,0.79163
0.33618,0.79076
0.33536,0.78989
0.33422,0.78859
0.33313,0.78772
0.33249,0.78857
0.33174,0.78813
0.33078,0.7864
0.32982,0.78465
0.32914,0.78638
0.32855,0.7881
0.32801,0.78853
0.32753,0.78766
0.32724,0.78852
0.32684,0.78981
0.32638,0.79066
0.32578,0.79066
0.32486,0.78979
0.32365,0.78762
0.32249,0.78631
0.32173,0.78586
0.32114,0.78543
0.32022,0.78455
0.31942,0.78541
0.3188,0.78583
0.31841,0.78714
0.31769,0.78798
0.31699,0.78842
0.31621,0.78841
0.3154,0.78969
0.31436,0.78968
0.31287,0.78751
0.3117,0.7862
0.31094,0.78575
0.31011,0.78445
0.30899,0.78401
0.30793,0.78485
0.30697,0.78528
0.30604,0.7844
0.30542,0.78527
0.30478,0.78656
0.30432,0.78829
0.30394,0.78957
0.30332,0.79043
0.30214,0.78955
0.30069,0.78825
0.29917,0.7865
0.29772,0.78519
0.29636,0.78343
0.29516,0.78212
0.29446,0.78298
0.29383,0.78471
0.29322,0.78601
0.29235,0.78643
0.29147,0.78729
0.29027,0.78728
0.28906,0.7864
0.28786,0.78596
0.28682,0.78637
0.28552,0.78549
0.28414,0.78375
0.28302,0.78417
0.28206,0.78546
0.28146,0.78676
0.28111,0.78848
0.28025,0.78847
0.27869,0.78673
0.27774,0.78715
0.27688,0.78843
0.2755,0.78799
0.27358,0.78537
0.27183,0.78275
0.27062,0.78274
0.27066,0.78708
0.27033,0.78966
0.26922,0.78966
0.26739,0.78834
0.26565,0.78702
0.26416,0.78571
0.26311,0.78526
0.26236,0.78656
0.26061,0.78566
0.25807,0.78435
0.25654,0.78564
0.2561,0.78951
0.25553,0.7908
0.25469,0.79166
0.25441,0.79422
0.25395,0.79677
0.25274,0.79633
0.2507,0.79376
0.24823,0.79159
0.24586,0.79027
0.24403,0.7894
0.2428,0.78895
0.2418,0.7898
0.24088,0.79066
0.24015,0.79193
0.23944,0.79364
0.23819,0.79491
0.23639,0.79489
0.23419,0.79359
0.23205,0.79185
0.2301,0.79055
0.22867,0.79139
0.22776,0.79395
0.22689,0.79565
0.22582,0.79649
0.22524,0.79861
0.22406,0.79902
0.22273,0.79816
0.22116,0.79772
0.22023,0.79941
0.21893,0.80066
0.217,0.79979
0.21431,0.79638
0.21266,0.79594
0.21193,0.79804
0.21103,0.80016
0.2096,0.80057
0.20851,0.80225
0.20748,0.8035
0.20649,0.80517
0.20552,0.80725
0.20425,0.80848
0.20258,0.80889
0.20102,0.80845
0.19957,0.80719
0.19831,0.80509
0.19653,0.80423
0.19488,0.80589
0.19337,0.80838
0.19192,0.80836
0.1908,0.8092
0.19008,0.81083
0.18944,0.81333
0.18824,0.81413
0.18655,0.81411
0.18438,0.81245
0.18207,0.81035
0.18046,0.81034
0.17934,0.81198
0.17867,0.81486
0.17731,0.81568
0.17595,0.81649
0.17497,0.81771
0.17404,0.81852
0.17319,0.82015
0.17233,0.82257
0.17082,0.82337
0.1691,0.82296
0.16746,0.82253
0.16582,0.8213
0.16359,0.81924
0.16156,0.8184
0.16013,0.8192
0.1596,0.82124
0.15916,0.82408
0.15837,0.82609
0.15661,0.82526
0.15449,0.82363
0.1525,0.82239
0.15076,0.82115
0.14955,0.82156
0.14861,0.82356
0.14769,0.82559
0.14567,0.82354
0.14491,0.82476
0.14423,0.82675
0.14361,0.82918
0.1417,0.82795
0.14177,0.83237
0.1408,0.83392
0.13902,0.83234
0.1367,0.8287
0.13608,0.83031
0.1348,0.83069
0.13288,0.82947
0.13088,0.82825
0.13015,0.83025
0.12945,0.83184
0.12776,0.83103
0.12617,0.83102
0.12568,0.8334
0.12463,0.83419
0.1229,0.83378
0.12203,0.83576
0.12166,0.83891
0.12037,0.83969
0.11866,0.83929
0.11759,0.84045
0.11678,0.84162
0.11568,0.84201
0.11487,0.84318
0.11426,0.84512
0.11397,0.84746
0.1135,0.84977
0.11297,0.85208
0.11192,0.85323
0.11049,0.85398
0.10943,0.85551
0.10828,0.85702
0.10746,0.85892
0.10664,0.86042
0.10608,0.86194
0.1047,0.86192
0.10295,0.86115
0.10172,0.86153
0.10306,0.86755
0.10258,0.87051
0.098585,0.8664
0.094323,0.86146
0.094042,0.86447
0.094463,0.86822
0.093787,0.86896
0.09364,0.87083
0.095251,0.87675
0.096172,0.8815
0.094635,0.88223
0.091831,0.88038
0.090104,0.87964
0.08838,0.87852
0.087011,0.87888
0.085021,0.87849
0.082654,0.87738
0.080824,0.877
0.080744,0.87992
0.081424,0.88429
0.081355,0.88682
0.077962,0.88244
0.076298,0.88283
0.07801,0.89037
0.081155,0.89999
0.08036,0.90033
0.077766,0.89749
0.074542,0.89393
0.073031,0.89463
0.07273,0.8978
0.072143,0.89992
0.072537,0.90413
0.073886,0.91035
0.074268,0.91448
0.073252,0.91516
0.072895,0.91753
0.073213,0.92092
0.073828,0.92462
0.074076,0.92729
0.074022,0.92995
0.073599,0.93192
0.07208,0.93191
0.070273,0.93125
0.069336,0.93255
0.06892,0.93485
0.067634,0.93484
0.066056,0.93385
0.064624,0.93318
0.063555,0.93383
0.063153,0.93612
0.063194,0.93938
0.06302,0.94165
0.062112,0.94229
0.061426,0.94358
0.06007,0.94356
0.058803,0.94324
0.058563,0.94516
0.059359,0.94932
0.059051,0.95123
0.058008,0.95122
0.056965,0.95121
0.055773,0.95121
0.054059,0.95056
0.051595,0.94831
0.049952,0.94767
0.050033,0.95053
0.051684,0.95686
0.054413,0.96619
0.057372,0.97624
0.058648,0.98164
0.058143,0.98194
0.056204,0.97833
0.054112,0.97442
0.053092,0.97289
0.05309,0.9738
0.053312,0.97472
0.053307,0.97592
0.052947,0.97652
0.052804,0.97742
0.052143,0.9765
0.050692,0.9738
0.049223,0.97135
0.049816,0.97348
0.049962,0.97469
0.049896,0.9753
0.049383,0.97529
0.049756,0.9768
0.049901,0.978
0.049762,0.9792
0.049187,0.9798
0.048824,0.98009
0.048978,0.98159
0.049203,0.98425
0.049431,0.98691
0.048999,0.98691
0.049149,0.9878
0.050016,0.99043
0.050448,0.99189
0.049876,0.99073
0.049154,0.98955
0.04865,0.98896
0.047783,0.98749
0.047056,0.98602
0.046764,0.98542
0.046764,0.98542
0.04648,0.98601
0.046641,0.98807
0.047516,0.991
0.047369,0.99071
0.046074,0.98896
0.045284,0.98894
0.045223,0.99041
0.045019,0.99129
0.044884,0.99244
0.0454,0.99419
0.04518,0.9939
0.044971,0.9939
0.044759,0.99448
0.044408,0.99505
0.043554,0.99476
0.043205,0.99563
0.04322,0.99707
0.043453,0.9988
0.04397,1.0011
0.044707,1.0042
0.045149,1.0065
0.044867,1.0065
0.044296,1.0054
0.044009,1.0051
0.04452,1.0068
0.045311,1.009
0.045742,1.0104
0.045677,1.0107
0.046247,1.0121
0.046682,1.0149
0.046074,1.0168
0.045035,1.0174
0.044693,1.0179
0.044706,1.0193
0.044643,1.0201
0.044082,1.0193
0.043235,1.0179
0.042743,1.0174
0.042179,1.0168
0.04183,1.0165
0.042117,1.0173
0.042827,1.0187
0.043823,1.0209
0.043901,1.0223
0.041588,1.0195
0.038825,1.0154
0.039117,1.0165
0.041189,1.0209
0.042897,1.0247
0.042832,1.0255
0.038173,1.0187
0.03097,1.0073
0.02723,1.0019
0.028073,1.0044
0.029213,1.0075
0.030051,1.0101
0.031014,1.0123
0.03139,1.0134
0.032003,1.0156
0.033047,1.0189
0.034217,1.0217
0.03436,1.022
0.033928,1.0211
0.033207,1.0198
0.032626,1.0187
0.032344,1.0184
0.032127,1.0181
0.032495,1.019
0.032713,1.0195
0.032279,1.0187
0.029411,1.0126
0.026664,1.0067
0.025605,1.0044
0.027256,1.0078
0.028816,1.0112
0.029855,1.0134
0.029855,1.0134
0.030303,1.0145
0.031261,1.0167
0.032292,1.0192
0.032808,1.0206
0.033249,1.0217
0.03368,1.0225
0.033657,1.0214
0.040833,1.0084
0.051426,0.98871
0.058255,0.97475
0.057392,0.97231
0.057542,0.97141
0.057767,0.97019
0.058064,0.96927
0.058579,0.96867
0.0596,0.96928
0.061122,0.97082
0.062566,0.97235
0.063938,0.97357
0.065664,0.97509
0.06887,0.97902
0.070927,0.98081
0.071452,0.98023
0.070848,0.97752
0.070738,0.97572
0.070414,0.97361
0.070643,0.973
0.070872,0.9724
0.071109,0.97149
0.071557,0.97088
0.07264,0.9715
0.073931,0.97242
0.074951,0.97242
0.075264,0.97151
0.07614,0.97152
0.077572,0.97244
0.079216,0.97366
0.080497,0.97457
0.081787,0.97519
0.08293,0.9758
0.083717,0.9761
0.084362,0.97641
0.084191,0.9749
0.084026,0.97339
0.084,0.97187
0.084321,0.97096
0.084026,0.96882
0.08455,0.96853
0.085695,0.96914
0.08698,0.97007
0.088186,0.97099
0.089731,0.97251
0.091285,0.97374
0.092579,0.97404
0.094214,0.97497
0.09549,0.97557
0.096013,0.97527
0.095864,0.97376
0.09599,0.97255
0.096328,0.97167
0.096662,0.97077
